Russia,2,0,New Zealand
Portugal,2,2,Mexico
Australia,2,3,Germany
Mexico,2,1,New Zealand
Russia,0,1,Portugal
Cameroon,1,1,Australia
Germany,1,1,Chile
Mexico,2,1,Russia
New Zealand,0,4,Portugal
Germany,3,1,Cameroon
Chile,1,1,Australia
Portugal,0,0,Chile
Germany,4,1,Mexico
Portugal,2,1,Mexico
Chile,0,1,Germany
Costa Rica,0,0,Panama
Mexico,3,0,Honduras
Mexico,1,1,USA
Panama,2,2,Honduras
Costa Rica,2,1,Trinidad and Tobago
USA,0,2,Costa Rica
Mexico,1,0,Panama
Costa Rica,1,1,Mexico
Panama,3,0,Trinidad and Tobago
USA,4,0,Panama
Mexico,3,1,Trinidad and Tobago
Costa Rica,1,1,Honduras
Honduras,3,2,Mexico
Panama,2,1,Costa Rica
Australia,3,2,Saudi Arabia
IR Iran,2,0,Uzbekistan
Iraq,1,1,Japan
Qatar,3,2,Korea Republic
United Arab Emirates,2,1,Saudi Arabia
Japan,2,0,Australia
Korea Republic,0,0,IR Iran
Australia,2,1,Thailand
Uzbekistan,0,0,Korea Republic
IR Iran,2,2,Syria
Saudi Arabia,1,0,Japan
Syria,1,1,Australia
Australia,2,1,Syria
Colombia,0,1,Ghana
Germany,2,1,Costa Rica
Brazil,2,1,Spain
Chile,0,4,England
New Caledonia,1,7,France
Iraq,1,1,Mexico
Honduras,1,6,Japan
India,1,2,Colombia
Costa Rica,2,2,Guinea
Spain,4,0,Niger
Korea DPR,0,2,Brazil
Iran,4,0,Germany
France,2,1,Japan
England,3,2,Mexico
USA,1,3,Colombia
Guinea,1,3,Germany
Niger,0,2,Brazil
Spain,2,0,Korea DPR
Costa Rica,0,3,Iran
France,5,1,Honduras
Japan,1,1,New Caledonia
Mexico,0,0,Chile
England,4,0,Iraq
Colombia,0,4,Germany
France,1,2,Spain
England,0,0,Japan
Iran,2,1,Mexico
Brazil,3,0,Honduras
USA,1,4,England
Germany,1,2,Brazil
Spain,3,1,Iran
Brazil,1,3,England
Mali,1,3,Spain
Brazil,2,0,Mali
England,5,2,Spain
Mexico,1,0,Senegal
France,1,2,Italy
Portugal,2,2,Uruguay
Mexico,0,1,England
Uruguay,1,1,Venezuela
Italy,1,3,England
Uruguay,0,0,Italy
Venezuela,0,1,England
Uganda,1,0,Egypt
Nigeria,4,0,Cameroon
Tunisia,2,1,Congo DR
Morocco,6,0,Mali
Senegal,0,0,Burkina Faso
Cameroon,1,1,Nigeria
Congo DR,2,2,Tunisia
Burkina Faso,2,2,Senegal
Egypt,1,0,Uganda
Mali,0,0,Morocco
Nigeria,1,0,Zambia
Guinea,1,4,Tunisia
Cape Verde Islands,0,2,Senegal
Morocco,3,0,Gabon
Egypt,2,1,Congo
South Africa,0,2,Senegal
Côte d'Ivoire,0,2,Morocco
Tunisia,0,0,Libya
Ghana,1,1,Egypt
Senegal,2,1,South Africa
Venezuela,0,0,Colombia
Uruguay,0,0,Argentina
Brazil,2,0,Ecuador
Peru,2,1,Bolivia
Colombia,1,1,Brazil
Ecuador,1,2,Peru
Paraguay,1,2,Uruguay
Argentina,1,1,Venezuela
Bolivia,0,0,Brazil
Venezuela,0,0,Uruguay
Colombia,1,2,Paraguay
Argentina,0,0,Peru
Uruguay,4,2,Bolivia
Peru,1,1,Colombia
Brazil,3,0,Chile
Ecuador,1,3,Argentina
Faroe Islands,0,2,Switzerland
Latvia,0,3,Portugal
Estonia,0,2,Belgium
Sweden,2,1,France
Kazakhstan,1,3,Denmark
Scotland,2,2,England
Germany,7,0,San Marino
Poland,3,1,Romania
FYR Macedonia,1,2,Spain
Iceland,1,0,Croatia
Serbia,1,1,Wales
Belgium,9,0,Gibraltar
France,4,0,Netherlands
Switzerland,3,0,Andorra
Portugal,5,1,Faroe Islands
Bulgaria,3,2,Sweden
Czech Republic,1,2,Germany
Malta,0,4,England
Denmark,4,0,Poland
Finland,1,0,Iceland
Serbia,3,0,Moldova
Spain,3,0,Italy
Croatia,1,0,Kosovo
Belarus,0,4,Sweden
France,0,0,Luxembourg
Hungary,0,1,Portugal
Latvia,0,3,Switzerland
Greece,1,2,Belgium
Armenia,1,4,Denmark
England,2,1,Slovakia
Poland,3,0,Kazakhstan
Germany,6,0,Norway
Turkey,1,0,Croatia
Liechtenstein,0,8,Spain
Iceland,2,0,Ukraine
Republic of Ireland,0,1,Serbia
Armenia,1,6,Poland
England,1,0,Slovenia
Montenegro,0,1,Denmark
Northern Ireland,1,3,Germany
Austria,3,2,Serbia
Spain,3,0,Albania
Croatia,1,1,Finland
Turkey,0,3,Iceland
Bosnia and Herzegovina,3,4,Belgium
Sweden,8,0,Luxembourg
Andorra,0,2,Portugal
Bulgaria,0,1,France
Switzerland,5,2,Hungary
Poland,4,2,Montenegro
Lithuania,0,1,England
Denmark,1,1,Romania
Germany,5,1,Azerbaijan
Ukraine,0,2,Croatia
Israel,0,1,Spain
Iceland,2,0,Kosovo
Serbia,1,0,Georgia
Belgium,4,0,Cyprus
France,2,1,Belarus
Portugal,2,0,Switzerland
Netherlands,2,0,Sweden
Northern Ireland,0,1,Switzerland
Croatia,4,1,Greece
Sweden,1,0,Italy
Denmark,0,0,Republic of Ireland
Switzerland,0,0,Northern Ireland
Greece,0,0,Croatia
Italy,0,0,Sweden
Republic of Ireland,1,5,Denmark
Honduras,0,0,Australia
Australia,3,1,Honduras
New Zealand,0,0,Peru
Peru,2,0,New Zealand
Mexico,3,1,Republic of Ireland
Switzerland,1,0,Belarus
France,5,0,Paraguay
Portugal,4,0,Cyprus
Republic of Ireland,3,1,Uruguay
Montenegro,1,2,IR Iran
Hungary,0,3,Russia
Denmark,1,1,Germany
Japan,1,1,Syria
Iraq,0,0,Korea Republic
Italy,3,0,Uruguay
Spain,2,2,Colombia
Peru,1,0,Paraguay
Brazil,0,1,Argentina
Russia,1,1,Chile
Australia,0,4,Brazil
Singapore,0,6,Argentina
Norway,1,1,Sweden
France,3,2,England
Peru,3,1,Jamaica
Cameroon,0,4,Colombia
Mexico,1,0,Ghana
Mexico,2,1,Paraguay
Sierra Leone,1,1,Senegal
Senegal,3,1,Sierra Leone
Benin,1,0,Nigeria
Egypt,1,1,Morocco
Senegal,3,1,Guinea
Morocco,3,1,Egypt
Nigeria,2,0,Benin
Guinea,5,0,Senegal
IR Iran,2,0,Togo
Japan,2,1,New Zealand
Russia,4,2,Korea Republic
Japan,3,3,Haiti
Korea Republic,1,3,Morocco
Russia,1,1,IR Iran
Grenada,0,5,Panama
Iceland,1,2,Czech Republic
IR Iran,2,1,Panama
Korea Republic,2,1,Colombia
China PR,0,2,Serbia
Japan,1,3,Brazil
France,2,0,Wales
Belgium,3,3,Mexico
Poland,0,0,Uruguay
England,0,0,Germany
Portugal,3,0,Saudi Arabia
Russia,0,1,Argentina
Spain,5,0,Costa Rica
Venezuela,0,1,IR Iran
Bulgaria,1,0,Saudi Arabia
Poland,0,1,Mexico
Korea Republic,1,1,Serbia
China PR,0,4,Colombia
Qatar,1,1,Iceland
Hungary,1,0,Costa Rica
Wales,1,1,Panama
Austria,2,1,Uruguay
Portugal,1,1,USA
England,0,0,Brazil
Argentina,2,4,Nigeria
Belgium,1,0,Japan
Germany,2,2,France
Russia,3,3,Spain
Korea Republic,2,2,China PR
Japan,1,0,Korea DPR
Korea DPR,0,1,Korea Republic
Japan,2,1,China PR
Japan,1,4,Korea Republic
Kuwait,1,2,Saudi Arabia
United Arab Emirates,0,0,Saudi Arabia
Saudi Arabia,0,2,Oman
Morocco,4,0,Mauritania
Nigeria,0,0,Rwanda
Morocco,3,1,Guinea
Libya,0,1,Nigeria
Morocco,0,0,Sudan
Equatorial Guinea,1,3,Nigeria
Moldova,0,1,Korea Republic
Morocco,2,0,Namibia
Nigeria,2,1,Angola
Jamaica,2,2,Korea Republic
Morocco,3,1,Libya
Sudan,0,1,Nigeria
Mexico,1,0,Bosnia and Herzegovina
Latvia,0,1,Korea Republic
Morocco,4,0,Nigeria
Saudi Arabia,3,0,Moldova
Iraq,4,1,Saudi Arabia
IR Iran,4,0,Sierra Leone
Denmark,1,0,Panama
Japan,1,1,Mali
Uruguay,2,0,Czech Republic
Russia,0,3,Brazil
Senegal,1,1,Uzbekistan
Norway,4,1,Australia
Greece,0,1,Switzerland
Tunisia,1,0,IR Iran
Serbia,1,2,Morocco
Netherlands,0,1,England
Scotland,0,1,Costa Rica
France,2,3,Colombia
Ukraine,1,1,Saudi Arabia
Germany,1,1,Spain
Portugal,2,1,Egypt
Italy,0,2,Argentina
Poland,0,1,Nigeria
Peru,2,0,Croatia
Iceland,0,3,Mexico
Northern Ireland,2,1,Korea Republic
Sweden,1,2,Chile
Wales,0,1,Uruguay
Netherlands,3,0,Portugal
Japan,1,2,Ukraine
Switzerland,6,0,Panama
Algeria,1,2,IR Iran
Belgium,4,0,Saudi Arabia
Russia,1,3,France
England,1,1,Italy
Morocco,2,0,Uzbekistan
Colombia,0,0,Australia
Spain,6,1,Argentina
Denmark,0,0,Chile
Greece,1,0,Egypt
Senegal,0,0,Bosnia and Herzegovina
Tunisia,1,0,Costa Rica
Nigeria,0,2,Serbia
Romania,1,0,Sweden
Germany,0,1,Brazil
Poland,3,2,Korea Republic
Peru,3,1,Iceland
Mexico,0,1,Croatia
Trinidad and Tobago,0,1,Panama
Algeria,0,2,Saudi Arabia
Saudi Arabia,2,0,Greece
IR Iran,1,0,Uzbekistan
Korea Republic,2,0,Honduras
Mexico,0,0,Wales
Italy,2,1,Saudi Arabia
France,2,0,Republic of Ireland
Nigeria,1,1,Congo DR
Portugal,2,2,Tunisia
Turkey,2,1,IR Iran
Argentina,4,0,Haiti
Peru,2,0,Scotland
Panama,0,0,Northern Ireland
Japan,0,2,Ghana
Austria,1,0,Russia
Luxembourg,0,0,Senegal
Ukraine,0,0,Morocco
Korea Republic,1,3,Bosnia and Herzegovina
Australia,4,0,Czech Republic
Tunisia,2,2,Turkey
France,3,1,Italy
Colombia,0,0,Egypt
England,2,1,Nigeria
Austria,2,1,Germany
Belgium,0,0,Portugal
Sweden,0,0,Denmark
Iceland,2,3,Norway
Mexico,1,0,Scotland
Croatia,0,2,Brazil
Costa Rica,3,0,Northern Ireland
Saudi Arabia,0,3,Peru
Spain,1,1,Switzerland
Slovakia,1,2,Morocco
Serbia,0,1,Chile
Russia,1,1,Turkey
Nigeria,0,1,Czech Republic
Norway,1,0,Panama
England,3,2,Germany
England,4,5,Germany
Switzerland,6,3,England
Morocco,2,1,Netherlands
Switzerland,9,2,Netherlands
Morocco,3,4,England
England,3,3,Netherlands
Morocco,5,5,Switzerland
Brazil,9,4,Russia
Portugal,5,0,France
Brazil,9,0,France
Portugal,3,1,Russia
Russia,5,2,France
Portugal,4,6,Brazil
China PR,1,8,Uruguay
Mexico,1,0,Peru
Uruguay,4,3,Peru
China PR,1,4,Mexico
Uruguay,5,4,Mexico
China PR,4,6,Peru
Switzerland,6,2,France
China PR,1,6,Peru
Uruguay,4,3,Mexico
China PR,1,9,Mexico
Uruguay,5,3,Peru
China PR,2,4,Uruguay
Mexico,6,4,Peru
Denmark,2,9,Norway
Brazil,7,4,Colombia
Peru,6,4,Venezuela
Peru,6,5,Colombia
Colombia,3,4,Venezuela
Brazil,7,3,Ecuador
Brazil,10,2,Venezuela
Peru,2,5,Ecuador
Ecuador,4,3,Colombia
Peru,2,6,Brazil
Uruguay,7,1,Bolivia
Argentina,4,7,Chile
Argentina,2,2,Uruguay
Argentina,4,1,Bolivia
Paraguay,7,2,Uruguay
Chile,2,3,Uruguay
Paraguay,5,2,Argentina
Morocco,4,4,Egypt
Morocco,0,1,Egypt
Mexico,5,2,Colombia
USA,6,5,France
Morocco,6,4,Egypt
USA,4,2,Colombia
Mexico,4,3,France
France,5,4,Colombia
Mexico,5,4,USA
United Arab Emirates,2,6,Russia
Egypt,3,11,Brazil
United Arab Emirates,4,6,Portugal
Russia,6,2,Mexico
United Arab Emirates,3,4,Egypt
Brazil,4,1,Portugal
Paraguay,1,2,Russia
Mexico,1,4,Iran
Mexico,4,5,Paraguay
Egypt,6,6,Portugal
United Arab Emirates,4,15,Brazil
Iran,3,4,Russia
Egypt,6,5,Mexico
Russia,2,3,Portugal
Brazil,6,4,Iran
Mexico,0,3,Paraguay
United Arab Emirates,2,1,Egypt
Russia,2,4,Iran
Portugal,0,2,Brazil
Uruguay,3,2,China PR
Uruguay,6,3,China PR
Spain,7,3,Lebanon
Nigeria,7,6,Morocco
Spain,8,5,Morocco
Nigeria,9,8,Lebanon
Morocco,2,0,Lebanon
Nigeria,5,6,Spain
Brazil,10,3,Switzerland
Brazil,11,0,Peru
Switzerland,11,2,Peru
Brazil,11,4,Switzerland
Spain,6,2,Ukraine
Brazil,11,7,Switzerland
Spain,3,1,Azerbaijan
Iran,4,2,Spain
Ecuador,6,3,Peru
Peru,6,5,Ecuador
Costa Rica,2,2,Panama
Panama,8,2,Belize
El Salvador,3,2,Costa Rica
Belize,6,7,Costa Rica
El Salvador,6,2,Panama
Portugal,6,3,Poland
Portugal,9,2,Poland
France,12,2,Belgium
France,9,2,Belgium
Switzerland,7,1,Germany
Spain,4,3,USA
Bahamas,1,5,Mexico
Switzerland,9,0,Estonia
USA,6,8,Mexico
Bahamas,4,7,Spain
Spain,4,5,Mexico
Oman,4,3,Egypt
Oman,2,5,Egypt
Oman,4,5,Egypt
France,2,1,England
France,3,2,England
China PR,0,5,England
England,4,5,Czech Republic
Malaysia,0,5,England
Paraguay,5,3,Uruguay
Argentina,6,0,Bolivia
Argentina,7,1,Uruguay
Uruguay,3,3,Bolivia
Argentina,6,1,Chile
Uruguay,2,1,Chile
Argentina,2,2,Paraguay
Poland,3,4,France
Argentina,0,0,Kazakhstan
Argentina,9,1,Mozambique
Germany,3,2,Turkey
Belgium,7,2,Switzerland
Turkey,4,2,Switzerland
Germany,5,10,Belgium
Thailand,1,2,Argentina
Japan,5,2,Lebanon
Egypt,2,5,Saudi Arabia
Thailand,4,6,Japan
Egypt,5,5,Saudi Arabia
Brazil,1,0,Uruguay
Japan,4,1,Jordan
Sweden,2,3,Wales
Brazil,7,1,Uruguay
Sweden,2,2,Wales
Japan,3,3,Uzbekistan
Bahrain,4,3,Egypt
Russia,3,3,Portugal
Slovenia,4,0,Germany
Slovakia,2,3,Spain
Bahrain,0,5,Egypt
Afghanistan,1,1,Japan
Russia,7,3,Portugal
Slovenia,5,1,Germany
Spain,4,0,Italy
Brazil,3,1,Peru
Colombia,1,1,Ecuador
Brazil,5,3,Ecuador
Colombia,5,0,Peru
Ecuador,2,5,Peru
Colombia,2,3,Brazil
Croatia,3,1,Vietnam
Netherlands,0,0,Croatia
China PR,0,3,Croatia
England,2,1,Wales
England,2,2,Wales
Sweden,1,3,Hungary
Netherlands,6,1,Switzerland
Switzerland,0,2,Montenegro
Sweden,5,4,Hungary
Slovenia,6,6,Poland
Slovenia,3,1,Poland
Brazil,3,1,Costa Rica
Brazil,5,1,Costa Rica
Ecuador,2,4,Peru
Colombia,5,0,Panama
Peru,4,1,Bolivia
Panama,0,4,Venezuela
Colombia,7,1,Ecuador
Venezuela,3,3,Peru
Panama,2,4,Ecuador
Colombia,4,3,Bolivia
Bolivia,2,4,Panama
Colombia,2,0,Peru
Peru,1,2,Panama
Colombia,2,2,Venezuela
Venezuela,3,4,Peru
Colombia,5,2,Ecuador
England,3,0,Wales
England,5,1,Northern Ireland
Russia,3,3,Kazakhstan
Scotland,0,5,England
Czech Republic,13,2,Germany
Russia,4,3,Azerbaijan
Poland,4,2,Georgia
Spain,5,2,Belgium
Finland,6,1,Sweden
Hungary,1,4,France
Poland,3,1,Georgia
Germany,2,5,Czech Republic
Norway,0,1,Denmark
Slovenia,0,2,Portugal
Slovakia,3,3,Serbia
Spain,2,0,Belgium
Iran,4,0,Russia
Denmark,4,3,Sweden
Hungary,1,4,France
Slovenia,4,6,Portugal
Slovakia,6,0,Serbia
Norway,3,1,Sweden
Finland,4,3,Denmark
Panama,1,0,Costa Rica
Honduras,2,7,Costa Rica
Nicaragua,2,3,Panama
Honduras,4,6,Panama
Nicaragua,2,5,Costa Rica
Panama,4,0,Costa Rica
Costa Rica,5,4,Canada
Denmark,7,4,Turkey
Costa Rica,5,0,Canada
Denmark,5,4,Turkey
Croatia,1,0,Slovakia
Serbia,6,0,Kuwait
Italy,7,0,Poland
Czech Republic,1,3,Croatia
Spain,8,1,Thailand
Hungary,1,1,Croatia
Japan,2,4,Argentina
Portugal,1,1,Thailand
Brazil,8,2,Paraguay
Portugal,2,2,Morocco
Brazil,8,3,Paraguay
Japan,1,4,Argentina
Thailand,6,1,Korea Republic
Czech Republic,9,0,Belgium
Brazil,10,1,Uruguay
Czech Republic,6,3,Uruguay
Brazil,6,1,Costa Rica
Uruguay,3,6,Costa Rica
Brazil,8,4,Belgium
Uruguay,8,1,Belgium
Czech Republic,3,1,Costa Rica
Brazil,9,4,Czech Republic
Costa Rica,3,3,Belgium
Costa Rica,1,6,Uruguay
Brazil,4,2,Czech Republic
Brazil,3,1,Poland
Denmark,3,2,Germany
Brazil,5,0,Poland
Denmark,5,2,Germany
Sweden,4,3,Latvia
Sweden,8,6,Latvia
Spain,3,1,Finland
France,4,1,Japan
Portugal,3,2,Serbia
Spain,5,1,Finland
Georgia,5,1,England
Portugal,3,1,Serbia
France,1,1,Japan
Georgia,6,0,England
Hungary,2,0,Costa Rica
Hungary,3,1,Costa Rica
Paraguay,1,3,Colombia
Peru,0,3,Argentina
Bolivia,1,2,Panama
Colombia,0,1,Argentina
Panama,2,5,Paraguay
Bolivia,0,1,Peru
Peru,4,2,Panama
Argentina,1,3,Paraguay
Bolivia,0,7,Colombia
Argentina,4,2,Panama
Colombia,4,1,Peru
Paraguay,2,1,Peru
Panama,0,2,Colombia
Bolivia,2,4,Argentina
England,1,3,Poland
England,4,5,Poland
Uzbekistan,13,2,Korea Republic
Japan,4,2,Tajikistan
Korea Republic,2,5,Japan
Uzbekistan,2,4,Japan
Tajikistan,7,0,Korea Republic
Japan,2,0,Bahrain
Iraq,0,3,Japan
Japan,0,4,Iran
Honduras,0,1,Costa Rica
USA,1,1,Panama
Mexico,3,1,El Salvador
Costa Rica,1,1,Canada
Panama,2,1,Nicaragua
Mexico,0,0,Jamaica
Curacao,0,2,Mexico
Costa Rica,1,0,Panama
Mexico,1,0,Honduras
Costa Rica,0,2,USA
Mexico,0,1,Jamaica
Brazil,7,2,Colombia
Uruguay,3,1,Venezuela
Peru,7,8,Bolivia
Brazil,4,0,Argentina
Uruguay,2,5,Bolivia
Colombia,5,6,Chile
Peru,4,4,Ecuador
Paraguay,6,6,Colombia
Ecuador,4,4,Uruguay
Argentina,6,5,Chile
Peru,4,7,Uruguay
Brazil,13,1,Chile
Argentina,5,7,Paraguay
Brazil,10,6,Paraguay
Argentina,2,1,Colombia
Peru,8,3,Venezuela
Venezuela,4,4,Colombia
Peru,4,4,Chile
Bolivia,2,6,Argentina
Brazil,6,2,Ecuador
Uruguay,3,11,Paraguay
Ecuador,4,7,Uruguay
Brazil,7,3,Paraguay
Spain,2,4,Germany
Russia,2,4,France
Serbia,6,6,Norway
Spain,5,4,France
Russia,3,2,Germany
Serbia,4,2,Czech Republic
France,5,4,Germany
Russia,1,3,Spain
Serbia,3,4,Estonia
Italy,0,4,Switzerland
Spain,3,3,Poland
Portugal,10,5,France
Ukraine,4,3,Poland
Italy,1,0,France
Spain,9,1,Greece
Portugal,7,6,Switzerland
Poland,3,1,Greece
Switzerland,5,3,France
Ukraine,3,4,Spain
Portugal,8,5,Italy
Belarus,8,4,Switzerland
Russia,9,0,Greece
Switzerland,8,1,Greece
Russia,3,2,Belarus
Russia,7,4,Switzerland
Denmark,5,10,Bulgaria
Belarus,6,0,Poland
Azerbaijan,3,9,Portugal
Portugal,3,3,Poland
Hungary,16,2,Denmark
Denmark,14,3,Andorra
Poland,5,4,Azerbaijan
Portugal,3,1,Belarus
Germany,0,3,Azerbaijan
Lithuania,4,9,England
England,7,4,Netherlands
Germany,1,2,Ukraine
England,6,2,Romania
Germany,3,5,Italy
England,2,4,Turkey
Spain,7,2,Switzerland
Belarus,1,4,Russia
Poland,4,6,Portugal
England,4,2,Moldova
Spain,8,5,Poland
Ukraine,3,4,Russia
Portugal,8,7,Switzerland
Hungary,6,4,England
Switzerland,8,6,Poland
Portugal,4,3,Spain
Italy,2,4,Russia
Bulgaria,3,5,England
Poland,4,4,Ukraine
Switzerland,6,4,Belarus
Italy,2,2,Spain
Portugal,1,3,Russia
Slovenia,2,2,Serbia
Russia,1,1,Poland
Portugal,4,1,Romania
Spain,4,4,France
Poland,1,5,Kazakhstan
Serbia,1,1,Italy
France,3,5,Azerbaijan
Kazakhstan,1,1,Russia
Ukraine,3,5,Portugal
Azerbaijan,0,1,Spain
Serbia,1,3,Kazakhstan
Slovenia,0,2,Russia
Portugal,8,1,Azerbaijan
Ukraine,0,1,Spain
Russia,2,3,Portugal
Kazakhstan,5,5,Spain
Russia,1,0,Kazakhstan
Portugal,3,2,Spain
Iraq,0,0,Denmark
Brazil,0,0,South Africa
Mexico,2,2,Germany
Portugal,2,0,Argentina
Sweden,2,2,Colombia
Fiji,0,8,Korea Republic
Nigeria,5,4,Japan
Fiji,1,5,Mexico
Honduras,1,2,Portugal
Germany,3,3,Korea Republic
Argentina,2,1,Algeria
Sweden,0,1,Nigeria
Denmark,1,0,South Africa
Japan,2,2,Colombia
Brazil,0,0,Iraq
Algeria,1,1,Portugal
Argentina,1,1,Honduras
Germany,10,0,Fiji
Korea Republic,1,0,Mexico
Japan,1,0,Sweden
Colombia,2,0,Nigeria
Denmark,0,4,Brazil
Portugal,0,4,Germany
Nigeria,2,0,Denmark
Korea Republic,0,1,Honduras
Brazil,2,0,Colombia
Brazil,6,0,Honduras
Nigeria,0,2,Germany
Honduras,2,3,Nigeria
Brazil,1,1,Germany
Russia,2,0,New Zealand
Portugal,2,2,Mexico
Australia,2,3,Germany
Mexico,2,1,New Zealand
Russia,0,1,Portugal
Cameroon,1,1,Australia
Germany,1,1,Chile
Mexico,2,1,Russia
New Zealand,0,4,Portugal
Germany,3,1,Cameroon
Chile,1,1,Australia
Portugal,0,0,Chile
Germany,4,1,Mexico
Haiti,0,1,Costa Rica
Panama,2,0,Jamaica
El Salvador,1,3,Mexico
Costa Rica,3,1,Panama
Mexico,0,0,Honduras
Honduras,0,1,Panama
Trinidad and Tobago,0,2,Costa Rica
USA,1,2,Mexico
Panama,0,0,Mexico
Costa Rica,4,0,USA
Trinidad and Tobago,1,0,Panama
Mexico,2,0,Costa Rica
Honduras,1,1,Costa Rica
Trinidad and Tobago,0,1,Mexico
Panama,1,1,USA
Costa Rica,0,0,Panama
Mexico,3,0,Honduras
Mexico,1,1,USA
Panama,2,2,Honduras
Costa Rica,2,1,Trinidad and Tobago
Australia,2,0,Iraq
Japan,1,2,United Arab Emirates
Korea Republic,3,2,China PR
IR Iran,2,0,Qatar
Saudi Arabia,1,0,Thailand
Iraq,1,2,Saudi Arabia
China PR,0,0,IR Iran
Syria,0,0,Korea Republic
Thailand,0,2,Japan
United Arab Emirates,0,1,Australia
Japan,2,1,Iraq
Korea Republic,3,2,Qatar
Uzbekistan,0,1,IR Iran
Saudi Arabia,2,2,Australia
Australia,1,1,Japan
IR Iran,1,0,Korea Republic
Saudi Arabia,3,0,United Arab Emirates
Japan,2,1,Saudi Arabia
Korea Republic,2,1,Uzbekistan
Thailand,2,2,Australia
Syria,0,0,IR Iran
China PR,1,0,Korea Republic
Thailand,0,3,Saudi Arabia
Iraq,1,1,Australia
United Arab Emirates,0,2,Japan
Qatar,0,1,IR Iran
Australia,2,0,United Arab Emirates
Japan,4,0,Thailand
Korea Republic,1,0,Syria
IR Iran,1,0,China PR
Saudi Arabia,1,0,Iraq
Australia,3,2,Saudi Arabia
IR Iran,2,0,Uzbekistan
Iraq,1,1,Japan
Qatar,3,2,Korea Republic
Cuba,1,7,Egypt
Uzbekistan,1,3,Panama
Thailand,4,6,Russia
Colombia,1,1,Portugal
Mozambique,2,3,Australia
Ukraine,1,3,Brazil
Solomon Islands,2,4,Costa Rica
Morocco,0,5,Azerbaijan
Argentina,1,0,Kazakhstan
Iran,1,5,Spain
Egypt,1,6,Russia
Panama,0,9,Portugal
Colombia,3,3,Uzbekistan
Australia,1,11,Brazil
Costa Rica,1,3,Kazakhstan
Azerbaijan,2,4,Spain
Iran,5,3,Morocco
Argentina,7,3,Solomon Islands
Russia,7,1,Cuba
Egypt,1,2,Thailand
Portugal,5,1,Uzbekistan
Panama,3,4,Colombia
Brazil,15,3,Mozambique
Australia,1,3,Ukraine
Costa Rica,2,2,Argentina
Spain,4,3,Morocco
Russia,7,0,Vietnam
Colombia,0,0,Paraguay
Spain,5,2,Kazakhstan
Brazil,4,4,Iran
Portugal,4,0,Costa Rica
Argentina,1,0,Ukraine
Italy,3,4,Egypt
Russia,6,2,Spain
Argentina,5,0,Egypt
Azerbaijan,2,3,Portugal
Iran,3,4,Russia
Argentina,5,2,Portugal
Iran,2,2,Portugal
Russia,4,5,Argentina
Venezuela,2,0,Germany
Argentina,0,3,England
Vanuatu,2,3,Mexico
Korea Republic,3,0,Guinea
Zambia,2,1,Portugal
South Africa,1,2,Japan
Italy,0,1,Uruguay
Iran,1,0,Costa Rica
France,3,0,Honduras
Saudi Arabia,0,2,Senegal
England,1,1,Guinea
Korea Republic,2,1,Argentina
Mexico,0,0,Germany
Costa Rica,1,1,Portugal
Uruguay,2,0,Japan
France,4,0,Vietnam
Ecuador,1,2,Saudi Arabia
Senegal,0,1,USA
Germany,3,2,Vanuatu
Mexico,0,1,Venezuela
Guinea,0,5,Argentina
England,1,0,Korea Republic
Costa Rica,1,0,Zambia
Uruguay,0,0,South Africa
Japan,2,2,Italy
Portugal,2,1,Iran
New Zealand,0,2,France
USA,1,1,Saudi Arabia
Senegal,0,0,Ecuador
Venezuela,1,0,Japan
Korea Republic,1,3,Portugal
Uruguay,1,0,Saudi Arabia
Zambia,4,3,Germany
England,2,1,Costa Rica
Mexico,1,0,Senegal
France,1,2,Italy
Portugal,2,2,Uruguay
Mexico,0,1,England
Uruguay,1,1,Venezuela
Italy,1,3,England
Uruguay,0,0,Italy
Venezuela,0,1,England
Gabon,0,0,Morocco
Senegal,2,0,Cape Verde Islands
Zambia,1,2,Nigeria
Congo,1,2,Egypt
Tunisia,2,0,Guinea
Libya,0,1,Tunisia
Nigeria,3,1,Algeria
Morocco,0,0,Côte d'Ivoire
Egypt,2,0,Ghana
Colombia,2,0,Venezuela
Ecuador,0,3,Brazil
Argentina,1,0,Uruguay
Uruguay,4,0,Paraguay
Venezuela,2,2,Argentina
Brazil,2,1,Colombia
Peru,2,1,Ecuador
Uruguay,3,0,Venezuela
Paraguay,0,1,Colombia
Brazil,5,0,Bolivia
Peru,2,2,Argentina
Colombia,2,2,Uruguay
Argentina,0,1,Paraguay
Chile,2,1,Peru
Venezuela,0,2,Brazil
Colombia,0,0,Chile
Uruguay,2,1,Ecuador
Paraguay,1,4,Peru
Brazil,3,0,Argentina
Argentina,3,0,Colombia
Chile,3,1,Uruguay
Peru,0,2,Brazil
Colombia,1,0,Bolivia
Uruguay,1,4,Brazil
Venezuela,2,2,Peru
Argentina,1,0,Chile
Bolivia,2,0,Argentina
Ecuador,0,2,Colombia
Brazil,3,0,Paraguay
Peru,2,1,Uruguay
Kazakhstan,2,2,Poland
Slovakia,0,1,England
Denmark,1,0,Armenia
Norway,0,3,Germany
Spain,8,0,Liechtenstein
Ukraine,1,1,Iceland
Croatia,1,1,Turkey
Serbia,2,2,Republic of Ireland
Cyprus,0,3,Belgium
Belarus,0,0,France
Sweden,1,1,Netherlands
Switzerland,2,0,Portugal
Iceland,3,2,Finland
Italy,1,1,Spain
Moldova,0,3,Serbia
Kosovo,0,6,Croatia
Belgium,4,0,Bosnia and Herzegovina
Portugal,6,0,Andorra
Hungary,2,3,Switzerland
France,4,1,Bulgaria
Luxembourg,0,1,Sweden
England,2,0,Malta
Germany,3,0,Czech Republic
Poland,3,2,Denmark
Finland,0,1,Croatia
Iceland,2,0,Turkey
Serbia,3,2,Austria
Albania,0,2,Spain
Netherlands,0,1,France
Faroe Islands,0,6,Portugal
Andorra,1,2,Switzerland
Sweden,3,0,Bulgaria
Gibraltar,0,6,Belgium
Slovenia,0,0,England
Germany,2,0,Northern Ireland
Poland,2,1,Armenia
Denmark,0,1,Montenegro
San Marino,0,8,Germany
France,2,1,Sweden
Romania,0,3,Poland
England,3,0,Scotland
Denmark,4,1,Kazakhstan
Croatia,2,0,Iceland
Spain,4,0,FYR Macedonia
Wales,1,1,Serbia
Switzerland,2,0,Faroe Islands
Portugal,4,1,Latvia
Belgium,8,1,Estonia
Georgia,1,3,Serbia
Croatia,1,0,Ukraine
Spain,4,1,Israel
Kosovo,1,2,Iceland
Switzerland,1,0,Latvia
Sweden,4,0,Belarus
Belgium,1,1,Greece
Luxembourg,1,3,France
Portugal,3,0,Hungary
Azerbaijan,1,4,Germany
England,2,0,Lithuania
Montenegro,1,2,Poland
Romania,0,0,Denmark
Latvia,0,3,Portugal
Faroe Islands,0,2,Switzerland
Estonia,0,2,Belgium
Sweden,2,1,France
Scotland,2,2,England
Kazakhstan,1,3,Denmark
Poland,3,1,Romania
Germany,7,0,San Marino
Iceland,1,0,Croatia
FYR Macedonia,1,2,Spain
Serbia,1,1,Wales
Iran,3,2,Mexico
Ecuador,0,9,Senegal
Nigeria,6,12,Italy
Bahamas,2,3,Switzerland
Japan,9,4,Poland
Portugal,7,0,Panama
Brazil,4,1,Tahiti
Switzerland,9,5,Ecuador
Mexico,4,5,Nigeria
Senegal,10,1,Bahamas
Tahiti,4,3,Japan
Paraguay,5,3,Portugal
Poland,4,7,Brazil
Panama,2,2,United Arab Emirates
Nigeria,4,4,Iran
Italy,8,1,Mexico
Switzerland,6,6,Senegal
Tahiti,8,4,Poland
Paraguay,5,2,Panama
Brazil,9,3,Japan
United Arab Emirates,1,2,Portugal
Switzerland,3,4,Iran
Brazil,4,3,Portugal
Italy,5,1,Senegal
Italy,4,8,Brazil
Tahiti,0,6,Brazil
Cape Verde Islands,2,7,Senegal
Senegal,5,2,Cape Verde Islands
Morocco,1,2,Senegal
Nigeria,3,2,Egypt
Libya,3,9,Morocco
Egypt,5,4,Ghana
Senegal,3,1,Madagascar
Nigeria,4,4,Côte d'Ivoire
Libya,2,10,Senegal
Egypt,4,2,Côte d'Ivoire
Madagascar,1,2,Morocco
Nigeria,4,3,Ghana
Senegal,5,2,Egypt
Nigeria,6,1,Morocco
Egypt,4,1,Morocco
Nigeria,4,8,Senegal
England,6,4,Romania
Germany,4,3,Norway
France,3,2,Azerbaijan
Denmark,2,10,Spain
Kazakhstan,1,5,Russia
Moldova,0,15,Portugal
Italy,8,4,Serbia
Lithuania,1,16,Switzerland
Poland,5,3,Estonia
England,0,3,Moldova
Belarus,8,1,Serbia
Portugal,11,0,Romania
Germany,5,2,Kazakhstan
Turkey,9,0,Serbia
France,6,2,Bulgaria
Russia,4,2,Norway
Portugal,8,1,England
Poland,5,1,Denmark
Switzerland,10,0,Netherlands
Spain,4,0,Estonia
Russia,7,3,Germany
Estonia,7,1,Denmark
Switzerland,7,0,Greece
Hungary,7,8,France
Spain,4,2,Poland
Hungary,2,4,Germany
Belarus,4,4,France
Ukraine,3,4,Poland
Spain,2,4,Azerbaijan
Turkey,5,6,Switzerland
Moldova,3,8,Russia
Greece,0,8,Portugal
Spain,8,2,Turkey
Switzerland,7,6,Azerbaijan
Russia,3,5,Poland
Portugal,5,3,France
Italy,5,4,Germany
Germany,4,6,Czech Republic
France,7,4,Greece
Poland,3,1,Moldova
Switzerland,8,4,Spain
Russia,4,3,Ukraine
Portugal,5,4,Belarus
Belarus,2,4,Spain
Ukraine,2,2,Germany
Russia,9,3,France
Portugal,1,3,Switzerland
Italy,2,3,Poland
Germany,1,2,Belarus
Ukraine,1,3,Spain
Azerbaijan,3,4,France
Czech Republic,1,5,Russia
Italy,3,8,Portugal
Poland,6,3,Switzerland
Costa Rica,1,1,Panama
Canada,3,8,Mexico
Panama,4,4,El Salvador
Turks and Caicos Islands,2,8,Costa Rica
Mexico,10,0,Barbados
El Salvador,8,2,Costa Rica
Panama,8,4,Turks and Caicos Islands
Canada,2,2,Costa Rica
USA,4,6,Panama
Mexico,5,1,Trinidad and Tobago
Costa Rica,5,2,Guyana
Panama,2,2,El Salvador
Panama,4,2,Mexico
Costa Rica,6,5,Canada
Argentina,5,4,Chile
Venezuela,2,6,Brazil
Ecuador,6,6,Colombia
Ecuador,3,2,Peru
Colombia,3,2,Venezuela
Argentina,4,3,Uruguay
Peru,6,2,Venezuela
Uruguay,11,3,Bolivia
Brazil,9,5,Colombia
Paraguay,7,1,Uruguay
Argentina,5,1,Bolivia
Brazil,11,0,Peru
Brazil,11,1,Ecuador
Peru,3,2,Colombia
Paraguay,5,2,Argentina
Uruguay,5,4,Chile
Chile,10,4,Peru
Uruguay,4,7,Colombia
Peru,4,3,Uruguay
Brazil,7,1,Argentina
Argentina,4,4,Ecuador
Brazil,7,5,Paraguay
Chile,8,7,Colombia
Japan,14,0,Qatar
Iraq,2,11,Japan
Japan,4,5,United Arab Emirates
Iran,8,6,Japan
Lebanon,3,6,Japan
Spain,6,1,Korea Republic
Czech Republic,2,1,Russia
Norway,3,2,Iceland
Belgium,1,1,Finland
Poland,1,2,Netherlands
Mexico,1,0,Chile
FYR Macedonia,1,3,IR Iran
England,1,0,Portugal
Denmark,2,2,Bosnia and Herzegovina
Japan,7,2,Bulgaria
Switzerland,2,1,Moldova
Australia,1,0,Greece
Germany,2,0,Hungary
Croatia,10,0,San Marino
France,3,0,Scotland
Czech Republic,1,2,Korea Republic
Sweden,3,0,Wales
Belgium,3,2,Norway
Serbia,1,1,Russia
Poland,0,0,Lithuania
Iceland,4,0,Liechtenstein
Denmark,4,0,Bulgaria
Australia,1,2,Greece
Japan,1,2,Bosnia and Herzegovina
Spain,0,1,Georgia
IR Iran,6,0,Kyrgyz Republic
Portugal,7,0,Estonia
Panama,0,0,Guatemala
Saudi Arabia,4,0,Laos
Egypt,1,1,Guinea
Albania,0,0,Morocco
Denmark,5,0,Liechtenstein
Germany,2,0,Finland
Turkey,0,0,Russia
Portugal,5,0,Gibraltar
Belgium,0,2,Spain
Italy,1,3,France
South Africa,1,0,Egypt
Russia,1,0,Ghana
Qatar,3,0,Serbia
New Zealand,1,2,Mexico
Russia,3,4,Costa Rica
Morocco,4,0,Canada
Panama,0,1,Mexico
Netherlands,1,1,Belgium
IR Iran,8,1,Papua New Guinea
Qatar,2,1,Russia
Japan,4,0,Oman
Korea Republic,2,0,Canada
Poland,1,1,Slovenia
Tunisia,0,0,Mauritania
Russia,1,0,Romania
Malta,0,2,Iceland
Hungary,0,2,Sweden
Italy,0,0,Germany
Northern Ireland,0,3,Croatia
England,2,2,Spain
Morocco,2,1,Togo
Czech Republic,1,1,Denmark
France,0,0,Côte d'Ivoire
Ukraine,2,0,Serbia
Tunisia,2,0,Uganda
Libya,1,2,Senegal
Egypt,1,0,Tunisia
Saudi Arabia,0,0,Slovenia
China PR,0,2,Iceland
Chile,1,1,Croatia
Congo,0,2,Senegal
China PR,1,1,Croatia
Cambodia,2,7,Saudi Arabia
Iceland,0,1,Chile
Brazil,1,0,Colombia
USA,0,0,Serbia
Mexico,1,0,Iceland
IR Iran,0,1,Iraq
Germany,1,0,England
Nigeria,1,1,Senegal
Russia,0,2,Côte d'Ivoire
Tunisia,0,1,Cameroon
Morocco,2,0,Burkina Faso
Estonia,3,0,Croatia
Egypt,3,0,Togo
France,0,2,Spain
Morocco,1,0,Tunisia
Portugal,2,3,Sweden
Republic of Ireland,0,1,Iceland
Russia,3,3,Belgium
Mexico,1,2,Croatia
Morocco,1,2,Netherlands
Mexico,3,1,Republic of Ireland
Switzerland,1,0,Belarus
France,5,0,Paraguay
Portugal,4,0,Cyprus
Republic of Ireland,3,1,Uruguay
Montenegro,1,2,IR Iran
Hungary,0,3,Russia
Denmark,1,1,Germany
Japan,1,1,Syria
Iraq,0,0,Korea Republic
Italy,3,0,Uruguay
Spain,2,2,Colombia
Peru,1,0,Paraguay
Brazil,0,1,Argentina
Russia,1,1,Chile
Australia,0,4,Brazil
Singapore,0,6,Argentina
Norway,1,1,Sweden
France,3,2,England
Peru,3,1,Jamaica
Cameroon,0,4,Colombia
Mexico,1,0,Ghana
Czech Republic,4,7,Germany
Czech Republic,4,4,Germany
France,3,3,Morocco
France,2,2,Morocco
Italy,3,2,Switzerland
Portugal,4,2,Spain
Russia,3,2,Ukraine
Czech Republic,5,3,Denmark
Serbia,0,6,Hungary
Austria,6,5,Denmark
Ukraine,7,3,Spain
Russia,4,4,Portugal
Serbia,1,6,Switzerland
Slovakia,4,3,Denmark
Ukraine,6,5,Switzerland
Russia,8,0,Hungary
Serbia,1,11,Spain
Portugal,6,3,Italy
Switzerland,6,6,Bahamas
Switzerland,11,6,Bahamas
Brazil,8,1,USA
Portugal,14,0,China PR
Brazil,16,0,China PR
Portugal,6,5,USA
Portugal,4,6,Brazil
Costa Rica,5,2,Guatemala
El Salvador,11,7,Panama
Panama,8,12,Costa Rica
Guatemala,3,4,Panama
El Salvador,5,4,Costa Rica
Bahrain,4,3,England
Morocco,4,4,Egypt
England,1,6,Egypt
Morocco,3,2,Bahrain
Bahrain,4,5,Egypt
Morocco,3,2,England
Switzerland,10,6,USA
Japan,12,4,Thailand
Iran,5,1,Japan
Vietnam,4,8,Japan
Japan,5,2,Tahiti
Japan,5,1,Tahiti
Vietnam,1,3,Japan
Japan,11,0,Afghanistan
Japan,7,2,China PR
Japan,6,2,United Arab Emirates
Japan,6,5,Lebanon
Japan,4,3,Oman
China PR,1,4,Uruguay
Chile,9,4,Costa Rica
China PR,2,6,Costa Rica
Chile,3,3,Uruguay
Costa Rica,4,3,Uruguay
Italy,4,0,Mexico
Brazil,4,4,Japan
Brazil,5,1,Mexico
Italy,1,3,Japan
Mexico,0,8,Japan
Brazil,8,2,Italy
Hungary,4,3,Japan
United Arab Emirates,3,3,Russia
Russia,3,0,Hungary
Russia,3,3,Japan
Tahiti,5,4,Poland
United Arab Emirates,1,11,Brazil
Russia,10,6,Egypt
Brazil,5,2,Poland
Egypt,1,4,Iran
Russia,9,3,USA
USA,3,5,Egypt
United Arab Emirates,2,2,Poland
Tahiti,4,10,Brazil
Iran,3,3,Russia
Poland,6,3,USA
Egypt,7,3,United Arab Emirates
Brazil,7,0,Russia
Poland,3,3,Egypt
Russia,4,3,Tahiti
Brazil,6,2,Iran
Lebanon,3,3,Egypt
Lebanon,4,5,Egypt
Lebanon,4,4,Egypt
Panama,1,6,Paraguay
Chile,7,7,Peru
Lebanon,2,5,Egypt
Ecuador,4,4,Peru
El Salvador,10,1,Panama
Venezuela,4,3,Panama
Côte d'Ivoire,4,5,Morocco
Peru,3,2,Panama
Côte d'Ivoire,2,1,Morocco
Peru,0,3,Venezuela
Nigeria,3,8,Switzerland
Switzerland,7,1,Turks and Caicos Islands
Switzerland,10,4,Turks and Caicos Islands
Bahamas,7,13,Switzerland
Costa Rica,5,7,Switzerland
Costa Rica,8,5,Switzerland
Bahamas,2,3,Mexico
Costa Rica,3,4,Japan
Argentina,6,1,Bahamas
Costa Rica,3,4,Japan
Argentina,4,3,Mexico
Argentina,4,4,Mexico
Uruguay,3,2,Mexico
Brazil,7,6,Paraguay
Guyana,1,5,England
Antigua and Barbuda,5,5,England
Trinidad and Tobago,3,3,England
Barbados,4,6,England
Japan,5,3,Hungary
Iran,3,2,Poland
Japan,15,0,Malaysia
Italy,2,3,Poland
Thailand,5,6,Japan
Ukraine,4,2,Poland
Japan,6,3,Hungary
Oman,9,4,Switzerland
Oman,5,4,Switzerland
Bahrain,2,3,Japan
Malaysia,0,7,Japan
Morocco,5,4,Senegal
Morocco,2,2,Senegal
Portugal,5,4,Poland
Portugal,3,3,Poland
Tahiti,7,3,Panama
Switzerland,7,3,Estonia
Portugal,7,2,France
Portugal,6,2,France
Switzerland,10,7,Estonia
El Salvador,3,2,Panama
Senegal,4,2,Morocco
Japan,9,3,Germany
Panama,3,1,Ecuador
Japan,5,3,Germany
Senegal,4,1,Morocco
Panama,5,6,Iran
Turkey,5,5,England
Paraguay,4,3,Mexico
Belarus,8,1,England
Bahamas,3,4,Mexico
Czech Republic,3,7,England
Japan,3,1,Switzerland
Portugal,7,3,Germany
Cape Verde Islands,2,3,England
Portugal,8,1,England
Cape Verde Islands,3,5,Germany
Germany,1,3,England
Cape Verde Islands,3,12,Portugal
Montenegro,3,1,Serbia
Montenegro,1,7,Serbia
Uruguay,0,1,Costa Rica
Uruguay,3,1,Costa Rica
Paraguay,3,2,Costa Rica
Paraguay,1,0,Costa Rica
Morocco,2,2,Egypt
Morocco,4,3,Egypt
Spain,3,1,Egypt
Spain,3,1,Egypt
Vietnam,3,3,Egypt
Australia,5,1,Solomon Islands
Vietnam,1,4,Egypt
Australia,8,0,Solomon Islands
Costa Rica,5,0,Mozambique
Portugal,6,2,Mozambique
Spain,4,1,Vietnam
Thailand,2,2,Japan
Portugal,4,3,Costa Rica
Argentina,5,3,Paraguay
Japan,0,9,Kazakhstan
Iran,4,2,Japan
Argentina,11,2,Cuba
Portugal,4,3,Morocco
Spain,2,1,Portugal
China PR,4,6,Egypt
Guatemala,5,4,Panama
Egypt,4,2,Indonesia
Myanmar,2,6,Egypt
Guatemala,0,3,Panama
Argentina,7,2,Cuba
FYR Macedonia,1,2,France
FYR Macedonia,1,1,France
Argentina,3,1,Vietnam
Portugal,5,1,Uzbekistan
Spain,4,0,Uzbekistan
Portugal,0,1,Spain
Colombia,5,3,Ukraine
Australia,0,4,Costa Rica
Argentina,5,2,Vietnam
Guatemala,2,2,Egypt
Guatemala,4,2,Egypt
Costa Rica,1,1,Ukraine
Kazakhstan,2,1,Australia
Brazil,18,0,Solomon Islands
Morocco,5,1,Thailand
Poland,1,3,Hungary
Czech Republic,3,6,Poland
Slovakia,1,8,Poland
Sweden,4,6,Czech Republic
Germany,5,3,England
Brazil,6,3,Paraguay
Sweden,3,6,Czech Republic
Serbia,2,2,Netherlands
France,0,1,Spain
Bahrain,2,1,Saudi Arabia
Germany,3,3,England
Portugal,4,1,Poland
Serbia,3,2,Netherlands
Hungary,0,4,Croatia
France,0,2,Spain
Portugal,2,0,Poland
Hungary,2,4,Croatia
Saudi Arabia,8,5,Bahrain
Brazil,3,2,Uruguay
Sweden,2,2,Denmark
Denmark,0,2,Norway
China PR,2,2,Mexico
England,9,0,Scotland
Sweden,0,1,Finland
Vietnam,4,3,Mexico
Sweden,4,1,Norway
Northern Ireland,1,16,England
Mexico,1,6,Ukraine
Finland,5,1,Denmark
Wales,6,2,England
Iran,6,4,Russia
Poland,3,3,Belgium
Netherlands,1,4,Croatia
Hungary,1,5,Spain
Iran,1,6,Russia
Bosnia and Herzegovina,3,4,Portugal
Poland,6,1,Belgium
Serbia,4,1,France
Hungary,1,6,Spain
Netherlands,2,5,Croatia
FYR Macedonia,2,2,Portugal
Serbia,3,3,France
Switzerland,1,2,Montenegro
Switzerland,2,2,Montenegro
Denmark,0,2,Israel
England,0,7,Netherlands
San Marino,0,4,Denmark
England,4,9,Netherlands
Czech Republic,1,2,Croatia
Czech Republic,3,7,Croatia
Switzerland,13,0,Gibraltar
Switzerland,5,1,Gibraltar
Netherlands,1,4,Russia
Spain,5,0,Montenegro
Netherlands,0,1,Russia
Croatia,2,1,Italy
Belgium,3,2,Slovakia
Croatia,4,3,Italy
Portugal,2,3,Russia
Ukraine,1,1,Spain
Belgium,6,7,Hungary
Poland,2,3,Finland
Ukraine,2,4,Spain
Portugal,2,2,Russia
Poland,6,6,Slovenia
Italy,3,0,Serbia
Poland,3,1,Bosnia and Herzegovina
Italy,4,3,Serbia
Peru,0,3,Uruguay
Peru,4,0,Uruguay
Netherlands,6,3,Belgium
Netherlands,2,3,Belgium
FYR Macedonia,2,2,Croatia
Brazil,3,2,Colombia
FYR Macedonia,0,3,Croatia
Hungary,1,1,Japan
Poland,6,0,Belarus
Hungary,0,3,Japan
Slovenia,5,2,Japan
Croatia,4,2,Iran
Slovenia,2,2,Japan
Croatia,1,1,Iran
Slovenia,3,0,Japan
Serbia,5,1,Montenegro
Serbia,4,3,Montenegro
China PR,0,5,England
England,4,5,Czech Republic
Malaysia,0,5,England
Tunisia,0,2,Senegal
Congo DR,1,0,Morocco
Mali,0,0,Egypt
Algeria,1,2,Tunisia
Senegal,2,0,Zimbabwe
Morocco,3,1,Togo
Egypt,1,0,Uganda
Zimbabwe,2,4,Tunisia
Senegal,2,2,Algeria
Morocco,1,0,Côte d'Ivoire
Egypt,1,0,Ghana
Burkina Faso,2,0,Tunisia
Senegal,0,0,Cameroon
Egypt,1,0,Morocco
Burkina Faso,1,1,Egypt
Egypt,1,2,Cameroon
USA,0,2,Colombia
Costa Rica,0,0,Paraguay
Haiti,0,1,Peru
Brazil,0,0,Ecuador
Mexico,3,1,Uruguay
Panama,2,1,Bolivia
Argentina,2,1,Chile
USA,4,0,Costa Rica
Colombia,2,1,Paraguay
Brazil,7,1,Haiti
Ecuador,2,2,Peru
Uruguay,0,1,Venezuela
Mexico,2,0,Jamaica
Argentina,5,0,Panama
Colombia,2,3,Costa Rica
Brazil,0,1,Peru
Mexico,1,1,Venezuela
Uruguay,3,0,Jamaica
Chile,4,2,Panama
Argentina,3,0,Bolivia
Peru,0,0,Colombia
Argentina,4,1,Venezuela
Mexico,0,7,Chile
USA,0,4,Argentina
Colombia,0,2,Chile
USA,0,1,Colombia
Argentina,0,0,Chile
Peru,3,6,Uruguay
Argentina,6,1,Bolivia
Ecuador,1,9,Colombia
Peru,2,6,Paraguay
Bolivia,0,9,Brazil
Argentina,8,2,Venezuela
Ecuador,4,3,Peru
Colombia,3,3,Uruguay
Brazil,8,0,Chile
Uruguay,3,3,Ecuador
Paraguay,5,5,Colombia
Argentina,0,0,Brazil
Colombia,3,6,Peru
Uruguay,6,4,Paraguay
Brazil,6,3,Venezuela
Argentina,7,1,Chile
Chile,1,5,Peru
Venezuela,4,6,Colombia
Argentina,3,1,Uruguay
Argentina,2,4,Brazil
Uruguay,3,4,Paraguay
Brazil,5,2,Paraguay
Ecuador,2,3,Colombia
Argentina,2,6,Chile
Brazil,9,1,Bolivia
Colombia,1,5,Venezuela
Ecuador,3,6,Peru
Argentina,1,3,Uruguay
Peru,2,3,Venezuela
Uruguay,6,3,Bolivia
Paraguay,2,4,Colombia
Brazil,8,3,Chile
Argentina,6,5,Bolivia
Paraguay,6,3,Peru
Brazil,6,2,Uruguay
Peru,5,4,Colombia
Brazil,9,2,Argentina
Uruguay,3,3,Chile
Argentina,5,11,Ecuador
Bolivia,6,4,Colombia
Chile,3,4,Peru
Uruguay,6,7,Venezuela
Brazil,12,2,Paraguay
Serbia,1,6,Estonia
Switzerland,10,4,France
Greece,3,7,Spain
Russia,4,2,Poland
Moldova,6,5,Serbia
Switzerland,8,3,Poland
Spain,2,1,Belarus
Russia,3,0,France
Kazakhstan,5,6,Serbia
France,2,8,Poland
Spain,4,2,Italy
Russia,7,7,Switzerland
England,5,1,Andorra
Switzerland,10,4,Germany
Ukraine,5,1,France
Greece,3,6,Portugal
Spain,7,2,Romania
Switzerland,6,4,Greece
Portugal,9,1,Germany
Spain,11,3,France
England,1,1,Turkey
Germany,3,1,Greece
Portugal,1,2,Switzerland
France,4,3,Romania
Spain,2,1,Ukraine
Italy,5,1,Germany
Russia,0,2,Belarus
Poland,3,3,Ukraine
Romania,0,7,Portugal
Hungary,9,5,Denmark
Azerbaijan,3,2,Denmark
Italy,7,6,Poland
Russia,7,2,Romania
Ukraine,5,0,Germany
Portugal,2,4,Belarus
Bulgaria,5,4,Denmark
Germany,6,2,Poland
Portugal,3,4,Russia
Czech Republic,1,7,England
Portugal,6,5,Switzerland
Germany,2,6,Spain
Italy,3,5,Russia
Azerbaijan,2,0,England
Belarus,7,2,Germany
Portugal,2,3,Russia
Spain,5,7,Ukraine
Italy,7,5,Switzerland
England,3,4,Turkey
Ukraine,4,1,Germany
Switzerland,3,3,Russia
Spain,3,2,Belarus
Italy,4,5,Portugal
Germany,2,8,Switzerland
Estonia,2,4,England
Spain,7,8,Russia
Ukraine,2,1,Portugal
Spain,2,4,Germany
Russia,2,4,France
Serbia,6,6,Norway
Spain,5,4,France
Russia,3,2,Germany
Serbia,4,2,Czech Republic
France,5,4,Germany
Russia,1,3,Spain
Serbia,3,4,Estonia
France,2,1,Romania
Albania,0,1,Switzerland
England,1,1,Russia
Turkey,0,1,Croatia
Poland,1,0,Northern Ireland
Germany,2,0,Ukraine
Spain,1,0,Czech Republic
Republic of Ireland,1,1,Sweden
Belgium,0,2,Italy
Portugal,1,1,Iceland
Russia,1,2,Slovakia
Romania,1,1,Switzerland
France,2,0,Albania
England,2,1,Wales
Germany,0,0,Poland
Italy,1,0,Sweden
Czech Republic,2,2,Croatia
Spain,3,0,Turkey
Belgium,3,0,Republic of Ireland
Iceland,1,1,Hungary
Portugal,0,0,Austria
Switzerland,0,0,France
Slovakia,0,0,England
Russia,0,3,Wales
Northern Ireland,0,1,Germany
Ukraine,0,1,Poland
Croatia,2,1,Spain
Iceland,2,1,Austria
Hungary,3,3,Portugal
Sweden,0,1,Belgium
Switzerland,1,1,Poland
Croatia,0,1,Portugal
France,2,1,Republic of Ireland
Germany,3,0,Slovakia
Hungary,0,4,Belgium
Italy,2,0,Spain
England,1,2,Iceland
Poland,1,1,Portugal
Wales,3,1,Belgium
Germany,1,1,Italy
France,5,2,Iceland
Portugal,2,0,Wales
Germany,0,2,France
Portugal,1,0,France
England,1,1,Guinea
Nigeria,2,0,USA
Brazil,0,1,Korea Republic
Chile,1,1,Croatia
Australia,1,4,Germany
Belgium,0,0,Mali
Mexico,2,0,Argentina
South Africa,1,2,Costa Rica
New Zealand,1,6,France
Korea DPR,0,2,Russia
USA,2,2,Croatia
England,0,1,Brazil
Korea Republic,1,0,Guinea
Chile,1,5,Nigeria
Belgium,2,1,Honduras
Australia,0,0,Mexico
Argentina,0,4,Germany
Paraguay,3,4,France
Russia,1,1,Costa Rica
Korea Republic,0,0,England
Guinea,1,3,Brazil
Croatia,2,1,Nigeria
Ecuador,2,0,Belgium
Germany,1,2,Mexico
Argentina,1,2,Australia
France,4,0,Syria
Costa Rica,1,2,Korea DPR
Russia,2,0,South Africa
Mexico,4,1,Chile
Brazil,1,0,New Zealand
Nigeria,6,0,Australia
Korea Republic,0,2,Belgium
Croatia,2,0,Germany
France,0,0,Costa Rica
Russia,1,4,Ecuador
Brazil,0,3,Nigeria
Croatia,0,1,Mali
Ecuador,0,2,Mexico
Belgium,1,0,Costa Rica
Mali,3,1,Belgium
Mexico,2,4,Nigeria
Belgium,3,2,Mexico
Mali,0,2,Nigeria
Germany,8,1,Fiji
Nigeria,2,4,Brazil
Austria,2,1,Panama
Argentina,2,3,Ghana
Qatar,0,4,Portugal
Mexico,2,1,Uruguay
Senegal,1,1,Colombia
Serbia,2,0,Mali
Nigeria,4,0,Korea DPR
Hungary,1,2,Brazil
Germany,3,0,Uzbekistan
Austria,0,0,Argentina
Panama,0,1,Ghana
Colombia,1,3,Portugal
Senegal,2,1,Qatar
Mali,1,1,Uruguay
Serbia,2,0,Mexico
Honduras,1,5,Germany
Hungary,0,2,Nigeria
Brazil,3,0,Korea DPR
Serbia,2,1,Hungary
Ukraine,1,1,Senegal
USA,1,0,Colombia
Brazil,0,0,Uruguay
Germany,1,0,Nigeria
Portugal,2,1,New Zealand
Mali,1,1,Germany
Brazil,0,0,Portugal
USA,0,0,Serbia
Uzbekistan,0,1,Senegal
Brazil,5,0,Senegal
Serbia,2,1,Mali
Senegal,1,3,Mali
Brazil,1,2,Serbia
Italy,6,1,Costa Rica
Portugal,4,2,Japan
Argentina,4,3,Senegal
Switzerland,5,2,Oman
Spain,5,6,Iran
Russia,7,5,Paraguay
Brazil,5,1,Mexico
Senegal,6,5,Portugal
Japan,4,3,Argentina
Costa Rica,3,4,Switzerland
Mexico,1,3,Spain
Madagascar,2,4,Russia
Iran,3,4,Brazil
Oman,7,2,Costa Rica
Portugal,7,2,Argentina
Japan,4,3,Senegal
Switzerland,4,6,Italy
Mexico,2,3,Iran
Russia,6,7,Tahiti
Brazil,2,1,Spain
Brazil,5,6,Russia
Portugal,7,3,Switzerland
Italy,3,2,Japan
Portugal,4,2,Russia
Italy,2,5,Russia
Tahiti,3,5,Portugal
Jamaica,0,2,Panama
Mexico,3,0,El Salvador
Costa Rica,1,0,Haiti
Honduras,0,2,Mexico
Panama,1,2,Costa Rica
Haiti,0,0,Panama
Jamaica,1,1,Costa Rica
Canada,0,3,Mexico
Panama,1,0,Haiti
Costa Rica,3,0,Jamaica
Mexico,2,0,Canada
Saudi Arabia,3,2,Palestine
Japan,0,0,Singapore
Myanmar,0,2,Korea Republic
Kyrgyz Republic,1,2,Australia
Turkmenistan,1,1,IR Iran
Japan,3,0,Cambodia
Korea Republic,8,0,Laos
Australia,5,0,Bangladesh
IR Iran,6,0,Guam
Afghanistan,0,6,Japan
Lebanon,0,3,Korea Republic
Tajikistan,0,3,Australia
Jordan,2,0,Australia
Oman,1,1,IR Iran
Syria,0,3,Japan
Saudi Arabia,2,1,United Arab Emirates
Kuwait,0,1,Korea Republic
Palestine,0,0,Saudi Arabia
IR Iran,3,1,Turkmenistan
Korea Republic,4,0,Myanmar
Singapore,0,3,Japan
Australia,3,0,Kyrgyz Republic
Guam,0,6,IR Iran
Timor-Leste,0,10,Saudi Arabia
Bangladesh,0,4,Australia
Laos,0,5,Korea Republic
Cambodia,0,2,Japan
Australia,7,0,Tajikistan
Japan,5,0,Afghanistan
IR Iran,4,0,India
Saudi Arabia,2,0,Malaysia
Korea Republic,1,0,Lebanon
Australia,5,1,Jordan
Japan,5,0,Syria
IR Iran,2,0,Oman
United Arab Emirates,1,1,Saudi Arabia
Korea Republic,3,0,Kuwait
Saudi Arabia,2,2,Bahrain
Saudi Arabia,0,2,Jordan
Lebanon,5,2,Saudi Arabia
Myanmar,1,3,Australia
Australia,13,0,Philippines
Laos,2,15,Australia
Vietnam,5,6,Australia
Australia,6,2,Malaysia
Thailand,5,3,Australia
Chinese Taipei,6,4,Korea Republic
Mongolia,3,7,Korea Republic
Hong Kong,2,7,Korea Republic
Korea Republic,3,3,China PR
Uzbekistan,5,2,Saudi Arabia
Japan,1,0,Qatar
Australia,2,1,Malaysia
Saudi Arabia,3,3,Lebanon
Malaysia,1,11,Japan
Qatar,2,5,Australia
Kyrgyz Republic,3,2,Saudi Arabia
Japan,3,1,Australia
Thailand,6,1,Australia
Japan,4,4,Vietnam
Iraq,3,5,Australia
Kyrgyz Republic,6,2,Japan
Australia,3,1,Kyrgyz Republic
France,8,2,Malta
England,4,2,Wales
Israel,4,6,Denmark
Sweden,3,3,Montenegro
Finland,3,0,Switzerland
Denmark,4,5,England
Sweden,9,4,San Marino
Albania,0,1,France
Switzerland,2,2,Bulgaria
Lithuania,0,6,France
Wales,1,5,Denmark
Sweden,4,1,Greece
Israel,1,3,England
Russia,3,0,Finland
Azerbaijan,8,2,Sweden
Ukraine,7,0,England
Spain,7,0,Latvia
Turkey,0,6,Serbia
Hungary,5,2,Belgium
Croatia,4,7,Belarus
Portugal,6,2,Poland
Slovenia,2,2,France
Serbia,1,2,Russia
Belgium,2,6,Ukraine
Bosnia and Herzegovina,1,8,Spain
Czech Republic,3,2,France
Croatia,5,1,Sweden
Portugal,6,1,Norway
Hungary,5,4,England
Poland,8,1,Romania
France,2,4,Kazakhstan
Norway,2,3,Poland
Finland,1,2,Serbia
England,0,4,Belgium
Sweden,2,2,Belarus
Portugal,5,0,Romania
Netherlands,1,7,Spain
Turkey,1,7,Russia
Croatia,4,4,Azerbaijan
Belarus,1,4,Russia
Poland,1,1,Kazakhstan
Slovenia,1,0,Spain
Serbia,1,2,Portugal
Spain,5,1,Slovenia
Russia,2,2,Belarus
Portugal,2,1,Serbia
Kazakhstan,7,0,Poland
Morocco,2,0,Equatorial Guinea
Madagascar,2,2,Senegal
Mauritania,1,2,Tunisia
Swaziland,0,0,Nigeria
Chad,1,0,Egypt
Equatorial Guinea,1,0,Morocco
Nigeria,2,0,Swaziland
Egypt,4,0,Chad
Tunisia,2,1,Mauritania
Senegal,3,0,Madagascar
Bolivia,0,2,Uruguay
Colombia,2,0,Peru
Chile,2,0,Brazil
Argentina,0,2,Ecuador
Uruguay,3,0,Colombia
Paraguay,0,0,Argentina
Brazil,3,1,Venezuela
Peru,3,4,Chile
Ecuador,2,1,Uruguay
Chile,1,1,Colombia
Argentina,1,1,Brazil
Peru,1,0,Paraguay
Colombia,0,1,Argentina
Uruguay,3,0,Chile
Brazil,3,0,Peru
Bolivia,2,3,Colombia
Chile,1,2,Argentina
Peru,2,2,Venezuela
Brazil,2,2,Uruguay
Colombia,3,1,Ecuador
Uruguay,1,0,Peru
Argentina,2,0,Bolivia
Paraguay,2,2,Brazil
Côte d'Ivoire,2,7,Morocco
Morocco,5,0,Côte d'Ivoire
Zambia,4,2,Tunisia
Egypt,0,0,Libya
Angola,2,5,Morocco
Tunisia,1,4,Mozambique
Egypt,4,2,Angola
Morocco,3,2,Libya
South Africa,1,7,Tunisia
Morocco,2,3,Egypt
Mozambique,1,4,Morocco
Egypt,5,4,Zambia
Morocco,3,2,Egypt
Colombia,6,3,Chile
Argentina,4,2,Uruguay
Paraguay,2,2,Peru
Brazil,2,1,Venezuela
Uruguay,2,2,Bolivia
Chile,0,3,Argentina
Peru,1,3,Ecuador
Paraguay,0,1,Brazil
Argentina,2,0,Colombia
Brazil,14,0,Ecuador
Colombia,4,1,Bolivia
Venezuela,4,2,Peru
Chile,0,5,Uruguay
Bolivia,0,11,Argentina
Peru,0,6,Brazil
Uruguay,4,0,Colombia
Peru,2,2,Chile
Venezuela,6,4,Colombia
Brazil,4,1,Uruguay
Paraguay,3,3,Argentina
Paraguay,7,2,Uruguay
Brazil,4,0,Argentina
Panama,15,0,Belize
El Salvador,0,3,Panama
Panama,6,4,Honduras
Guatemala,8,4,Panama
Honduras,1,7,Mexico
Guatemala,1,4,Panama
Costa Rica,3,2,Canada
Mexico,2,6,Guatemala
Panama,10,3,Honduras
Costa Rica,6,0,Cuba
Mexico,3,4,Panama
Costa Rica,6,3,Curacao
Panama,6,5,Cuba
Costa Rica,7,1,Guatemala
Costa Rica,4,0,Panama
Panama,1,1,Ecuador
Peru,1,1,Mexico
Argentina,5,0,Bolivia
Ecuador,4,0,Panama
Uruguay,5,1,Guatemala
Colombia,1,0,Costa Rica
Republic of Ireland,0,0,England
Russia,4,2,Belarus
Serbia,4,1,Azerbaijan
France,3,4,Belgium
Brazil,2,0,Mexico
Egypt,2,1,Malawi
Denmark,2,1,Montenegro
Norway,0,0,Sweden
Brazil,1,0,Honduras
Switzerland,3,0,Liechtenstein
Germany,1,2,USA
Japan,4,0,Iraq
Korea Republic,3,0,United Arab Emirates
Uzbekistan,0,1,IR Iran
Spain,2,1,Costa Rica
Albania,1,0,France
Morocco,1,1,Tunisia
Italy,0,1,Portugal
Poland,0,0,Greece
Libya,1,0,Tunisia
Senegal,3,1,Gambia
Morocco,3,0,Libya
Mexico,2,2,Costa Rica
Honduras,0,0,Mexico
Gambia,0,1,Senegal
Korea DPR,2,1,Japan
China PR,0,2,Korea Republic
Japan,1,1,Korea Republic
Korea Republic,0,0,Korea DPR
China PR,1,1,Japan
Portugal,0,1,France
USA,2,1,Peru
Argentina,7,0,Bolivia
Panama,0,1,Uruguay
Mexico,3,3,Trinidad and Tobago
Costa Rica,0,1,Brazil
France,2,1,Serbia
Nigeria,2,0,Niger
South Africa,1,0,Senegal
Venezuela,1,1,Panama
USA,1,4,Brazil
Colombia,1,1,Peru
Costa Rica,1,0,Uruguay
Argentina,2,2,Mexico
France,4,0,Armenia
Nigeria,0,2,Congo DR
Panama,1,2,Trinidad and Tobago
Costa Rica,0,1,South Africa
Tunisia,3,3,Gabon
Egypt,3,0,Zambia
Denmark,1,2,France
Nigeria,3,0,Cameroon
Morocco,1,1,Guinea
Korea Republic,3,0,Jamaica
IR Iran,1,1,Japan
Algeria,1,0,Senegal
USA,0,1,Costa Rica
Mexico,1,0,Panama
Nigeria,2,0,Burkina Faso
Guinea,2,0,Senegal
Tunisia,1,0,Libya
Libya,0,4,Morocco
Senegal,3,1,Guinea
Burkina Faso,0,0,Nigeria
Tunisia,2,3,Morocco
France,2,0,Germany
Poland,4,2,Iceland
Belgium,3,1,Italy
Czech Republic,4,1,Serbia
Slovakia,3,2,Switzerland
Spain,2,0,England
Russia,1,0,Portugal
Luxembourg,0,2,Portugal
Austria,1,2,Switzerland
Slovakia,3,1,Iceland
Poland,3,1,Czech Republic
England,2,0,France
Russia,1,3,Croatia
Finland,0,1,Iceland
United Arab Emirates,2,1,Iceland
Gabon,0,0,Morocco
Tunisia,2,2,Guinea
Nigeria,4,1,Niger
Morocco,0,1,Côte d'Ivoire
Tunisia,1,1,Nigeria
Rwanda,1,4,Morocco
Niger,0,5,Tunisia
Guinea,1,0,Nigeria
Egypt,0,1,Jordan
Egypt,2,0,Libya
Tunisia,1,2,Mali
USA,3,2,Iceland
Venezuela,1,0,Costa Rica
Mexico,2,0,Senegal
Panama,1,0,El Salvador
Egypt,2,0,Burkina Faso
Nicaragua,1,0,Panama
Croatia,2,0,Israel
Poland,1,0,Serbia
Turkey,2,1,Sweden
Italy,1,1,Spain
Denmark,2,1,Iceland
Netherlands,2,3,France
Republic of Ireland,1,0,Switzerland
Portugal,0,1,Bulgaria
Poland,5,0,Finland
Hungary,1,1,Croatia
Germany,2,3,England
Russia,3,0,Lithuania
Thailand,0,1,Korea Republic
Romania,0,0,Spain
Estonia,0,1,Serbia
Sweden,1,1,Czech Republic
Greece,2,3,Iceland
Switzerland,0,2,Bosnia and Herzegovina
Germany,4,1,Italy
Scotland,1,0,Denmark
England,1,2,Netherlands
France,4,2,Russia
Portugal,2,1,Belgium
England,2,1,Turkey
Peru,4,0,Trinidad and Tobago
Panama,0,0,Venezuela
Serbia,2,1,Cyprus
Nigeria,1,0,Mali
Croatia,1,0,Moldova
England,2,1,Australia
Costa Rica,2,1,Venezuela
Morocco,2,0,Congo
Uruguay,3,1,Trinidad and Tobago
Argentina,1,0,Honduras
Switzerland,1,2,Belgium
Rwanda,0,2,Senegal
Mexico,1,0,Paraguay
Peru,3,1,El Salvador
Germany,1,3,Slovakia
Colombia,3,1,Haiti
Spain,3,1,Bosnia and Herzegovina
Panama,0,2,Brazil
Portugal,3,0,Norway
Sweden,0,0,Slovenia
France,3,2,Cameroon
Luxembourg,1,3,Nigeria
Serbia,3,1,Israel
Spain,6,1,Korea Republic
Czech Republic,2,1,Russia
Norway,3,2,Iceland
Belgium,1,1,Finland
Poland,1,2,Netherlands
Mexico,1,0,Chile
FYR Macedonia,1,3,IR Iran
England,1,0,Portugal
Denmark,2,2,Bosnia and Herzegovina
Japan,7,2,Bulgaria
Switzerland,2,1,Moldova
Australia,1,0,Greece
Germany,2,0,Hungary
Croatia,10,0,San Marino
France,3,0,Scotland
Czech Republic,1,2,Korea Republic
Sweden,3,0,Wales
Serbia,1,1,Russia
Belgium,3,2,Norway
Poland,0,0,Lithuania
Iceland,4,0,Liechtenstein
Denmark,4,0,Bulgaria
Australia,1,2,Greece
Japan,1,2,Bosnia and Herzegovina
Spain,0,1,Georgia
IR Iran,6,0,Kyrgyz Republic
Portugal,7,0,Estonia
Egypt,8,2,Kuwait
England,2,1,Kuwait
Egypt,6,5,England
Lebanon,2,1,England
Egypt,11,2,Romania
England,8,1,Romania
Egypt,3,5,Lebanon
Japan,5,3,USA
Japan,4,1,USA
Spain,1,1,Italy
Portugal,6,5,Switzerland
Hungary,3,5,Russia
Spain,5,2,Hungary
Portugal,5,4,Ukraine
Russia,4,6,Italy
Azerbaijan,4,7,Switzerland
Switzerland,5,4,Ukraine
Russia,5,3,Spain
Azerbaijan,4,6,Portugal
Azerbaijan,1,3,Spain
Portugal,1,2,Russia
Italy,7,4,Switzerland
Portugal,6,5,Switzerland
Russia,3,2,Italy
Ukraine,3,6,Spain
Mexico,3,3,Tahiti
Hungary,4,9,Brazil
Hungary,2,9,Brazil
Brazil,5,3,Costa Rica
Poland,2,3,Germany
Poland,10,5,Germany
Morocco,5,2,Hungary
Poland,7,0,Netherlands
Morocco,1,3,Hungary
Poland,4,1,Netherlands
Tunisia,5,5,Canada
Egypt,3,2,Turkey
Albania,2,6,France
Malta,2,7,Morocco
Italy,11,1,Tunisia
Egypt,11,2,Malta
Lebanon,3,2,Tunisia
France,2,2,Libya
Morocco,3,2,Turkey
Algeria,1,7,Tunisia
France,2,3,Greece
Morocco,2,4,Egypt
Switzerland,8,3,England
Egypt,6,5,Libya
Italy,5,0,Morocco
Lebanon,5,4,Tunisia
France,5,2,Turkey
Tunisia,3,4,Turkey
Lebanon,2,3,France
Libya,4,3,Morocco
Egypt,1,5,Italy
Bahamas,3,8,Mexico
Trinidad and Tobago,5,4,Mexico
United Arab Emirates,4,5,Portugal
Portugal,5,3,Mexico
United Arab Emirates,2,3,Egypt
Russia,5,1,Argentina
Mexico,3,4,Tahiti
United Arab Emirates,3,3,Argentina
Egypt,2,5,Russia
Iran,5,3,Portugal
Egypt,7,6,Argentina
Portugal,2,6,Tahiti
United Arab Emirates,5,4,Russia
Mexico,2,5,Iran
Portugal,6,2,Argentina
United Arab Emirates,3,2,Mexico
Tahiti,8,5,Egypt
Russia,4,1,Iran
Argentina,2,6,Mexico
United Arab Emirates,4,1,Portugal
Tahiti,2,5,Russia
Egypt,2,2,Iran
Nigeria,3,6,Côte d'Ivoire
England,2,4,Lebanon
Nigeria,8,6,England
Nigeria,7,4,Lebanon
England,4,6,Côte d'Ivoire
Argentina,0,2,Paraguay
Brazil,11,1,Uruguay
Paraguay,6,4,Uruguay
Brazil,6,1,Argentina
Argentina,3,5,Uruguay
Brazil,8,1,Paraguay
Morocco,2,3,Egypt
Switzerland,9,5,Poland
Morocco,3,1,Egypt
Portugal,6,0,Argentina
Brazil,6,2,Japan
Switzerland,8,6,Poland
Portugal,4,1,USA
El Salvador,7,3,Argentina
Brazil,8,4,Japan
Argentina,3,3,USA
El Salvador,3,4,Portugal
Bahamas,3,13,Switzerland
Bahamas,6,9,Switzerland
Bahrain,2,4,Egypt
Bahrain,4,3,Egypt
Portugal,3,2,Spain
Cape Verde Islands,2,7,England
Portugal,5,2,England
Cape Verde Islands,2,9,Spain
Spain,5,2,England
Cape Verde Islands,1,4,Portugal
Hungary,3,1,Poland
Russia,4,3,Poland
Russia,4,2,Hungary
Egypt,3,2,Oman
Egypt,4,3,Lebanon
Iraq,0,3,Morocco
United Arab Emirates,2,2,Morocco
Egypt,2,1,Bahrain
Morocco,8,2,Oman
Egypt,3,4,United Arab Emirates
Egypt,4,1,Oman
United Arab Emirates,3,2,Morocco
Czech Republic,4,7,Germany
Czech Republic,4,4,Germany
France,3,3,Morocco
France,2,2,Morocco
Italy,3,2,Switzerland
Portugal,4,2,Spain
Russia,3,2,Ukraine
Czech Republic,5,3,Denmark
Serbia,0,6,Hungary
Austria,6,5,Denmark
Ukraine,7,3,Spain
Russia,4,4,Portugal
Serbia,1,6,Switzerland
Slovakia,4,3,Denmark
Ukraine,6,5,Switzerland
Russia,8,0,Hungary
Serbia,1,11,Spain
Portugal,6,3,Italy
Japan,2,1,Vietnam
Japan,7,2,Vietnam
Spain,4,1,Serbia
Spain,5,2,Serbia
Guatemala,1,5,Argentina
Guatemala,4,4,Argentina
New Zealand,2,4,Australia
New Zealand,1,6,Australia
Argentina,7,1,Paraguay
New Zealand,2,3,Australia
Argentina,3,3,Paraguay
Australia,10,2,Vanuatu
Malaysia,0,1,Australia
Argentina,2,1,Uruguay
Argentina,1,2,Uruguay
Serbia,2,1,Bosnia and Herzegovina
Serbia,4,2,Bosnia and Herzegovina
Poland,2,5,Czech Republic
Poland,6,2,Hungary
Poland,1,1,Slovakia
Japan,6,5,Malaysia
Japan,7,1,Malaysia
Turkey,4,4,Sweden
Turkey,5,3,Sweden
Latvia,1,5,Spain
Latvia,1,8,Spain
Slovenia,4,5,Serbia
Croatia,1,2,Italy
Brazil,2,1,Portugal
Malaysia,8,4,Saudi Arabia
Slovenia,2,2,Serbia
Croatia,2,2,Italy
Malaysia,3,5,Saudi Arabia
Iraq,4,4,Saudi Arabia
Colombia,2,2,Paraguay
Guatemala,0,2,Colombia
Japan,7,1,Kuwait
Japan,2,0,Kuwait
Iran,3,1,Russia
Iran,2,2,Russia
Turkey,5,6,Denmark
Turkey,6,2,Denmark
Estonia,3,3,England
Estonia,0,2,England
France,1,4,Belgium
Spain,10,2,FYR Macedonia
Netherlands,2,4,Portugal
Serbia,6,4,Czech Republic
Spain,8,0,FYR Macedonia
Serbia,3,3,Czech Republic
Netherlands,2,1,Portugal
Angola,2,4,Uruguay
Brazil,11,2,Zambia
Colombia,1,4,Iran
Colombia,6,2,Uruguay
Brazil,9,0,Guatemala
Iran,7,3,Uruguay
Angola,0,1,Colombia
Brazil,3,1,Paraguay
Panama,4,3,USA
Costa Rica,2,2,Venezuela
Brazil,5,0,Colombia
Guatemala,0,2,Uruguay
Costa Rica,6,4,Panama
Colombia,1,0,Paraguay
Brazil,4,3,Iran
Panama,6,4,Venezuela
Costa Rica,6,2,USA
Japan,3,0,Uzbekistan
Japan,4,4,Uzbekistan
England,1,2,Poland
England,1,6,Poland
Norway,2,2,Sweden
Norway,3,4,Sweden
France,1,1,Montenegro
France,4,2,Montenegro
Romania,1,5,Serbia
Croatia,5,3,Japan
Croatia,4,0,Japan
Peru,6,3,Cuba
Peru,5,3,Cuba
Czech Republic,4,5,Japan
Czech Republic,2,3,Japan
China PR,3,3,Mexico
Iran,5,1,Mexico
Myanmar,5,3,Mexico
Peru,1,1,Costa Rica
Peru,3,3,Costa Rica
Portugal,7,0,Qatar
Sweden,5,2,Denmark
Australia,3,0,Solomon Islands
Denmark,5,1,Sweden
Spain,9,2,Poland
Japan,3,2,Colombia
Portugal,3,3,Slovakia
Portugal,4,1,Slovakia
Japan,4,2,Colombia
Brazil,5,0,Paraguay
Brazil,6,1,Uruguay
Japan,4,0,Chinese Taipei
Sweden,3,6,Finland
Sweden,5,2,Finland
France,3,4,Romania
France,2,0,Romania
Argentina,3,1,USA
Argentina,7,4,USA
Argentina,4,2,Costa Rica
Brazil,9,2,Cuba
Georgia,4,0,Germany
Georgia,5,0,Germany
Japan,7,0,Vietnam
Japan,3,3,Uzbekistan
Costa Rica,6,0,Trinidad and Tobago
Costa Rica,6,1,Trinidad and Tobago
Argentina,8,0,Mexico
Costa Rica,4,2,Honduras
Ecuador,3,3,Uruguay
Brazil,2,1,Argentina
Brazil,5,1,Uruguay
Argentina,6,2,Ecuador
Brazil,9,3,Ecuador
Uruguay,5,8,Argentina
Uruguay,7,1,Ecuador
Brazil,6,2,Argentina
England,2,1,Finland
England,0,3,Finland
Montenegro,3,1,Serbia
Montenegro,1,7,Serbia
Panama,1,1,Haiti
Costa Rica,2,2,Jamaica
Mexico,6,0,Cuba
Honduras,1,1,Panama
Costa Rica,1,1,El Salvador
Guatemala,0,0,Mexico
Panama,1,1,USA
Canada,0,0,Costa Rica
Mexico,4,4,Trinidad and Tobago
Trinidad and Tobago,1,1,Panama
Mexico,1,0,Costa Rica
Panama,1,2,Mexico
USA,1,1,Panama
Jamaica,1,3,Mexico
Mexico,0,0,Bolivia
Uruguay,1,0,Jamaica
Argentina,2,2,Paraguay
Colombia,0,1,Venezuela
Brazil,2,1,Peru
Chile,3,3,Mexico
Argentina,1,0,Uruguay
Brazil,0,1,Colombia
Peru,1,0,Venezuela
Mexico,1,2,Ecuador
Uruguay,1,1,Paraguay
Argentina,1,0,Jamaica
Colombia,0,0,Peru
Brazil,2,1,Venezuela
Chile,1,0,Uruguay
Bolivia,1,3,Peru
Argentina,0,0,Colombia
Brazil,1,1,Paraguay
Chile,2,1,Peru
Argentina,6,1,Paraguay
Peru,2,0,Paraguay
Chile,0,0,Argentina
USA,0,2,Colombia
Costa Rica,0,0,Paraguay
Haiti,0,1,Peru
Brazil,0,0,Ecuador
Mexico,3,1,Uruguay
Panama,2,1,Bolivia
Argentina,2,1,Chile
USA,4,0,Costa Rica
Colombia,2,1,Paraguay
Brazil,7,1,Haiti
Ecuador,2,2,Peru
Uruguay,0,1,Venezuela
Mexico,2,0,Jamaica
Argentina,5,0,Panama
Colombia,2,3,Costa Rica
Brazil,0,1,Peru
Mexico,1,1,Venezuela
Uruguay,3,0,Jamaica
Chile,4,2,Panama
Argentina,3,0,Bolivia
Peru,0,0,Colombia
Argentina,4,1,Venezuela
Mexico,0,7,Chile
USA,0,4,Argentina
Colombia,0,2,Chile
USA,0,1,Colombia
Argentina,0,0,Chile
Paraguay,5,1,Peru
Colombia,2,0,Venezuela
Argentina,4,1,Chile
Brazil,4,1,Uruguay
Ecuador,1,1,Peru
Chile,5,2,Peru
Uruguay,2,2,Venezuela
Argentina,3,3,Paraguay
Brazil,2,0,Colombia
Argentina,2,3,Peru
Colombia,3,2,Uruguay
Brazil,5,1,Venezuela
Ecuador,1,5,Argentina
Peru,2,7,Venezuela
Chile,2,0,Uruguay
Paraguay,3,1,Colombia
Brazil,0,0,Argentina
Colombia,1,5,Brazil
Paraguay,1,4,Argentina
Italy,4,2,Germany
Belarus,2,1,France
Greece,1,2,Portugal
Russia,3,3,Poland
Belarus,4,5,Poland
Portugal,6,1,Germany
Russia,4,1,France
Germany,7,6,Greece
France,3,1,Poland
Portugal,5,6,Italy
Russia,3,3,Belarus
England,5,3,Moldova
Spain,5,6,Switzerland
England,2,5,Romania
Spain,4,9,Ukraine
Hungary,4,10,Switzerland
Azerbaijan,6,5,England
Switzerland,7,3,Ukraine
Hungary,5,6,Spain
Hungary,1,3,England
Spain,2,7,Italy
France,2,5,Switzerland
Portugal,3,3,Russia
Ukraine,4,5,Spain
Switzerland,5,8,Russia
Portugal,6,2,France
Estonia,5,3,England
Norway,3,4,England
Belarus,3,4,Spain
Switzerland,5,8,Portugal
Russia,3,0,France
Belarus,2,3,France
Italy,15,10,Switzerland
England,2,2,Czech Republic
Spain,3,6,Russia
Ukraine,4,5,Portugal
USA,2,3,Mexico
France,2,1,Romania
Albania,0,1,Switzerland
England,1,1,Russia
Turkey,0,1,Croatia
Poland,1,0,Northern Ireland
Germany,2,0,Ukraine
Spain,1,0,Czech Republic
Republic of Ireland,1,1,Sweden
Belgium,0,2,Italy
Portugal,1,1,Iceland
Russia,1,2,Slovakia
Romania,1,1,Switzerland
France,2,0,Albania
England,2,1,Wales
Germany,0,0,Poland
Italy,1,0,Sweden
Czech Republic,2,2,Croatia
Spain,3,0,Turkey
Belgium,3,0,Republic of Ireland
Iceland,1,1,Hungary
Portugal,0,0,Austria
Switzerland,0,0,France
Slovakia,0,0,England
Russia,0,3,Wales
Northern Ireland,0,1,Germany
Ukraine,0,1,Poland
Croatia,2,1,Spain
Iceland,2,1,Austria
Hungary,3,3,Portugal
Sweden,0,1,Belgium
Switzerland,1,1,Poland
Croatia,0,1,Portugal
France,2,1,Republic of Ireland
Germany,3,0,Slovakia
Hungary,0,4,Belgium
Italy,2,0,Spain
England,1,2,Iceland
Poland,1,1,Portugal
Serbia,5,1,Slovenia
Spain,5,2,Hungary
Russia,2,1,Kazakhstan
Slovenia,2,6,Portugal
Kazakhstan,4,2,Croatia
Ukraine,1,4,Spain
Serbia,3,1,Portugal
Croatia,2,2,Russia
Serbia,2,1,Ukraine
Portugal,2,6,Spain
Russia,6,2,Azerbaijan
Serbia,2,3,Russia
Spain,5,3,Kazakhstan
Serbia,2,5,Kazakhstan
Russia,3,7,Spain
Honduras,0,5,Iceland
Cape Verde Islands,0,5,Korea Republic
Korea Republic,9,0,Vanuatu
Iceland,1,2,Peru
Peru,3,1,Honduras
Peru,3,1,Cape Verde Islands
Korea Republic,1,1,Iceland
Cape Verde Islands,0,4,Iceland
Peru,2,1,Korea Republic
Argentina,2,2,Panama
Mexico,0,2,Mali
Qatar,0,1,Colombia
Portugal,3,0,Senegal
Uruguay,1,0,Serbia
Germany,8,1,Fiji
Nigeria,2,4,Brazil
Austria,2,1,Panama
Argentina,2,3,Ghana
Qatar,0,4,Portugal
Mexico,2,1,Uruguay
Senegal,1,1,Colombia
Serbia,2,0,Mali
Nigeria,4,0,Korea DPR
Germany,3,0,Uzbekistan
Hungary,1,2,Brazil
Panama,0,1,Ghana
Austria,0,0,Argentina
Senegal,2,1,Qatar
Colombia,1,3,Portugal
Mali,1,1,Uruguay
Serbia,2,0,Mexico
Honduras,1,5,Germany
Brazil,3,0,Korea DPR
Hungary,0,2,Nigeria
Serbia,2,1,Hungary
Ukraine,1,1,Senegal
USA,1,0,Colombia
Brazil,0,0,Uruguay
Portugal,2,1,New Zealand
Germany,1,0,Nigeria
Mali,1,1,Germany
Brazil,0,0,Portugal
Uzbekistan,0,1,Senegal
USA,0,0,Serbia
Brazil,5,0,Senegal
Serbia,2,1,Mali
Senegal,1,3,Mali
Brazil,1,2,Serbia
Slovakia,0,14,Switzerland
England,5,3,Greece
France,4,1,Estonia
Bulgaria,1,8,Spain
England,6,5,Moldova
Germany,3,2,Norway
Austria,5,7,Poland
Russia,3,1,Turkey
Switzerland,4,3,Estonia
France,10,3,Slovakia
Spain,5,3,Azerbaijan
Russia,4,2,Belarus
Italy,4,2,England
Germany,5,1,Latvia
Poland,3,2,Hungary
Spain,10,0,Czech Republic
Poland,2,4,Romania
Switzerland,7,2,France
Ukraine,4,2,Germany
England,5,4,Azerbaijan
Belarus,8,2,Poland
Romania,3,3,Germany
Ukraine,5,1,France
Hungary,3,6,Switzerland
Turkey,3,6,Spain
Greece,0,3,Russia
England,2,5,Hungary
Switzerland,4,2,Azerbaijan
Spain,5,4,France
Russia,2,0,Germany
Italy,5,3,Poland
France,1,2,Turkey
Germany,6,2,Greece
Poland,5,6,Estonia
Switzerland,8,3,England
Spain,6,6,Ukraine
Russia,5,2,Romania
France,5,4,Poland
Germany,5,2,England
Switzerland,5,4,Spain
Russia,5,3,Italy
Poland,3,2,Greece
France,1,3,Azerbaijan
Estonia,1,1,England
Turkey,5,4,Germany
Spain,4,5,Italy
Switzerland,5,6,Russia
Tanzania,2,6,Egypt
Egypt,9,4,Tanzania
Morocco,16,1,Djibouti
Senegal,7,3,Morocco
Seychelles,1,10,Nigeria
Egypt,3,3,Côte d'Ivoire
Nigeria,4,1,Egypt
Morocco,5,3,Ghana
Madagascar,3,2,Senegal
Seychelles,2,5,Egypt
Nigeria,7,6,Côte d'Ivoire
Senegal,3,5,Ghana
Morocco,5,8,Madagascar
Seychelles,1,5,Morocco
Egypt,6,5,Ghana
Nigeria,3,4,Senegal
Egypt,1,3,Morocco
Nigeria,9,1,Côte d'Ivoire
Senegal,1,1,Madagascar
Turks and Caicos Islands,3,8,Mexico
Guatemala,2,1,Panama
US Virgin Islands,1,12,Costa Rica
Costa Rica,9,5,Panama
Panama,11,2,US Virgin Islands
Costa Rica,4,3,Guatemala
Mexico,4,0,Trinidad and Tobago
Costa Rica,2,1,Trinidad and Tobago
Mexico,5,2,Guatemala
USA,3,4,Mexico
El Salvador,1,2,Costa Rica
Mexico,4,0,Costa Rica
Japan,5,3,Kuwait
Vietnam,2,3,Japan
Japan,5,0,China PR
Japan,5,2,Bahrain
Iran,4,5,Japan
Oman,1,1,Japan
Brazil,7,3,Peru
Paraguay,5,4,Colombia
Venezuela,6,7,Argentina
Peru,7,4,Venezuela
Colombia,1,0,Bolivia
Brazil,6,3,Uruguay
Uruguay,5,4,Venezuela
Argentina,6,6,Peru
Ecuador,5,2,Colombia
Brazil,8,1,Venezuela
Argentina,3,5,Uruguay
Uruguay,4,8,Peru
Chile,6,3,Colombia
Argentina,7,5,Brazil
Colombia,4,5,Peru
Chile,2,5,Uruguay
Colombia,3,9,Chile
Brazil,14,1,Ecuador
Paraguay,4,1,Argentina
Peru,2,3,Uruguay
Ecuador,4,4,Argentina
Brazil,8,3,Paraguay
Saudi Arabia,3,2,Palestine
Japan,0,0,Singapore
Myanmar,0,2,Korea Republic
Kyrgyz Republic,1,2,Australia
Turkmenistan,1,1,IR Iran
Sweden,0,2,Belgium
Germany,2,2,Cameroon
France,1,1,Paraguay
Switzerland,2,0,Peru
Brazil,4,0,Panama
Costa Rica,1,3,Japan
Greece,0,0,Nigeria
Mexico,0,1,Bosnia and Herzegovina
Jamaica,2,2,Egypt
Iceland,1,0,Estonia
Ecuador,2,2,England
Argentina,3,0,Trinidad and Tobago
Uruguay,2,0,Slovenia
Colombia,3,0,Jordan
Croatia,1,0,Australia
Russia,2,0,Morocco
Poland,2,1,Lithuania
Germany,6,1,Armenia
Brazil,1,0,Serbia
Costa Rica,1,1,Republic of Ireland
Mexico,0,1,Portugal
Japan,4,3,Zambia
El Salvador,0,2,Spain
USA,2,1,Nigeria
Belgium,1,0,Tunisia
Argentina,2,0,Slovenia
England,0,0,Honduras
Trinidad and Tobago,0,2,IR Iran
France,8,0,Jamaica
Ghana,4,0,Korea Republic
Republic of Ireland,1,5,Portugal
Peru,3,0,Panama
Panama,4,0,Cuba
Russia,4,0,Azerbaijan
Denmark,1,2,Turkey
Germany,2,4,Argentina
England,1,0,Norway
Morocco,0,0,Qatar
Iraq,0,2,Peru
Croatia,2,0,Cyprus
Belgium,2,0,Australia
Sweden,2,0,Estonia
France,1,0,Spain
Japan,0,2,Uruguay
Korea Republic,3,1,Venezuela
Brazil,1,0,Colombia
Chile,0,0,Mexico
Serbia,1,1,France
Saudi Arabia,2,3,Australia
Korea Republic,0,1,Uruguay
Qatar,0,2,Peru
Brazil,1,0,Ecuador
Bolivia,0,1,Mexico
Mexico,2,0,Honduras
Morocco,4,0,Central African Republic
Oman,3,4,Costa Rica
Japan,1,0,Jamaica
Chile,3,0,Peru
Saudi Arabia,1,1,Uruguay
United Arab Emirates,0,0,Australia
Korea Republic,2,0,Paraguay
Colombia,3,0,El Salvador
Brazil,2,0,Argentina
France,2,1,Portugal
Mexico,1,0,Panama
Morocco,3,0,Kenya
Oman,0,3,Uruguay
Peru,1,0,Guatemala
Saudi Arabia,1,1,Lebanon
Japan,0,4,Brazil
Hong Kong,0,7,Argentina
Korea Republic,1,3,Costa Rica
Qatar,1,0,Australia
Armenia,0,3,France
Canada,0,1,Colombia
Saudi Arabia,2,0,Palestine
Turkey,0,4,Brazil
Netherlands,2,3,Mexico
Belgium,3,1,Iceland
Argentina,2,1,Croatia
Saudi Arabia,1,1,Qatar
Morocco,6,1,Benin
Uruguay,3,3,Costa Rica
Jordan,0,1,Korea Republic
Japan,6,0,Honduras
USA,1,2,Colombia
France,1,1,Albania
Paraguay,2,1,Peru
El Salvador,1,3,Panama
Saudi Arabia,3,0,Bahrain
Morocco,2,1,Zimbabwe
Peru,2,1,Paraguay
IR Iran,1,0,Korea Republic
Japan,2,1,Australia
Slovenia,0,1,Colombia
Belarus,3,2,Mexico
Austria,1,2,Brazil
Greece,0,2,Serbia
Hungary,1,2,Russia
Romania,2,0,Denmark
Spain,0,1,Germany
Poland,2,2,Switzerland
Portugal,1,0,Argentina
Scotland,1,3,England
France,1,0,Sweden
Chile,1,2,Uruguay
Panama,0,0,Canada
Saudi Arabia,1,0,Yemen
Saudi Arabia,3,2,United Arab Emirates
Saudi Arabia,1,2,Qatar
Bahrain,4,1,Saudi Arabia
Sweden,2,0,Côte d'Ivoire
Canada,1,2,Iceland
Canada,1,1,Iceland
USA,2,0,Panama
Nigeria,0,1,Uganda
Denmark,3,2,USA
Germany,2,2,Australia
Egypt,2,0,Equatorial Guinea
Bahrain,0,6,Colombia
France,1,3,Brazil
IR Iran,2,0,Chile
Costa Rica,0,0,Paraguay
Japan,2,0,Tunisia
Korea Republic,1,1,Uzbekistan
Trinidad and Tobago,0,1,Panama
Ghana,1,2,Senegal
Morocco,0,1,Uruguay
El Salvador,0,2,Argentina
Mexico,1,0,Ecuador
South Africa,1,1,Nigeria
Brazil,1,0,Chile
France,2,0,Denmark
Saudi Arabia,2,1,Jordan
Colombia,3,1,Kuwait
FYR Macedonia,0,0,Australia
Argentina,2,1,Ecuador
China PR,1,1,Tunisia
Korea Republic,1,0,New Zealand
Estonia,1,1,Iceland
Russia,0,0,Kazakhstan
Switzerland,1,1,USA
Sweden,3,1,IR Iran
Italy,1,1,England
Netherlands,2,0,Spain
Japan,5,1,Uzbekistan
Portugal,0,2,Cape Verde Islands
Peru,0,1,Venezuela
Panama,2,1,Costa Rica
Mexico,1,0,Paraguay
USA,2,0,Mexico
Mexico,3,0,Guatemala
Panama,1,1,Ecuador
Peru,1,1,Mexico
Argentina,5,0,Bolivia
Ecuador,4,0,Panama
Uruguay,5,1,Guatemala
Colombia,1,0,Costa Rica
Republic of Ireland,0,0,England
Russia,4,2,Belarus
Serbia,4,1,Azerbaijan
France,3,4,Belgium
Brazil,2,0,Mexico
Egypt,2,1,Malawi
Norway,0,0,Sweden
Denmark,2,1,Montenegro
Brazil,1,0,Honduras
Switzerland,3,0,Liechtenstein
Germany,1,2,USA
Japan,4,0,Iraq
Korea Republic,3,0,United Arab Emirates
Uzbekistan,0,1,IR Iran
Spain,2,1,Costa Rica
Albania,1,0,France
Morocco,1,1,Tunisia
Italy,0,1,Portugal
Poland,0,0,Greece
Libya,1,0,Tunisia
Senegal,3,1,Gambia
Morocco,3,0,Libya
Mexico,2,2,Costa Rica
England,2,3,Italy
England,3,5,Italy
England,2,5,Italy
England,2,4,Germany
England,3,3,Germany
England,8,4,Uruguay
England,3,5,Uruguay
England,5,2,Uruguay
Uruguay,4,5,Costa Rica
England,6,6,Costa Rica
England,4,8,Costa Rica
England,8,9,Costa Rica
Switzerland,10,8,Germany
Switzerland,7,5,Hungary
Switzerland,7,1,Hungary
Czech Republic,5,5,Germany
Austria,5,6,Germany
Japan,5,4,USA
Portugal,5,0,Hungary
Hungary,1,5,Japan
Portugal,14,1,USA
Portugal,8,2,Japan
Switzerland,14,9,Tahiti
Hungary,4,3,Japan
Hungary,4,5,Japan
USA,7,8,Brazil
Morocco,6,4,United Arab Emirates
Switzerland,6,2,Hungary
Switzerland,6,1,Greece
Spain,6,4,Hungary
Russia,4,3,Hungary
Russia,3,4,Spain
Azerbaijan,8,9,Switzerland
Greece,4,7,Russia
Switzerland,6,8,Spain
Tahiti,4,1,England
Tahiti,3,2,England
Russia,4,3,Azerbaijan
United Arab Emirates,2,2,Russia
USA,3,10,Brazil
Russia,9,3,Japan
United Arab Emirates,3,4,Morocco
Iran,2,4,Portugal
Portugal,6,4,Morocco
Brazil,7,4,Japan
Russia,5,1,USA
Japan,3,1,USA
Brazil,1,2,Russia
United Arab Emirates,2,3,Portugal
Morocco,0,5,Iran
Japan,3,4,United Arab Emirates
Morocco,7,3,USA
Portugal,3,5,Brazil
Russia,4,3,Iran
Russia,2,3,Brazil
United Arab Emirates,2,4,Morocco
Iran,0,3,Portugal
Japan,6,1,USA
Costa Rica,3,3,Guatemala
El Salvador,5,3,Costa Rica
Japan,5,2,Malaysia
Costa Rica,19,5,Belize
Japan,0,0,United Arab Emirates
China PR,3,7,Japan
Vietnam,2,7,Japan
Japan,3,4,Iran
Peru,6,2,Dominican Republic
Peru,5,8,Chile
Peru,3,6,Paraguay
Peru,8,1,Bolivia
Côte d'Ivoire,6,2,Senegal
Nigeria,7,5,Ghana
Peru,6,2,Venezuela
Australia,2,5,Thailand
Ghana,2,5,Senegal
Nigeria,4,5,Côte d'Ivoire
Australia,7,6,Vanuatu
Australia,4,5,Thailand
Nigeria,5,4,Senegal
Thailand,4,6,Switzerland
Thailand,5,8,Switzerland
Argentina,5,4,Mexico
Chile,7,6,Uruguay
Argentina,3,1,Uruguay
Chile,2,5,Mexico
Mexico,2,1,Uruguay
Chile,6,5,Argentina
Brazil,7,4,Chile
Bolivia,3,5,Uruguay
Argentina,4,7,Paraguay
Paraguay,9,6,Uruguay
Argentina,2,4,Chile
Brazil,11,3,Bolivia
Argentina,3,1,Bolivia
Brazil,5,4,Uruguay
Brazil,7,8,Paraguay
Uruguay,2,3,Argentina
Uruguay,3,7,Chile
Brazil,8,2,Argentina
Uruguay,10,6,Bolivia
Chile,2,8,Argentina
Brazil,12,2,Paraguay
Mexico,2,1,Costa Rica
Mexico,5,4,Costa Rica
Morocco,6,2,France
Morocco,11,5,France
Morocco,4,4,Côte d'Ivoire
Senegal,4,2,Mozambique
Nigeria,5,2,Ghana
Seychelles,0,6,Morocco
Senegal,6,5,Nigeria
Morocco,6,5,Mozambique
Nigeria,9,3,South Africa
Senegal,5,4,Côte d'Ivoire
Argentina,3,2,Mexico
Argentina,3,1,Mexico
England,3,3,Estonia
France,4,2,Hungary
England,6,1,Estonia
England,4,1,Estonia
Switzerland,4,1,England
France,4,3,Hungary
England,2,2,Estonia
Switzerland,8,5,England
Spain,5,2,France
Spain,2,3,France
Portugal,4,2,Hungary
Portugal,5,3,Hungary
Russia,9,5,Azerbaijan
Russia,6,5,Belarus
Tahiti,7,8,Switzerland
Tahiti,7,9,Switzerland
Egypt,8,2,Kuwait
England,2,1,Kuwait
Egypt,6,5,England
Lebanon,2,1,England
Egypt,11,2,Romania
England,8,1,Romania
Egypt,3,5,Lebanon
Japan,5,3,USA
Japan,4,1,USA
Spain,1,1,Italy
Portugal,6,5,Switzerland
Hungary,3,5,Russia
Spain,5,2,Hungary
Portugal,5,4,Ukraine
Russia,4,6,Italy
Azerbaijan,4,7,Switzerland
Switzerland,5,4,Ukraine
Russia,5,3,Spain
Azerbaijan,4,6,Portugal
Azerbaijan,1,3,Spain
Portugal,1,2,Russia
Italy,7,4,Switzerland
Portugal,6,5,Switzerland
Russia,3,2,Italy
Ukraine,3,6,Spain
England,5,0,Cyprus
England,3,0,Qatar
England,1,1,USA
USA,3,5,France
USA,5,2,France
New Zealand,3,5,Australia
New Zealand,0,6,Australia
New Zealand,1,7,Australia
Argentina,6,0,USA
Argentina,2,0,USA
Argentina,5,1,USA
Argentina,5,3,USA
Brazil,4,1,Argentina
Serbia,2,1,Montenegro
Spain,7,1,Romania
Czech Republic,4,3,Poland
Serbia,3,0,Montenegro
Spain,7,1,Romania
Poland,4,7,Slovakia
Portugal,5,0,Croatia
Hungary,0,2,Poland
Portugal,3,1,Croatia
Timor-Leste,0,9,Australia
Australia,13,0,Brunei Darussalam
Malaysia,0,3,Australia
Indonesia,4,1,Australia
Vietnam,3,4,Australia
Thailand,6,0,Australia
Egypt,1,6,Argentina
Brazil,5,0,Japan
Montenegro,5,4,England
Italy,3,2,Egypt
Japan,0,4,Czech Republic
Kuwait,2,6,Argentina
Guatemala,2,5,Brazil
Poland,8,1,Wales
Montenegro,1,2,England
Italy,2,1,Argentina
Japan,6,0,Guatemala
Kuwait,2,5,Egypt
Brazil,6,1,Czech Republic
Poland,6,1,Greece
Serbia,2,3,Russia
Portugal,3,0,Georgia
Brazil,1,4,Argentina
Serbia,0,1,Russia
Spain,11,1,Turkey
Bosnia and Herzegovina,2,7,France
Portugal,2,0,Georgia
Poland,3,4,Slovenia
Italy,0,3,Brazil
Czech Republic,2,6,Argentina
FYR Macedonia,1,6,Spain
Bosnia and Herzegovina,3,2,France
Costa Rica,1,1,Mexico
Costa Rica,2,0,Mexico
England,5,1,Latvia
England,2,0,Latvia
Brazil,8,1,Vietnam
Costa Rica,1,2,Guatemala
Brazil,4,0,Colombia
Colombia,6,2,Vietnam
Costa Rica,1,5,Iran
Iran,3,4,Colombia
Brazil,8,2,Guatemala
Vietnam,1,3,Costa Rica
Brazil,7,2,Colombia
Malta,1,4,Serbia
Iran,1,1,Russia
Netherlands,2,2,Poland
Iran,0,0,Russia
France,6,1,Greece
Portugal,1,1,Ukraine
Romania,5,3,Serbia
France,7,2,Greece
Italy,4,3,Poland
Portugal,5,2,Ukraine
Romania,3,6,Serbia
Norway,3,3,Sweden
Finland,1,1,Denmark
Denmark,0,4,Norway
China PR,4,1,Mexico
Finland,5,1,Sweden
Myanmar,1,2,Mexico
Denmark,2,2,Sweden
Mexico,0,7,Thailand
Andorra,2,3,England
Andorra,2,3,England
Japan,1,1,Croatia
Japan,5,2,Croatia
Poland,6,1,Estonia
Poland,2,0,Moldova
Spain,4,0,Ukraine
Netherlands,1,2,Serbia
Croatia,1,4,Iran
France,5,2,Finland
Spain,4,3,Ukraine
Netherlands,2,3,Serbia
Portugal,6,1,Hungary
Croatia,0,2,Iran
Poland,3,2,FYR Macedonia
France,5,4,Finland
Sweden,4,0,Turkey
Portugal,3,1,Hungary
Sweden,0,3,Turkey
Switzerland,3,1,United Arab Emirates
Switzerland,6,1,United Arab Emirates
Poland,0,6,Russia
Spain,6,2,Argentina
Croatia,6,3,Vietnam
Poland,0,6,Russia
Serbia,1,5,Italy
Spain,3,2,Argentina
Portugal,8,2,Kuwait
Serbia,5,2,Italy
Croatia,5,1,France
Portugal,6,1,Kuwait
Croatia,8,3,Vietnam
United Arab Emirates,1,2,Saudi Arabia
England,1,3,Sweden
England,7,3,Sweden
Bahrain,0,2,Morocco
Bahrain,2,4,Morocco
Qatar,4,1,Saudi Arabia
Bahrain,4,2,Saudi Arabia
Saudi Arabia,4,4,Kuwait
Saudi Arabia,3,5,Oman
Saudi Arabia,2,2,United Arab Emirates
Bulgaria,2,4,Serbia
Bulgaria,1,3,Serbia
Japan,2,1,Vietnam
Japan,7,2,Vietnam
Spain,4,1,Serbia
Spain,5,2,Serbia
Guatemala,1,5,Argentina
Guatemala,4,4,Argentina
Australia,4,1,Kuwait
Korea Republic,1,0,Oman
Saudi Arabia,0,1,China PR
IR Iran,2,0,Bahrain
Japan,4,0,Palestine
Kuwait,0,1,Korea Republic
Oman,0,4,Australia
Korea DPR,1,4,Saudi Arabia
Qatar,0,1,IR Iran
Iraq,0,1,Japan
Australia,0,1,Korea Republic
Uzbekistan,3,1,Saudi Arabia
IR Iran,1,0,United Arab Emirates
Japan,2,0,Jordan
Korea Republic,2,0,Uzbekistan
China PR,0,2,Australia
Japan,1,1,United Arab Emirates
IR Iran,3,3,Iraq
Korea Republic,2,0,Iraq
Australia,2,0,United Arab Emirates
Korea Republic,1,2,Australia
Tunisia,1,1,Cape Verde Islands
Ghana,1,2,Senegal
Zambia,1,2,Tunisia
South Africa,1,1,Senegal
Congo DR,1,1,Tunisia
Senegal,0,2,Algeria
Tunisia,1,2,Equatorial Guinea
Mexico,0,0,Bolivia
Uruguay,1,0,Jamaica
Argentina,2,2,Paraguay
Colombia,0,1,Venezuela
Brazil,2,1,Peru
Chile,3,3,Mexico
Argentina,1,0,Uruguay
Brazil,0,1,Colombia
Peru,1,0,Venezuela
Mexico,1,2,Ecuador
Uruguay,1,1,Paraguay
Argentina,1,0,Jamaica
Colombia,0,0,Peru
Brazil,2,1,Venezuela
Chile,1,0,Uruguay
Bolivia,1,3,Peru
Argentina,0,0,Colombia
Brazil,1,1,Paraguay
Chile,2,1,Peru
Argentina,6,1,Paraguay
Poland,3,4,Belarus
Germany,2,4,Switzerland
France,2,6,Russia
Poland,0,4,Germany
Switzerland,6,5,Belarus
Russia,3,4,Netherlands
Italy,3,2,France
Belarus,2,4,Germany
Switzerland,11,3,Poland
Netherlands,3,5,France
Italy,2,1,Russia
France,7,3,Switzerland
Netherlands,1,3,Portugal
Spain,2,1,Ukraine
Poland,3,4,Greece
Switzerland,6,6,Ukraine
Greece,0,8,Portugal
France,3,6,Spain
Poland,5,3,Netherlands
France,1,4,Ukraine
Spain,3,8,Switzerland
Poland,6,8,Portugal
Spain,4,1,Belarus
Russia,7,0,Greece
Spain,6,0,Greece
Russia,2,4,Belarus
Russia,4,1,Spain
Czech Republic,7,3,England
Germany,2,5,Portugal
Germany,7,7,Italy
Hungary,7,6,England
Portugal,3,4,Ukraine
Andorra,2,8,England
Germany,3,4,Ukraine
Italy,5,5,Portugal
Bulgaria,0,6,Poland
Turkey,4,2,England
Germany,0,7,Switzerland
Belarus,1,3,Portugal
Italy,2,9,Russia
Spain,8,6,Ukraine
Poland,6,1,Azerbaijan
Hungary,4,5,England
Switzerland,5,3,Ukraine
Portugal,11,7,Russia
Spain,6,2,Germany
Estonia,2,5,England
Poland,4,1,Czech Republic
Ukraine,6,0,Germany
Portugal,3,6,Italy
Russia,6,2,Belarus
Spain,8,2,Switzerland
Czech Republic,6,4,England
Belarus,3,3,Germany
Poland,4,6,Hungary
Portugal,6,2,Switzerland
Russia,4,3,Spain
Italy,4,2,Germany
Belarus,2,1,France
Greece,1,2,Portugal
Russia,3,3,Poland
Belarus,4,5,Poland
Portugal,6,1,Germany
Russia,4,1,France
Germany,7,6,Greece
France,3,1,Poland
Portugal,5,6,Italy
Russia,3,3,Belarus
Brazil,3,0,Japan
Mexico,1,2,Italy
Spain,2,1,Uruguay
Tahiti,1,6,Nigeria
Brazil,2,0,Mexico
Italy,4,3,Japan
Spain,10,0,Tahiti
Nigeria,1,2,Uruguay
Japan,1,2,Mexico
Italy,2,4,Brazil
Nigeria,0,3,Spain
Uruguay,8,0,Tahiti
Brazil,2,1,Uruguay
Spain,0,0,Italy
Uruguay,2,2,Italy
Brazil,3,0,Spain
Japan,1,1,Australia
Qatar,0,1,IR Iran
Lebanon,1,1,Korea Republic
Australia,4,0,Jordan
Korea Republic,1,0,Uzbekistan
Iraq,0,1,Japan
IR Iran,4,0,Lebanon
Australia,1,0,Iraq
Korea Republic,0,1,IR Iran
Jamaica,0,1,Mexico
Panama,0,0,Mexico
Costa Rica,1,0,Honduras
Mexico,0,0,Costa Rica
USA,2,0,Panama
Costa Rica,2,0,Panama
Panama,0,0,Jamaica
Costa Rica,3,1,USA
Mexico,1,2,Honduras
USA,2,0,Mexico
Jamaica,1,1,Costa Rica
Honduras,2,2,Panama
Honduras,1,0,Costa Rica
Mexico,2,1,Panama
Panama,2,3,USA
Costa Rica,2,1,Mexico
Kenya,0,1,Nigeria
Angola,1,1,Senegal
Sierra Leone,2,2,Tunisia
Morocco,2,1,Tanzania
Zimbabwe,2,4,Egypt
Namibia,1,1,Nigeria
Morocco,2,0,Gambia
Mozambique,0,1,Egypt
Liberia,0,2,Senegal
Equatorial Guinea,1,1,Tunisia
Nigeria,2,0,Malawi
Côte d'Ivoire,1,1,Morocco
Senegal,1,0,Uganda
Egypt,4,2,Guinea
Côte d'Ivoire,3,1,Senegal
Ethiopia,1,2,Nigeria
Tunisia,0,0,Cameroon
Ghana,6,1,Egypt
Nigeria,2,0,Ethiopia
Senegal,1,1,Côte d'Ivoire
Cameroon,4,1,Tunisia
Egypt,2,1,Ghana
Argentina,0,0,Colombia
Peru,1,0,Ecuador
Colombia,2,0,Peru
Ecuador,1,1,Argentina
Venezuela,0,1,Uruguay
Colombia,1,0,Ecuador
Peru,1,2,Uruguay
Uruguay,2,0,Colombia
Venezuela,3,2,Peru
Paraguay,2,5,Argentina
Colombia,3,3,Chile
Ecuador,1,0,Uruguay
Argentina,3,1,Peru
Paraguay,1,2,Colombia
Uruguay,3,2,Argentina
Peru,1,1,Bolivia
Moldova,1,1,Poland
Belgium,2,1,Serbia
Austria,2,1,Sweden
Iceland,2,4,Slovenia
Croatia,0,1,Scotland
Portugal,1,0,Russia
Switzerland,1,0,Cyprus
Sweden,2,0,Faroe Islands
Denmark,0,4,Armenia
Northern Ireland,1,0,Russia
Russia,4,1,Luxembourg
Malta,1,2,Denmark
Georgia,0,0,France
Finland,0,2,Spain
Northern Ireland,2,4,Portugal
Serbia,1,1,Croatia
Republic of Ireland,1,2,Sweden
Germany,3,0,Austria
Poland,1,1,Montenegro
England,4,0,Moldova
Scotland,0,2,Belgium
Switzerland,4,4,Iceland
Russia,3,1,Israel
Armenia,0,1,Denmark
Kazakhstan,0,1,Sweden
Norway,0,2,Switzerland
Wales,0,3,Serbia
San Marino,1,5,Poland
Faroe Islands,0,3,Germany
Belarus,2,4,France
Iceland,2,1,Albania
Ukraine,0,0,England
Croatia,1,2,Belgium
Ukraine,1,0,Poland
Denmark,2,2,Italy
Albania,1,2,Switzerland
Luxembourg,0,4,Russia
Germany,3,0,Republic of Ireland
Iceland,2,0,Cyprus
England,4,1,Montenegro
Sweden,2,1,Austria
Spain,2,1,Belarus
Portugal,1,1,Israel
Azerbaijan,1,1,Russia
Portugal,3,0,Luxembourg
Norway,1,1,Iceland
Switzerland,1,0,Slovenia
Denmark,6,0,Malta
Serbia,5,1,FYR Macedonia
Spain,2,0,Georgia
France,3,0,Finland
England,2,0,Poland
Scotland,2,0,Croatia
Belgium,1,1,Wales
Sweden,3,5,Germany
Iceland,0,0,Croatia
Ukraine,2,0,France
Portugal,1,0,Sweden
Croatia,2,0,Iceland
Sweden,2,3,Portugal
France,3,0,Ukraine
Mexico,5,1,New Zealand
New Zealand,2,4,Mexico
Jordan,0,5,Uruguay
Uruguay,0,0,Jordan
France,3,1,Ghana
Cuba,1,2,Korea Republic
USA,1,4,Spain
Nigeria,2,3,Portugal
Colombia,1,1,Australia
Mexico,1,2,Greece
Chile,2,1,Egypt
Uruguay,0,1,Croatia
England,2,2,Iraq
France,1,1,USA
Cuba,0,3,Nigeria
Portugal,2,2,Korea Republic
Spain,1,0,Ghana
Mexico,0,1,Paraguay
Australia,1,2,El Salvador
Turkey,0,1,Colombia
Chile,1,1,England
New Zealand,0,2,Uruguay
Croatia,1,1,Uzbekistan
Iraq,2,1,Egypt
Korea Republic,0,1,Nigeria
Portugal,5,0,Cuba
Spain,2,1,France
Mali,1,4,Mexico
El Salvador,0,3,Colombia
Australia,1,2,Turkey
Uzbekistan,0,4,Uruguay
Croatia,2,1,New Zealand
Egypt,2,0,England
Spain,2,1,Mexico
France,4,1,Turkey
Nigeria,1,2,Uruguay
Portugal,2,3,Ghana
Croatia,0,2,Chile
Colombia,1,1,Korea Republic
France,4,0,Uzbekistan
Uruguay,1,0,Spain
Iraq,3,3,Korea Republic
France,2,1,Ghana
Iraq,1,1,Uruguay
France,0,0,Uruguay
Brazil,6,1,Slovakia
Uruguay,7,0,New Zealand
Croatia,1,3,Morocco
Tunisia,2,1,Venezuela
Russia,0,1,Japan
Panama,0,2,Uzbekistan
Mexico,1,6,Nigeria
Iran,1,1,Argentina
Iraq,1,4,Sweden
Uruguay,1,1,Côte d'Ivoire
United Arab Emirates,1,6,Brazil
Tunisia,1,0,Russia
Croatia,1,0,Panama
Uzbekistan,0,0,Morocco
Japan,3,1,Venezuela
Mexico,3,1,Iraq
Argentina,3,2,Austria
Sweden,3,3,Nigeria
Italy,1,2,Uruguay
Honduras,0,3,Brazil
Japan,2,1,Tunisia
Venezuela,0,4,Russia
Uzbekistan,2,1,Croatia
Morocco,4,2,Panama
Sweden,0,1,Mexico
Nigeria,5,0,Iraq
Argentina,3,0,Canada
Italy,0,2,Mexico
Japan,1,2,Sweden
Brazil,3,1,Russia
Morocco,1,2,Côte d'Ivoire
Uruguay,4,2,Slovakia
Argentina,3,1,Tunisia
Nigeria,4,1,Iran
Honduras,1,2,Sweden
Brazil,1,1,Mexico
Argentina,2,1,Côte d'Ivoire
Uruguay,0,2,Nigeria
Argentina,0,3,Mexico
Sweden,0,3,Nigeria
Sweden,4,1,Argentina
Nigeria,3,0,Mexico
Senegal,5,4,Ukraine
Russia,4,1,Japan
Brazil,4,1,Iran
Spain,5,4,USA
Argentina,4,1,El Salvador
Japan,3,1,Paraguay
Iran,5,3,Senegal
Côte d'Ivoire,2,5,Russia
Ukraine,2,4,Brazil
United Arab Emirates,2,5,Spain
Solomon Islands,5,8,Argentina
Japan,4,3,Côte d'Ivoire
Russia,4,3,Paraguay
Brazil,8,3,Senegal
Tahiti,2,4,Spain
Netherlands,5,5,Argentina
Brazil,4,3,Japan
Argentina,1,6,Tahiti
Spain,2,1,El Salvador
Russia,6,5,Iran
Russia,5,3,Tahiti
Spain,2,1,Brazil
Brazil,7,7,Tahiti
Spain,1,5,Russia
Panama,1,2,Peru
Brazil,2,2,England
USA,4,3,Germany
Sweden,1,0,FYR Macedonia
Poland,2,0,Liechtenstein
Uruguay,1,0,France
Denmark,2,1,Georgia
Spain,2,1,Haiti
Brazil,3,0,France
Croatia,0,1,Portugal
Spain,2,0,Republic of Ireland
Guatemala,0,4,Argentina
Nigeria,4,1,Côte d'Ivoire
Senegal,1,0,Mauritania
Tunisia,0,1,Morocco
Morocco,0,0,Tunisia
Korea Republic,0,0,Australia
Mauritania,2,0,Senegal
Japan,3,3,China PR
Korea Republic,0,0,China PR
Japan,3,2,Australia
Côte d'Ivoire,2,0,Nigeria
Korea Republic,1,2,Japan
Australia,3,4,China PR
South Africa,0,2,Nigeria
Zambia,1,1,Senegal
Tunisia,3,0,Congo
Morocco,1,2,Burkina Faso
Egypt,3,0,Uganda
Switzerland,1,0,Brazil
Poland,3,2,Denmark
Ecuador,0,2,Spain
Germany,3,3,Paraguay
Portugal,1,1,Netherlands
Iceland,1,0,Faroe Islands
Italy,1,2,Argentina
Liechtenstein,2,3,Croatia
Japan,2,4,Uruguay
Mexico,4,1,Côte d'Ivoire
Korea Republic,0,0,Peru
Sweden,4,2,Norway
England,3,2,Scotland
Belgium,0,0,France
Colombia,1,0,Serbia
Saudi Arabia,0,1,New Zealand
Korea Republic,4,1,Haiti
Japan,3,0,Guatemala
Brazil,6,0,Australia
Saudi Arabia,1,3,Trinidad and Tobago
Spain,2,2,Chile
Korea Republic,1,2,Croatia
Nigeria,4,1,Burkina Faso
Japan,3,1,Ghana
Brazil,3,1,Portugal
Morocco,1,1,South Africa
France,6,0,Australia
Serbia,2,0,Japan
Korea Republic,0,2,Brazil
Brazil,2,0,Zambia
Canada,0,3,Australia
Korea Republic,3,1,Mali
Belarus,1,0,Japan
Jordan,1,0,Nigeria
Belgium,0,2,Colombia
Russia,1,1,Serbia
Italy,1,1,Germany
Korea Republic,2,1,Switzerland
Denmark,2,1,Norway
England,0,2,Chile
Poland,0,2,Slovakia
Ecuador,0,0,Argentina
Honduras,0,5,Brazil
Netherlands,2,2,Japan
Argentina,2,0,Bosnia and Herzegovina
Italy,2,2,Nigeria
South Africa,1,0,Spain
Russia,2,1,Korea Republic
England,0,1,Germany
Australia,1,0,Costa Rica
Poland,0,0,Republic of Ireland
Brazil,2,1,Chile
Netherlands,0,0,Colombia
Belgium,2,3,Japan
Nigeria,2,1,Ethiopia
Mali,2,1,Nigeria
Zimbabwe,0,0,Morocco
Nigeria,4,2,Mozambique
Burkina Faso,1,1,Morocco
Moldova,1,2,Sweden
Poland,3,0,Norway
South Africa,1,3,Nigeria
Moldova,0,1,Poland
Morocco,3,1,Uganda
Iceland,0,2,Sweden
Chile,4,0,Costa Rica
Costa Rica,0,1,Korea Republic
Morocco,3,4,Nigeria
Mexico,4,0,Korea Republic
Nigeria,0,0,Ghana
USA,2,0,Korea Republic
Zimbabwe,0,1,Nigeria
Japan,4,2,New Zealand
IR Iran,1,2,Guinea
Russia,2,0,Armenia
Bosnia and Herzegovina,0,2,Egypt
Greece,0,2,Korea Republic
Colombia,1,1,Tunisia
South Africa,0,5,Brazil
Turkey,2,1,Sweden
Austria,1,1,Uruguay
Belgium,2,2,Côte d'Ivoire
Poland,0,1,Scotland
Wales,3,1,Iceland
Republic of Ireland,1,2,Serbia
Germany,1,0,Chile
Australia,3,4,Ecuador
Senegal,1,1,Mali
Romania,0,0,Argentina
England,1,0,Denmark
France,2,0,Netherlands
Morocco,1,1,Gabon
Spain,1,0,Italy
Switzerland,2,2,Croatia
Portugal,5,1,Cameroon
Mexico,0,0,Nigeria
Costa Rica,2,1,Paraguay
USA,2,2,Mexico
Germany,0,0,Poland
IR Iran,0,0,Belarus
Burkina Faso,1,1,Senegal
Hungary,2,2,Denmark
Morocco,4,0,Mozambique
Saudi Arabia,0,4,Moldova
Australia,1,1,South Africa
Russia,1,0,Slovakia
Montenegro,0,0,IR Iran
Serbia,2,1,Jamaica
Japan,1,0,Cyprus
France,4,0,Norway
Mexico,3,0,Israel
Korea Republic,0,1,Tunisia
Denmark,1,0,Sweden
Angola,2,0,Morocco
Nigeria,2,2,Scotland
Saudi Arabia,0,2,Georgia
Spain,2,0,Bolivia
Chile,3,2,Egypt
IR Iran,1,1,Angola
Switzerland,1,0,Jamaica
Austria,1,1,Iceland
England,3,0,Peru
Uruguay,1,0,Northern Ireland
Panama,1,1,Serbia
Croatia,2,1,Mali
Mexico,3,1,Ecuador
Norway,1,1,Russia
Portugal,0,0,Greece
Colombia,2,2,Senegal
Sweden,0,2,Belgium
Germany,2,2,Cameroon
France,1,1,Paraguay
Brazil,4,0,Panama
Switzerland,2,0,Peru
Costa Rica,1,3,Japan
Greece,0,0,Nigeria
Mexico,0,1,Bosnia and Herzegovina
Jamaica,2,2,Egypt
Iceland,1,0,Estonia
Ecuador,2,2,England
Argentina,3,0,Trinidad and Tobago
Uruguay,2,0,Slovenia
Colombia,3,0,Jordan
Croatia,1,0,Australia
Russia,2,0,Morocco
Poland,2,1,Lithuania
Germany,6,1,Armenia
Brazil,1,0,Serbia
Costa Rica,1,1,Republic of Ireland
Mexico,0,1,Portugal
Japan,4,3,Zambia
El Salvador,0,2,Spain
USA,2,1,Nigeria
Belgium,1,0,Tunisia
Argentina,2,0,Slovenia
England,0,0,Honduras
Trinidad and Tobago,0,2,IR Iran
France,8,0,Jamaica
Ghana,4,0,Korea Republic
Republic of Ireland,1,5,Portugal
France,6,4,England
Poland,7,7,Switzerland
Argentina,4,3,Paraguay
Argentina,3,5,Paraguay
Germany,3,3,Netherlands
Poland,4,5,United Arab Emirates
Iran,4,2,Poland
Turkey,4,2,Poland
Denmark,1,4,England
Sweden,3,9,Netherlands
Paraguay,5,1,Argentina
Sweden,6,8,Denmark
England,6,4,Netherlands
Switzerland,4,7,Tahiti
Paraguay,2,1,Argentina
Denmark,2,6,Netherlands
Sweden,3,9,England
Switzerland,8,6,Slovakia
Italy,1,5,Spain
Portugal,6,1,Japan
Japan,4,2,Spain
Portugal,5,3,Italy
Italy,3,2,Japan
Portugal,2,3,Spain
Switzerland,7,3,Netherlands
Brazil,7,1,Paraguay
Brazil,7,3,Paraguay
Japan,7,2,Switzerland
Tahiti,6,4,Argentina
Japan,5,9,Switzerland
Ukraine,6,2,Argentina
Argentina,4,2,Paraguay
Brazil,4,1,United Arab Emirates
Tahiti,9,2,Australia
United Arab Emirates,3,8,Russia
Switzerland,6,5,Mexico
Italy,2,5,Brazil
United Arab Emirates,3,2,Morocco
Russia,2,2,Iran
Morocco,7,9,Switzerland
Russia,6,3,Italy
United Arab Emirates,3,1,Mexico
Iran,4,4,Brazil
Morocco,2,5,Mexico
Brazil,6,6,Russia
United Arab Emirates,3,5,Switzerland
Brazil,5,3,Morocco
Mexico,4,5,Italy
Switzerland,10,11,Russia
Morocco,2,3,Mexico
Brazil,7,5,Italy
United Arab Emirates,8,7,Switzerland
Iran,4,3,Russia
Australia,7,5,China PR
Australia,4,1,Thailand
Australia,3,1,Thailand
Lebanon,5,4,Senegal
Nigeria,7,1,Germany
Germany,2,6,Senegal
Nigeria,6,6,Lebanon
Germany,6,5,Lebanon
Nigeria,4,2,Senegal
Uruguay,1,7,Portugal
Brazil,6,4,Switzerland
Portugal,6,3,Switzerland
Brazil,6,1,Uruguay
Uruguay,3,5,Switzerland
Brazil,7,4,Portugal
Argentina,4,2,Mexico
Brazil,6,1,El Salvador
Brazil,10,1,Mexico
Argentina,3,1,El Salvador
El Salvador,4,5,Mexico
Brazil,10,1,Argentina
Brazil,10,1,Uruguay
Argentina,2,1,Mexico
Brazil,8,2,Mexico
Argentina,6,0,Uruguay
Mexico,5,4,Uruguay
Argentina,1,3,Brazil
Netherlands,3,1,Germany
France,7,5,England
France,5,3,England
Brazil,7,3,Switzerland
El Salvador,5,1,England
Brazil,11,1,England
El Salvador,5,7,Switzerland
England,3,4,Switzerland
El Salvador,3,6,Brazil
France,1,3,Spain
France,5,6,Spain
Hungary,2,5,France
Hungary,4,5,France
Argentina,3,4,Paraguay
Argentina,7,1,Paraguay
Egypt,5,2,Saudi Arabia
Egypt,11,3,Sudan
Saudi Arabia,1,5,United Arab Emirates
Lebanon,4,5,Morocco
Morocco,4,5,United Arab Emirates
Egypt,2,4,Oman
Lebanon,7,4,Saudi Arabia
Morocco,9,6,Saudi Arabia
Brazil,11,1,USA
Mexico,1,3,Germany
Egypt,4,4,United Arab Emirates
Turkey,1,1,Russia
Brazil,9,4,Germany
Mexico,1,2,USA
Egypt,6,5,Lebanon
Turkey,5,5,Russia
USA,3,5,Germany
Mexico,3,8,Brazil
Argentina,3,1,Uruguay
Venezuela,5,3,Colombia
Peru,1,11,Brazil
Paraguay,5,3,Colombia
Argentina,2,2,Peru
Brazil,9,3,Uruguay
Ecuador,4,0,Colombia
Uruguay,2,1,Peru
Brazil,5,5,Argentina
Uruguay,1,2,Colombia
Venezuela,7,2,Peru
Brazil,10,3,Ecuador
Paraguay,3,2,Argentina
Uruguay,2,4,Peru
Venezuela,3,4,Colombia
Ecuador,7,7,Argentina
Brazil,9,3,Paraguay
Netherlands,4,5,Germany
England,2,3,Italy
England,3,5,Italy
England,2,5,Italy
England,2,4,Germany
England,3,3,Germany
England,8,4,Uruguay
England,3,5,Uruguay
England,5,2,Uruguay
Uruguay,4,5,Costa Rica
England,6,6,Costa Rica
England,4,8,Costa Rica
England,8,9,Costa Rica
Brazil,4,1,Costa Rica
Costa Rica,1,1,France
Costa Rica,2,3,France
Poland,6,1,Malaysia
England,1,2,USA
England,1,2,Poland
Poland,2,4,USA
England,2,2,Malaysia
Malaysia,3,2,Saudi Arabia
Malaysia,5,5,Saudi Arabia
Korea Republic,9,1,Macau
Japan,3,0,Saudi Arabia
Korea Republic,7,1,Hong Kong
Turkmenistan,4,1,Saudi Arabia
Korea Republic,3,5,Kuwait
Japan,3,2,Turkmenistan
Japan,5,4,Uzbekistan
Kuwait,4,1,Korea Republic
Japan,6,4,Kuwait
Iran,5,2,Japan
New Zealand,0,3,Australia
New Zealand,0,4,Australia
New Zealand,0,7,Australia
Australia,6,1,Vanuatu
Australia,2,0,Tahiti
New Zealand,0,2,Australia
Malaysia,1,5,Australia
Brazil,6,1,Belgium
Brazil,5,1,Belgium
Hungary,1,2,Poland
Poland,0,3,Slovakia
Czech Republic,5,3,Poland
Albania,6,5,Switzerland
Albania,4,3,Switzerland
Portugal,1,1,Azerbaijan
Portugal,5,0,Azerbaijan
Spain,5,2,Belgium
Spain,8,2,Belgium
Qatar,3,3,Saudi Arabia
Saudi Arabia,5,3,United Arab Emirates
Kuwait,4,1,Saudi Arabia
Bahrain,3,6,Saudi Arabia
Vietnam,7,5,Korea Republic
Brazil,5,0,Guatemala
Timor-Leste,1,8,Australia
Australia,17,0,Laos
Myanmar,0,4,Australia
Guatemala,0,4,Russia
Paraguay,2,1,Serbia
Brazil,7,2,Japan
Argentina,2,2,Iran
Indonesia,3,7,Australia
Guatemala,7,4,Serbia
Paraguay,0,7,Russia
Brazil,11,1,Argentina
Iran,3,1,Japan
Russia,4,3,Serbia
Brazil,7,2,Iran
Argentina,2,1,Japan
Qatar,1,3,England
Australia,6,1,Vietnam
Japan,4,7,Serbia
Argentina,2,1,Guatemala
Denmark,3,3,Turkey
Qatar,6,6,England
Brazil,3,0,Paraguay
Russia,4,2,Iran
Denmark,3,3,Turkey
Thailand,2,1,Australia
Brazil,3,3,Russia
Portugal,1,1,Spain
Poland,2,2,Slovenia
Portugal,1,3,Spain
Montenegro,1,4,France
Poland,1,5,Slovenia
Montenegro,1,1,France
Spain,14,2,Greece
Peru,4,0,Chile
Peru,4,1,Chile
Poland,4,1,Turkey
Japan,3,0,Thailand
Poland,3,5,Belarus
Brazil,5,1,Thailand
Vietnam,1,2,Japan
Colombia,1,1,Venezuela
Brazil,2,1,Japan
Colombia,5,2,Paraguay
Peru,9,1,Bolivia
Vietnam,3,2,Brazil
Colombia,3,3,Guatemala
Peru,6,0,Ecuador
United Arab Emirates,2,3,Saudi Arabia
United Arab Emirates,2,2,Saudi Arabia
Peru,1,3,Colombia
Colombia,4,6,Paraguay
Peru,3,1,Ecuador
England,2,1,Lithuania
England,0,2,Lithuania
Malaysia,3,4,Saudi Arabia
Croatia,3,2,Ukraine
Iran,6,3,Russia
Serbia,1,6,Spain
Belgium,3,3,Netherlands
France,2,3,Hungary
Portugal,4,1,Slovenia
Costa Rica,6,0,Mexico
Serbia,3,7,Spain
Iran,2,2,Russia
Belgium,3,3,Netherlands
Croatia,1,3,Ukraine
France,6,4,Hungary
Portugal,2,4,Slovenia
Denmark,4,3,Sweden
Costa Rica,5,3,Mexico
Brazil,4,1,Chile
Colombia,4,2,Croatia
Chile,1,1,Croatia
Brazil,4,0,Colombia
Finland,3,4,Sweden
Denmark,4,6,Norway
Brazil,7,0,Croatia
Chile,1,5,Colombia
Norway,1,5,Sweden
Denmark,3,5,Finland
Brazil,4,1,Colombia
Poland,8,1,Wales
Poland,3,2,Norway
Slovenia,5,5,Spain
Croatia,3,2,Belgium
France,3,0,Sweden
Poland,5,2,Moldova
Slovenia,0,3,Spain
Portugal,10,0,Switzerland
Croatia,2,2,Belgium
France,7,5,Sweden
Portugal,11,0,Switzerland
Belgium,3,2,Greece
Spain,6,0,Netherlands
Serbia,1,4,Azerbaijan
Portugal,8,3,Turkey
Serbia,0,3,Azerbaijan
Portugal,6,1,Turkey
Serbia,3,2,FYR Macedonia
Sweden,3,3,England
Serbia,1,1,FYR Macedonia
Sweden,3,2,England
Chile,1,2,Argentina
Brazil,3,1,Paraguay
Colombia,1,1,Uruguay
Brazil,2,0,Uruguay
Poland,2,2,Cyprus
Chile,1,2,Colombia
Argentina,6,1,Paraguay
Brazil,2,1,Colombia
Poland,6,2,Cyprus
Argentina,3,1,Uruguay
Chile,4,4,Uruguay
Colombia,5,1,Paraguay
Argentina,0,2,Brazil
Paraguay,4,3,Uruguay
Argentina,4,3,Colombia
Chile,0,2,Brazil
Romania,4,1,France
Romania,3,2,France
Wales,4,7,England
Montenegro,1,4,Serbia
Montenegro,1,1,Serbia
Argentina,3,1,Paraguay
Brazil,7,2,Chile
Brazil,5,0,Paraguay
Argentina,2,1,Chile
Brazil,2,3,Argentina
Lebanon,1,6,Egypt
Lebanon,1,2,Egypt
Thailand,4,2,Australia
Poland,3,3,Romania
Poland,5,4,Romania
Croatia,4,3,FYR Macedonia
Croatia,1,4,FYR Macedonia
England,5,0,Cyprus
England,3,0,Qatar
England,1,1,USA
USA,3,5,France
USA,5,2,France
Australia,2,1,China PR
Japan,12,0,Korea Republic
Indonesia,0,5,Australia
Uzbekistan,2,1,Japan
Korea Republic,1,4,Kyrgyz Republic
Iran,8,1,Australia
Uzbekistan,3,0,Korea Republic
Japan,4,0,Kyrgyz Republic
Kuwait,5,2,Australia
Thailand,2,3,Japan
Kuwait,1,6,Japan
Japan,2,2,Iran
Australia,7,2,Vietnam
United Arab Emirates,3,0,Australia
Thailand,4,3,Australia
Mexico,1,2,Panama
Costa Rica,3,0,Cuba
Mexico,2,0,Canada
Costa Rica,1,0,Belize
Panama,0,0,Canada
USA,1,0,Costa Rica
Panama,6,1,Cuba
Mexico,1,0,Trinidad and Tobago
Honduras,1,0,Costa Rica
Panama,2,1,Mexico
USA,1,0,Panama
Belarus,1,2,Portugal
Germany,3,4,Russia
Germany,1,5,Portugal
Belarus,2,4,Russia
Belarus,3,1,Germany
Portugal,7,4,Russia
Andorra,2,4,England
Portugal,3,4,Spain
France,4,12,Switzerland
England,2,1,Moldova
Portugal,2,6,Switzerland
France,2,5,Spain
Czech Republic,2,2,England
Spain,3,9,Switzerland
France,1,4,Portugal
Netherlands,5,3,Poland
Italy,5,6,Poland
Belarus,3,7,Poland
Romania,0,6,Spain
Russia,2,1,Germany
Germany,0,2,Spain
Russia,5,0,Romania
Germany,6,4,Romania
Russia,3,2,Spain
Estonia,2,3,France
England,3,4,Czech Republic
Ukraine,1,3,Poland
Netherlands,4,5,Russia
Switzerland,3,5,Portugal
Spain,5,3,Italy
England,4,6,Hungary
France,4,1,Turkey
Switzerland,6,5,Ukraine
Russia,5,6,Italy
Poland,2,6,Portugal
Spain,5,2,Netherlands
France,7,5,Israel
Greece,0,5,England
Portugal,1,2,Ukraine
Poland,5,10,Switzerland
Spain,2,4,Russia
Estonia,4,3,England
Italy,5,6,Poland
France,2,1,Greece
Spain,1,4,Switzerland
Russia,8,3,Portugal
Poland,3,4,Belarus
Germany,2,4,Switzerland
France,2,6,Russia
Poland,0,4,Germany
Switzerland,6,5,Belarus
Russia,3,4,Netherlands
Italy,3,2,France
Belarus,2,4,Germany
Switzerland,11,3,Poland
Netherlands,3,5,France
Italy,2,1,Russia
France,7,3,Switzerland
Netherlands,1,3,Portugal
Spain,2,1,Ukraine
Poland,3,4,Greece
Switzerland,6,6,Ukraine
Greece,0,8,Portugal
France,3,6,Spain
Poland,5,3,Netherlands
France,1,4,Ukraine
Spain,3,8,Switzerland
Poland,6,8,Portugal
Russia,7,1,Netherlands
Belgium,1,6,Romania
Spain,3,3,Croatia
Netherlands,0,5,Portugal
Croatia,3,3,Czech Republic
Portugal,4,4,Russia
Belgium,0,0,Ukraine
Czech Republic,1,8,Spain
Ukraine,1,2,Portugal
Romania,0,6,Russia
Italy,2,1,Croatia
Slovenia,0,4,Spain
Portugal,3,4,Italy
Russia,4,3,Spain
Portugal,4,8,Spain
Italy,3,1,Russia
