Team1,Team2,Score1,Score2
0,1,2,0
2,3,2,2
4,5,2,3
3,1,2,1
0,2,0,1
6,4,1,1
5,7,1,1
3,0,2,1
1,2,0,4
5,6,3,1
7,4,1,1
2,7,0,0
5,3,4,1
2,3,2,1
7,5,0,1
8,9,0,0
3,10,3,0
3,11,1,1
9,10,2,2
8,12,2,1
11,8,0,2
3,9,1,0
8,3,1,1
9,12,3,0
11,9,4,0
3,12,3,1
8,10,1,1
10,3,3,2
9,8,2,1
4,13,3,2
14,15,2,0
16,17,1,1
18,19,3,2
20,13,2,1
17,4,2,0
19,14,0,0
4,21,2,1
15,19,0,0
14,22,2,2
13,17,1,0
22,4,1,1
4,22,2,1
23,24,0,1
5,8,2,1
25,26,2,1
7,27,0,4
28,29,1,7
16,3,1,1
10,17,1,6
30,23,1,2
8,31,2,2
26,32,4,0
33,25,0,2
34,5,4,0
29,17,2,1
27,3,3,2
11,23,1,3
31,5,1,3
32,25,0,2
26,33,2,0
8,34,0,3
29,10,5,1
17,28,1,1
3,7,0,0
27,16,4,0
23,5,0,4
29,26,1,2
27,17,0,0
34,3,2,1
25,10,3,0
11,27,1,4
5,25,1,2
26,34,3,1
25,27,1,3
35,26,1,3
25,35,2,0
27,26,5,2
3,36,1,0
29,37,1,2
2,38,2,2
3,27,0,1
38,39,1,1
37,27,1,3
38,37,0,0
39,27,0,1
40,41,1,0
42,6,4,0
43,44,2,1
45,35,6,0
36,46,0,0
6,42,1,1
44,43,2,2
46,36,2,2
41,40,1,0
35,45,0,0
42,47,1,0
31,43,1,4
48,36,0,2
45,49,3,0
41,50,2,1
51,36,0,2
52,45,0,2
43,53,0,0
24,41,1,1
36,51,2,1
39,23,0,0
38,54,0,0
25,55,2,0
56,57,2,1
23,25,1,1
55,56,1,2
58,38,1,2
54,39,1,1
57,25,0,0
39,38,0,0
23,58,1,2
54,56,0,0
38,57,4,2
56,23,1,1
25,7,3,0
55,54,1,3
59,60,0,2
61,2,0,3
62,63,0,2
64,29,2,1
65,66,1,3
67,27,2,2
5,68,7,0
69,70,3,1
71,26,1,2
72,73,1,0
74,75,1,1
63,76,9,0
29,77,4,0
60,78,3,0
2,59,5,1
79,64,3,2
80,5,1,2
81,27,0,4
66,69,4,0
82,72,1,0
74,83,3,0
26,37,3,0
73,84,1,0
85,64,0,4
29,86,0,0
87,2,0,1
61,60,0,3
88,63,1,2
89,66,1,4
27,90,2,1
69,65,3,0
5,91,6,0
92,73,1,0
93,26,0,8
72,94,2,0
95,74,0,1
89,69,1,6
27,96,1,0
97,66,0,1
98,5,1,3
99,74,3,2
26,100,3,0
73,82,1,1
92,72,0,3
101,63,3,4
64,86,8,0
78,2,0,2
79,29,0,1
60,87,5,2
69,97,4,2
102,27,0,1
66,70,1,1
5,103,5,1
94,73,0,2
104,26,0,1
72,84,2,0
74,105,1,0
63,106,4,0
29,85,2,1
2,60,2,0
77,64,2,0
98,60,0,1
73,88,4,1
64,37,1,0
66,95,0,0
60,98,0,0
88,73,0,0
37,64,0,0
95,66,1,5
10,4,0,0
4,10,3,1
1,56,0,0
56,1,2,0
3,95,3,1
60,85,1,0
29,58,5,0
2,106,4,0
95,38,3,1
97,14,1,2
87,0,0,3
66,5,1,1
17,22,1,1
16,19,0,0
37,38,3,0
26,23,2,2
56,58,1,0
25,54,0,1
0,7,1,1
4,25,0,4
107,54,0,6
91,64,1,1
29,27,3,2
56,108,3,1
6,23,0,4
3,24,1,0
3,58,2,1
109,36,1,1
36,109,3,1
110,42,1,0
41,45,1,1
36,31,3,1
45,41,3,1
42,110,2,0
31,36,5,0
14,111,2,0
17,1,2,1
0,19,4,2
17,112,3,3
19,45,1,3
0,14,1,1
113,9,0,5
72,80,1,2
14,9,2,1
19,23,2,1
114,74,0,2
17,25,1,3
29,75,2,0
63,3,3,3
69,38,0,0
27,5,0,0
2,13,3,0
0,54,0,1
26,8,5,0
39,14,0,1
79,13,1,0
69,3,0,1
19,74,1,1
114,23,0,4
18,72,1,1
87,8,1,0
75,9,1,1
99,38,2,1
2,11,1,1
27,25,0,0
54,42,2,4
63,17,1,0
5,29,2,2
0,26,3,3
19,114,2,2
17,33,1,0
33,19,0,1
17,114,2,1
17,19,1,4
115,13,1,2
20,13,0,0
13,116,0,2
45,117,4,0
42,118,0,0
45,31,3,1
53,42,0,1
45,119,0,0
120,42,1,3
83,19,0,1
45,121,2,0
42,122,2,1
108,19,2,2
45,53,3,1
119,42,0,1
3,101,1,0
61,19,0,1
45,42,4,0
13,83,3,0
16,13,4,1
14,109,4,0
66,9,1,0
17,35,1,1
38,80,2,0
0,25,0,3
36,15,1,1
91,4,4,1
88,60,0,1
43,14,1,0
74,45,1,2
77,27,0,1
67,8,0,1
29,23,2,3
94,13,1,1
5,26,1,1
2,41,2,1
37,54,0,2
69,42,0,1
56,73,2,0
72,3,0,3
98,19,2,1
64,7,1,2
75,38,0,1
77,2,3,0
17,94,1,2
60,9,6,0
123,14,1,2
63,13,4,0
0,29,1,3
27,37,1,1
45,15,2,0
23,4,0,0
26,54,6,1
66,7,0,0
88,41,1,0
36,101,0,0
43,8,1,0
42,74,0,2
70,64,1,0
5,25,0,1
69,19,3,2
56,72,3,1
3,73,0,1
12,9,0,1
123,13,0,2
13,88,2,0
14,15,1,0
19,10,2,0
3,75,0,0
37,13,2,1
29,95,2,0
42,44,1,1
2,43,2,2
92,14,2,1
54,112,4,0
56,67,2,0
9,98,0,0
17,24,0,2
99,0,1,0
86,36,0,0
94,45,0,0
19,101,1,3
4,80,4,0
43,92,2,2
29,37,3,1
23,41,0,0
27,42,2,1
99,5,2,1
63,2,0,0
64,66,0,0
72,91,2,3
3,67,1,0
73,25,0,2
8,98,3,0
13,56,0,3
26,60,1,1
90,45,1,2
74,7,0,1
0,92,1,1
42,80,0,1
91,9,1,0
27,5,3,2
27,5,4,5
60,27,6,3
45,77,2,1
60,77,9,2
45,27,3,4
27,77,3,3
45,60,5,5
25,0,9,4
2,29,5,0
25,29,9,0
2,0,3,1
0,29,5,2
2,25,4,6
114,38,1,8
3,56,1,0
38,56,4,3
114,3,1,4
38,3,5,4
114,56,4,6
60,29,6,2
114,56,1,6
38,3,4,3
114,3,1,9
38,56,5,3
114,38,2,4
3,56,6,4
66,91,2,9
25,23,7,4
56,39,6,4
56,23,6,5
23,39,3,4
25,55,7,3
25,39,10,2
56,55,2,5
55,23,4,3
56,25,2,6
38,57,7,1
54,7,4,7
54,38,2,2
54,57,4,1
58,38,7,2
7,38,2,3
58,54,5,2
45,41,4,4
45,41,0,1
3,23,5,2
11,29,6,5
45,41,6,4
11,23,4,2
3,29,4,3
29,23,5,4
3,11,5,4
20,0,2,6
41,25,3,11
20,2,4,6
0,3,6,2
20,41,3,4
25,2,4,1
58,0,1,2
3,34,1,4
3,58,4,5
41,2,6,6
20,25,4,15
34,0,3,4
41,3,6,5
0,2,2,3
25,34,6,4
3,58,0,3
20,41,2,1
0,34,2,4
2,25,0,2
38,114,3,2
38,114,6,3
26,124,7,3
42,45,7,6
26,45,8,5
42,124,9,8
45,124,2,0
42,26,5,6
25,60,10,3
25,56,11,0
60,56,11,2
25,60,11,4
26,94,6,2
25,60,11,7
26,103,3,1
34,26,4,2
55,56,6,3
56,55,6,5
8,9,2,2
9,125,8,2
126,8,3,2
125,8,6,7
126,9,6,2
2,69,6,3
2,69,9,2
29,63,12,2
29,63,9,2
60,5,7,1
26,11,4,3
127,3,1,5
60,62,9,0
11,3,6,8
127,26,4,7
26,3,4,5
116,41,4,3
116,41,2,5
116,41,4,5
29,27,2,1
29,27,3,2
114,27,0,5
27,80,4,5
128,27,0,5
58,38,5,3
54,57,6,0
54,38,7,1
38,57,3,3
54,7,6,1
38,7,2,1
54,58,2,2
69,29,3,4
54,65,0,0
54,129,9,1
5,92,3,2
63,60,7,2
92,60,4,2
5,63,5,10
21,54,1,2
17,124,5,2
41,13,2,5
21,17,4,6
41,13,5,5
25,38,1,0
17,130,4,1
64,75,2,3
25,38,7,1
64,75,2,2
17,15,3,3
131,41,4,3
0,2,3,3
96,5,4,0
90,26,2,3
131,41,0,5
132,17,1,1
0,2,7,3
96,5,5,1
26,37,4,0
25,56,3,1
23,55,1,1
25,55,5,3
23,56,5,0
55,56,2,5
23,25,2,3
73,133,3,1
77,73,0,0
114,73,0,3
27,75,2,1
27,75,2,2
64,87,1,3
77,60,6,1
60,97,0,2
64,87,5,4
96,69,6,6
96,69,3,1
25,8,3,1
25,8,5,1
55,56,2,4
23,9,5,0
56,57,4,1
9,39,0,4
23,55,7,1
39,56,3,3
9,55,2,4
23,57,4,3
57,9,2,4
23,56,2,0
56,9,1,2
23,39,2,2
39,56,3,4
23,55,5,2
27,75,3,0
27,98,5,1
0,65,3,3
67,27,0,5
80,5,13,2
0,103,4,3
69,105,4,2
26,63,5,2
82,64,6,1
87,29,1,4
69,105,3,1
5,80,2,5
91,66,0,1
96,2,0,2
90,74,3,3
26,63,2,0
34,0,4,0
66,64,4,3
87,29,1,4
96,2,4,6
90,74,6,0
91,64,3,1
82,66,4,3
9,8,1,0
10,8,2,7
134,9,2,3
10,9,4,6
134,8,2,5
9,8,4,0
8,135,5,4
66,92,7,4
8,135,5,0
66,92,5,4
73,90,1,0
74,115,6,0
37,69,7,0
80,73,1,3
26,21,8,1
87,73,1,1
17,54,2,4
2,21,1,1
25,58,8,2
2,45,2,2
25,58,8,3
17,54,1,4
21,19,6,1
80,63,9,0
25,38,10,1
80,38,6,3
25,8,6,1
38,8,3,6
25,63,8,4
38,63,8,1
80,8,3,1
25,80,9,4
8,63,3,3
8,38,1,6
25,80,4,2
25,69,3,1
66,5,3,2
25,69,5,0
66,5,5,2
64,61,4,3
64,61,8,6
26,82,3,1
29,17,4,1
2,74,3,2
26,82,5,1
105,27,5,1
2,74,3,1
29,17,1,1
105,27,6,0
87,8,2,0
87,8,3,1
58,23,1,3
56,54,0,3
57,9,1,2
23,54,0,1
9,58,2,5
57,56,0,1
56,9,4,2
54,58,1,3
57,23,0,7
54,9,4,2
23,56,4,1
58,56,2,1
9,23,0,2
57,54,2,4
27,69,1,3
27,69,4,5
15,19,13,2
17,136,4,2
19,17,2,5
15,17,2,4
136,19,7,0
17,131,2,0
16,17,0,3
17,34,0,4
10,8,0,1
11,9,1,1
3,126,3,1
8,135,1,1
9,134,2,1
3,108,0,0
137,3,0,2
8,9,1,0
3,10,1,0
8,11,0,2
3,108,0,1
25,23,7,2
38,39,3,1
56,57,7,8
25,54,4,0
38,57,2,5
23,7,5,6
56,55,4,4
58,23,6,6
55,38,4,4
54,7,6,5
56,38,4,7
25,7,13,1
54,58,5,7
25,58,10,6
54,23,2,1
56,39,8,3
39,23,4,4
56,7,4,4
57,54,2,6
25,55,6,2
38,58,3,11
55,38,4,7
25,58,7,3
26,5,2,4
0,29,2,4
74,91,6,6
26,29,5,4
0,5,3,2
74,80,4,2
29,5,5,4
0,26,1,3
74,62,3,4
37,60,0,4
26,69,3,3
2,29,10,5
94,69,4,3
37,29,1,0
26,88,9,1
2,60,7,6
69,88,3,1
60,29,5,3
94,26,3,4
2,37,8,5
85,60,8,4
0,88,9,0
60,88,8,1
0,85,3,2
0,60,7,4
66,79,5,10
85,69,6,0
103,2,3,9
2,69,3,3
87,66,16,2
66,78,14,3
69,103,5,4
2,85,3,1
5,103,0,3
102,27,4,9
27,77,7,4
5,94,1,2
27,70,6,2
5,37,3,5
27,92,2,4
26,60,7,2
85,0,1,4
69,2,4,6
27,83,4,2
26,69,8,5
94,0,3,4
2,60,8,7
87,27,6,4
60,69,8,6
2,26,4,3
37,0,2,4
79,27,3,5
69,94,4,4
60,85,6,4
37,26,2,2
2,0,1,3
96,74,2,2
0,69,1,1
2,70,4,1
26,29,4,4
69,65,1,5
74,37,1,1
29,103,3,5
65,0,1,1
94,2,3,5
103,26,0,1
74,65,1,3
96,0,0,2
2,103,8,1
94,26,0,1
0,2,2,3
65,26,5,5
0,65,1,0
2,26,3,2
16,66,0,0
25,51,0,0
3,5,2,2
2,54,2,0
64,23,2,2
138,19,0,8
42,17,5,4
138,3,1,5
10,2,1,2
5,19,3,3
54,123,2,1
64,42,0,1
66,51,1,0
17,23,2,2
25,16,0,0
123,2,1,1
54,10,1,1
5,138,10,0
19,3,1,0
17,64,1,0
23,42,2,0
66,25,0,4
2,5,0,4
42,66,2,0
19,10,0,1
25,23,2,0
25,10,6,0
42,5,0,2
10,42,2,3
25,5,1,1
0,1,2,0
2,3,2,2
4,5,2,3
3,1,2,1
0,2,0,1
6,4,1,1
5,7,1,1
3,0,2,1
1,2,0,4
5,6,3,1
7,4,1,1
2,7,0,0
5,3,4,1
112,8,0,1
9,108,2,0
126,3,1,3
8,9,3,1
3,10,0,0
10,9,0,1
12,8,0,2
11,3,1,2
9,3,0,0
8,11,4,0
12,9,1,0
3,8,2,0
10,8,1,1
12,3,0,1
9,11,1,1
8,9,0,0
3,10,3,0
3,11,1,1
9,10,2,2
8,12,2,1
4,16,2,0
17,20,1,2
19,114,3,2
14,18,2,0
13,21,1,0
16,13,1,2
114,14,0,0
22,19,0,0
21,17,0,2
20,4,0,1
17,16,2,1
19,18,3,2
15,14,0,1
13,4,2,2
4,17,1,1
14,19,1,0
13,20,3,0
17,13,2,1
19,15,2,1
21,4,2,2
22,14,0,0
114,19,1,0
21,13,0,3
16,4,1,1
20,17,0,2
18,14,0,1
4,20,2,0
17,21,4,0
19,22,1,0
14,114,1,0
13,16,1,0
4,13,3,2
14,15,2,0
16,17,1,1
18,19,3,2
139,41,1,7
15,9,1,3
21,0,4,6
23,2,1,1
129,4,2,3
94,25,1,3
140,8,2,4
45,103,0,5
54,65,1,0
34,26,1,5
41,0,1,6
9,2,0,9
23,15,3,3
4,25,1,11
8,65,1,3
103,26,2,4
34,45,5,3
54,140,7,3
0,139,7,1
41,21,1,2
2,15,5,1
9,23,3,4
25,129,15,3
4,94,1,3
8,54,2,2
26,45,4,3
0,133,7,0
23,58,0,0
26,65,5,2
25,34,4,4
2,8,4,0
54,94,1,0
37,41,3,4
0,26,6,2
54,41,5,0
103,2,2,3
34,0,3,4
54,2,5,2
34,2,2,2
0,54,4,5
39,5,2,0
54,27,0,3
141,3,2,3
19,31,3,0
47,2,2,1
51,17,1,2
37,38,0,1
34,8,1,0
29,10,3,0
13,36,0,2
27,31,1,1
19,54,2,1
3,5,0,0
8,2,1,1
38,17,2,0
29,133,4,0
55,13,1,2
36,11,0,1
5,141,3,2
3,39,0,1
31,54,0,5
27,19,1,0
8,47,1,0
38,51,0,0
17,37,2,2
2,34,2,1
1,29,0,2
11,13,1,1
36,55,0,0
39,17,1,0
19,2,1,3
38,13,1,0
47,5,4,3
27,8,2,1
3,36,1,0
29,37,1,2
2,38,2,2
3,27,0,1
38,39,1,1
37,27,1,3
38,37,0,0
39,27,0,1
49,45,0,0
36,48,2,0
47,42,1,2
50,41,1,2
43,31,2,0
53,43,0,1
42,123,3,1
45,52,0,0
41,24,2,0
23,39,2,0
55,25,0,3
54,38,1,0
38,58,4,0
39,54,2,2
25,23,2,1
56,55,2,1
38,39,3,0
58,23,0,1
25,57,5,0
56,54,2,2
23,38,2,2
54,58,0,1
7,56,2,1
39,25,0,2
23,7,0,0
38,55,2,1
58,56,1,4
25,54,3,0
54,23,3,0
7,38,3,1
56,25,0,2
23,57,1,0
38,25,1,4
39,56,2,2
54,7,1,0
57,54,2,0
55,23,0,2
25,58,3,0
56,38,2,1
65,69,2,2
90,27,0,1
66,89,1,0
91,5,0,3
26,93,8,0
94,72,1,1
73,92,1,1
74,95,2,2
106,63,0,3
85,29,0,0
64,77,1,1
60,2,2,0
72,82,3,2
37,26,1,1
83,74,0,3
84,73,0,6
63,101,4,0
2,78,6,0
87,60,2,3
29,79,4,1
86,64,0,1
27,81,2,0
5,80,3,0
69,66,3,2
82,73,0,1
72,92,2,0
74,99,3,2
100,26,0,2
77,29,0,1
59,2,0,6
78,60,1,2
64,79,3,0
76,63,0,6
96,27,0,0
5,98,2,0
69,89,2,1
66,97,0,1
68,5,0,8
29,64,2,1
70,69,0,3
27,67,3,0
66,65,4,1
73,72,2,0
26,71,4,0
75,74,1,1
60,59,2,0
2,61,4,1
63,62,8,1
105,74,1,3
73,94,1,0
26,104,4,1
84,72,1,2
60,61,1,0
64,85,4,0
63,88,1,1
86,29,1,3
2,87,3,0
103,5,1,4
27,102,2,0
97,69,1,2
70,66,0,0
61,2,0,3
59,60,0,2
62,63,0,2
64,29,2,1
67,27,2,2
65,66,1,3
69,70,3,1
5,68,7,0
72,73,1,0
71,26,1,2
74,75,1,1
34,3,3,2
55,36,0,9
42,37,6,12
127,60,2,3
17,69,9,4
2,9,7,0
25,142,4,1
60,55,9,5
3,42,4,5
36,127,10,1
142,17,4,3
58,2,5,3
69,25,4,7
9,20,2,2
42,34,4,4
37,3,8,1
60,36,6,6
142,69,8,4
58,9,5,2
25,17,9,3
20,2,1,2
60,34,3,4
25,2,4,3
37,36,5,1
37,25,4,8
142,25,0,6
48,36,2,7
36,48,5,2
45,36,1,2
42,41,3,2
53,45,3,9
41,24,5,4
36,143,3,1
42,52,4,4
53,36,2,10
41,52,4,2
143,45,1,2
42,24,4,3
36,41,5,2
42,45,6,1
41,45,4,1
42,36,4,8
27,70,6,4
5,91,4,3
29,103,3,2
66,26,2,10
65,0,1,5
83,2,0,15
37,74,8,4
102,60,1,16
69,62,5,3
27,83,0,3
85,74,8,1
2,70,11,0
5,65,5,2
92,74,9,0
29,79,6,2
0,91,4,2
2,27,8,1
69,66,5,1
60,77,10,0
26,62,4,0
0,5,7,3
62,66,7,1
60,88,7,0
87,29,7,8
26,69,4,2
87,5,2,4
85,29,4,4
94,69,3,4
26,103,2,4
92,60,5,6
83,0,3,8
88,2,0,8
26,92,8,2
60,103,7,6
0,69,3,5
2,29,5,3
37,5,5,4
5,80,4,6
29,88,7,4
69,83,3,1
60,26,8,4
0,94,4,3
2,85,5,4
85,26,2,4
94,5,2,2
0,29,9,3
2,60,1,3
37,69,2,3
5,85,1,2
94,26,1,3
103,29,3,4
80,0,1,5
37,2,3,8
69,60,6,3
8,9,1,1
135,3,3,8
9,126,4,4
144,8,2,8
3,145,10,0
126,8,8,2
9,144,8,4
135,8,2,2
11,9,4,6
3,12,5,1
8,146,5,2
9,126,2,2
9,3,4,2
8,135,6,5
54,7,5,4
39,25,2,6
55,23,6,6
55,56,3,2
23,39,3,2
54,38,4,3
56,39,6,2
38,57,11,3
25,23,9,5
58,38,7,1
54,57,5,1
25,56,11,0
25,55,11,1
56,23,3,2
58,54,5,2
38,7,5,4
7,56,10,4
38,23,4,7
56,38,4,3
25,54,7,1
54,55,4,4
25,58,7,5
7,23,8,7
17,18,14,0
16,17,2,11
17,20,4,5
34,17,8,6
124,17,3,6
26,19,6,1
80,0,2,1
91,72,3,2
63,82,1,1
69,77,1,2
3,7,1,0
71,14,1,3
27,2,1,0
66,101,2,2
17,79,7,2
60,83,2,1
4,88,1,0
5,87,2,0
73,68,10,0
29,67,3,0
80,19,1,2
64,75,3,0
63,91,3,2
74,0,1,1
69,102,0,0
72,93,4,0
66,79,4,0
4,88,1,2
17,101,1,2
26,105,0,1
14,147,6,0
2,62,7,0
9,148,0,0
13,149,4,0
41,31,1,1
100,45,0,0
66,93,5,0
5,82,2,0
92,0,0,0
2,76,5,0
63,26,0,2
37,29,1,3
51,41,1,0
0,24,1,0
18,74,3,0
1,3,1,2
0,8,3,4
45,135,4,0
9,3,0,1
77,63,1,1
14,150,8,1
18,0,2,1
17,116,4,0
19,135,2,0
69,96,1,1
43,117,0,0
0,70,1,0
81,72,0,2
87,64,0,2
37,5,0,0
98,73,0,3
27,26,2,2
45,111,2,1
80,66,1,1
29,52,0,0
94,74,2,0
43,40,2,0
53,36,1,2
41,43,1,0
13,96,0,0
114,72,0,2
7,73,1,1
50,36,0,2
114,73,1,1
151,13,2,7
72,7,0,1
25,23,1,0
11,74,0,0
3,72,1,0
14,16,0,1
5,27,1,0
42,36,1,1
0,52,0,2
43,6,0,1
45,46,2,0
62,73,3,0
41,111,3,0
29,26,0,2
45,43,1,0
2,64,2,3
95,72,0,1
0,63,3,3
3,73,1,2
45,77,1,2
3,95,3,1
60,85,1,0
29,58,5,0
2,106,4,0
95,38,3,1
97,14,1,2
87,0,0,3
66,5,1,1
17,22,1,1
16,19,0,0
37,38,3,0
26,23,2,2
56,58,1,0
25,54,0,1
0,7,1,1
4,25,0,4
107,54,0,6
91,64,1,1
29,27,3,2
56,108,3,1
6,23,0,4
3,24,1,0
80,5,4,7
80,5,4,4
29,45,3,3
29,45,2,2
37,60,3,2
2,26,4,2
0,94,3,2
80,66,5,3
74,87,0,6
99,66,6,5
94,26,7,3
0,2,4,4
74,60,1,6
90,66,4,3
94,60,6,5
0,87,8,0
74,26,1,11
2,37,6,3
60,127,6,6
60,127,11,6
25,11,8,1
2,114,14,0
25,114,16,0
2,11,6,5
2,25,4,6
8,148,5,2
126,9,11,7
9,8,8,12
148,9,3,4
126,8,5,4
131,27,4,3
45,41,4,4
27,41,1,6
45,131,3,2
131,41,4,5
45,27,3,2
60,11,10,6
17,21,12,4
34,17,5,1
133,17,4,8
17,142,5,2
17,142,5,1
133,17,1,3
17,132,11,0
17,114,7,2
17,20,6,2
17,124,6,5
17,116,4,3
114,38,1,4
7,8,9,4
114,8,2,6
7,38,3,3
8,38,4,3
37,3,4,0
25,17,4,4
25,3,5,1
37,17,1,3
3,17,0,8
25,37,8,2
87,17,4,3
20,0,3,3
0,87,3,0
0,17,3,3
142,69,5,4
20,25,1,11
0,41,10,6
25,69,5,2
41,34,1,4
0,11,9,3
11,41,3,5
20,69,2,2
142,25,4,10
34,0,3,3
69,11,6,3
41,20,7,3
25,0,7,0
69,41,3,3
0,142,4,3
25,34,6,2
124,41,3,3
124,41,4,5
124,41,4,4
9,58,1,6
7,56,7,7
124,41,2,5
55,56,4,4
126,9,10,1
39,9,4,3
52,45,4,5
56,9,3,2
52,45,2,1
56,39,0,3
42,60,3,8
60,144,7,1
60,144,10,4
127,60,7,13
8,60,5,7
8,60,8,5
127,3,2,3
8,17,3,4
54,127,6,1
8,17,3,4
54,3,4,3
54,3,4,4
38,3,3,2
25,58,7,6
146,27,1,5
152,27,5,5
12,27,3,3
145,27,4,6
17,87,5,3
34,69,3,2
17,128,15,0
37,69,2,3
21,17,5,6
94,69,4,2
17,87,6,3
116,60,9,4
116,60,5,4
131,17,2,3
128,17,0,7
45,36,5,4
45,36,2,2
2,69,5,4
2,69,3,3
142,9,7,3
60,62,7,3
2,29,7,2
2,29,6,2
60,62,10,7
126,9,3,2
36,45,4,2
17,5,9,3
9,55,3,1
17,5,5,3
36,45,4,1
9,34,5,6
92,27,5,5
58,3,4,3
85,27,8,1
127,3,3,4
80,27,3,7
17,60,3,1
2,5,7,3
48,27,2,3
2,27,8,1
48,5,3,5
5,27,1,3
48,2,3,12
97,74,3,1
97,74,1,7
38,8,0,1
38,8,3,1
58,8,3,2
58,8,1,0
45,41,2,2
45,41,4,3
26,41,3,1
26,41,3,1
133,41,3,3
4,140,5,1
133,41,1,4
4,140,8,0
8,129,5,0
2,129,6,2
26,133,4,1
21,17,2,2
2,8,4,3
54,58,5,3
17,65,0,9
34,17,4,2
54,139,11,2
2,45,4,3
26,2,2,1
114,41,4,6
148,9,5,4
41,153,4,2
154,41,2,6
148,9,0,3
54,139,7,2
71,29,1,2
71,29,1,1
54,133,3,1
2,15,5,1
26,15,4,0
2,26,0,1
23,94,5,3
4,8,0,4
54,133,5,2
148,41,2,2
148,41,4,2
8,94,1,1
65,4,2,1
25,140,18,0
45,21,5,1
69,87,1,3
80,69,3,6
90,69,1,8
64,80,4,6
5,27,5,3
25,58,6,3
64,80,3,6
74,77,2,2
29,26,0,1
131,13,2,1
5,27,3,3
2,69,4,1
74,77,3,2
87,73,0,4
29,26,0,2
2,69,2,0
87,73,2,4
13,131,8,5
25,38,3,2
64,66,2,2
66,91,0,2
114,3,2,2
27,67,9,0
64,82,0,1
133,3,4,3
64,91,4,1
98,27,1,16
3,94,1,6
82,66,5,1
75,27,6,2
34,0,6,4
69,63,3,3
77,73,1,4
87,26,1,5
34,0,1,6
101,2,3,4
69,63,6,1
74,29,4,1
87,26,1,6
77,73,2,5
71,2,2,2
74,29,3,3
60,97,1,2
60,97,2,2
66,104,0,2
27,77,0,7
68,66,0,4
27,77,4,9
80,73,1,2
80,73,3,7
60,76,13,0
60,76,5,1
77,0,1,4
26,97,5,0
77,0,0,1
73,37,2,1
63,90,3,2
73,37,4,3
2,0,2,3
94,26,1,1
63,87,6,7
69,82,2,3
94,26,2,4
2,0,2,2
69,96,6,6
37,74,3,0
69,101,3,1
37,74,4,3
56,38,0,3
56,38,4,0
77,63,6,3
77,63,2,3
71,73,2,2
25,23,3,2
71,73,0,3
87,17,1,1
69,85,6,0
87,17,0,3
96,17,5,2
73,34,4,2
96,17,2,2
73,34,1,1
96,17,3,0
74,97,5,1
74,97,4,3
114,27,0,5
27,80,4,5
128,27,0,5
43,36,0,2
44,45,1,0
35,41,0,0
123,43,1,2
36,155,2,0
45,111,3,1
41,40,1,0
155,43,2,4
36,123,2,2
45,52,1,0
41,24,1,0
46,43,2,0
36,6,0,0
41,45,1,0
46,41,1,1
41,6,1,2
11,23,0,2
8,58,0,0
112,56,0,1
25,55,0,0
3,38,3,1
9,57,2,1
54,7,2,1
11,8,4,0
23,58,2,1
25,112,7,1
55,56,2,2
38,39,0,1
3,108,2,0
54,9,5,0
23,8,2,3
25,56,0,1
3,39,1,1
38,108,3,0
7,9,4,2
54,57,3,0
56,23,0,0
54,39,4,1
3,7,0,7
11,54,0,4
23,7,0,2
11,23,0,1
54,7,0,0
56,38,3,6
54,57,6,1
55,23,1,9
56,58,2,6
57,25,0,9
54,39,8,2
55,56,4,3
23,38,3,3
25,7,8,0
38,55,3,3
58,23,5,5
54,25,0,0
23,56,3,6
38,58,6,4
25,39,6,3
54,7,7,1
7,56,1,5
39,23,4,6
54,38,3,1
54,25,2,4
38,58,3,4
25,58,5,2
55,23,2,3
54,7,2,6
25,57,9,1
23,39,1,5
55,56,3,6
54,38,1,3
56,39,2,3
38,57,6,3
58,23,2,4
25,7,8,3
54,57,6,5
58,56,6,3
25,38,6,2
56,23,5,4
25,54,9,2
38,7,3,3
54,55,5,11
57,23,6,4
7,56,3,4
38,39,6,7
25,58,12,2
74,62,1,6
60,29,10,4
88,26,3,7
0,69,4,2
83,74,6,5
60,69,8,3
26,85,2,1
0,29,3,0
65,74,5,6
29,69,2,8
26,37,4,2
0,60,7,7
27,78,5,1
60,5,10,4
94,29,5,1
88,2,3,6
26,70,7,2
60,88,6,4
2,5,9,1
26,29,11,3
27,92,1,1
5,88,3,1
2,60,1,2
29,70,4,3
26,94,2,1
37,5,5,1
0,85,0,2
69,94,3,3
70,2,0,7
87,66,9,5
103,66,3,2
37,69,7,6
0,70,7,2
94,5,5,0
2,85,2,4
79,66,5,4
5,69,6,2
2,0,3,4
80,27,1,7
2,60,6,5
5,26,2,6
37,0,3,5
103,27,2,0
85,5,7,2
2,0,2,3
26,94,5,7
37,60,7,5
27,92,3,4
94,5,4,1
60,0,3,3
26,85,3,2
37,2,4,5
5,60,2,8
62,27,2,4
26,0,7,8
94,2,2,1
26,5,2,4
0,29,2,4
74,91,6,6
26,29,5,4
0,5,3,2
74,80,4,2
29,5,5,4
0,26,1,3
74,62,3,4
29,70,2,1
100,60,0,1
27,0,1,1
92,73,0,1
69,98,1,0
5,94,2,0
26,80,1,0
95,64,1,1
63,37,0,2
2,72,1,1
0,90,1,2
70,60,1,1
29,100,2,0
27,75,2,1
5,69,0,0
37,64,1,0
80,73,2,2
26,92,3,0
63,95,3,0
72,87,1,1
2,99,0,0
60,29,0,0
90,27,0,0
0,75,0,3
98,5,0,1
94,69,0,1
73,26,2,1
72,99,2,1
87,2,3,3
64,63,0,1
60,69,1,1
73,2,0,1
29,95,2,1
5,90,3,0
87,63,0,4
37,26,2,0
27,72,1,2
69,2,1,1
75,63,3,1
5,37,1,1
29,72,5,2
2,75,2,0
5,29,0,2
2,29,1,0
27,31,1,1
42,11,2,0
25,19,0,1
7,73,1,1
4,5,1,4
63,35,0,0
3,54,2,0
51,8,1,2
1,29,1,6
33,0,0,2
11,73,2,2
27,25,0,1
19,31,1,0
7,42,1,5
63,10,2,1
4,3,0,0
54,5,0,4
58,29,3,4
0,8,1,1
19,27,0,0
31,25,1,3
73,42,2,1
55,63,2,0
5,3,1,2
54,4,1,2
29,22,4,0
8,33,1,2
0,51,2,0
3,7,4,1
25,1,1,0
42,4,6,0
19,63,0,2
73,5,2,0
29,8,0,0
0,55,1,4
25,42,0,3
73,35,0,1
55,3,0,2
63,8,1,0
35,63,3,1
3,42,2,4
63,3,3,2
35,42,0,2
5,138,8,1
42,25,2,4
99,9,2,1
54,24,2,3
18,2,0,4
3,38,2,1
36,23,1,1
74,35,2,0
42,33,4,0
87,25,1,2
5,15,3,0
99,54,0,0
9,24,0,1
23,2,1,3
36,18,2,1
35,38,1,1
74,3,2,0
10,5,1,5
87,42,0,2
25,33,3,0
74,87,2,1
94,36,1,1
11,23,1,0
25,38,0,0
5,42,1,0
2,1,2,1
35,5,1,1
25,2,0,0
11,74,0,0
15,36,0,1
25,36,5,0
74,35,2,1
36,35,1,3
25,74,1,2
37,8,6,1
2,17,4,2
54,36,4,3
60,116,5,2
26,34,5,6
0,58,7,5
25,3,5,1
36,2,6,5
17,54,4,3
8,60,3,4
3,26,1,3
143,0,2,4
34,25,3,4
116,8,7,2
2,54,7,2
17,36,4,3
60,37,4,6
3,34,2,3
0,142,6,7
25,26,2,1
25,0,5,6
2,60,7,3
37,17,3,2
2,0,4,2
37,0,2,5
142,2,3,5
108,9,0,2
3,126,3,0
8,112,1,0
10,3,0,2
9,8,1,2
112,9,0,0
108,8,1,1
135,3,0,3
9,112,1,0
8,108,3,0
3,135,2,0
13,156,3,2
17,107,0,0
154,19,0,2
147,4,1,2
157,14,1,1
17,151,3,0
19,149,8,0
4,158,5,0
14,159,6,0
132,17,0,6
124,19,0,3
136,4,0,3
130,4,2,0
116,14,1,1
22,17,0,3
13,20,2,1
115,19,0,1
156,13,0,0
14,157,3,1
19,154,4,0
107,17,0,3
4,147,3,0
159,14,0,6
160,13,0,10
158,4,0,4
149,19,0,5
151,17,0,2
4,136,7,0
17,132,5,0
14,30,4,0
13,128,2,0
19,124,1,0
4,130,5,1
17,22,5,0
14,116,2,0
20,13,1,1
19,115,3,0
13,131,2,2
13,130,0,2
124,13,5,2
154,4,1,3
4,161,13,0
149,4,2,15
133,4,5,6
4,128,6,2
21,4,5,3
162,19,6,4
163,19,3,7
164,19,2,7
19,114,3,3
15,13,5,2
17,18,1,0
4,128,2,1
13,124,3,3
128,17,1,11
18,4,2,5
147,13,3,2
17,4,3,1
21,4,6,1
17,133,4,4
16,4,3,5
147,17,6,2
4,147,3,1
29,81,8,2
27,75,4,2
104,66,4,6
64,97,3,3
82,60,3,0
66,27,4,5
64,68,9,4
100,29,0,1
60,79,2,2
102,29,0,6
75,66,1,5
64,88,4,1
104,27,1,3
0,82,3,0
103,64,8,2
94,27,7,0
26,61,7,0
92,74,0,6
87,63,5,2
73,85,4,7
2,69,6,2
96,29,2,2
74,0,1,2
63,94,2,6
101,26,1,8
80,29,3,2
73,64,5,1
2,91,6,1
87,27,5,4
69,70,8,1
29,65,2,4
91,69,2,3
82,74,1,2
27,63,0,4
64,85,2,2
2,70,5,0
77,26,1,7
92,0,1,7
73,103,4,4
85,0,1,4
69,65,1,1
96,26,1,0
74,2,1,2
26,96,5,1
0,85,2,2
2,74,2,1
65,69,7,0
45,120,2,0
143,36,2,2
117,43,1,2
165,42,0,0
166,41,1,0
120,45,1,0
42,165,2,0
41,166,4,0
43,117,2,1
36,143,3,0
57,38,0,2
23,56,2,0
7,25,2,0
54,55,0,2
38,23,3,0
58,54,0,0
25,39,3,1
56,7,3,4
55,38,2,1
7,23,1,1
54,25,1,1
56,58,1,0
23,54,0,1
38,7,3,0
25,56,3,0
57,23,2,3
7,54,1,2
56,39,2,2
25,38,2,2
23,55,3,1
38,56,1,0
54,57,2,0
58,25,2,2
52,45,2,7
45,52,5,0
47,43,4,2
41,53,0,0
122,45,2,5
43,129,1,4
41,122,4,2
45,53,3,2
51,43,1,7
45,41,2,3
129,45,1,4
41,47,5,4
45,41,3,2
23,7,6,3
54,38,4,2
58,56,2,2
25,39,2,1
38,57,2,2
7,54,0,3
56,55,1,3
58,25,0,1
54,23,2,0
25,55,14,0
23,57,4,1
39,56,4,2
7,38,0,5
57,54,0,11
56,25,0,6
38,23,4,0
56,7,2,2
39,23,6,4
25,38,4,1
58,54,3,3
58,38,7,2
25,54,4,0
9,125,15,0
126,9,0,3
9,10,6,4
148,9,8,4
10,3,1,7
148,9,1,4
8,135,3,2
3,148,2,6
9,10,10,3
8,139,6,0
3,9,3,4
8,137,6,3
9,139,6,5
8,148,7,1
8,9,4,0
9,55,1,1
56,3,1,1
54,57,5,0
55,9,4,0
38,148,5,1
23,8,1,0
95,27,0,0
0,85,4,2
74,103,4,1
29,63,3,4
25,3,2,0
41,167,2,1
66,97,2,1
91,64,0,0
25,10,1,0
60,93,3,0
5,11,1,2
17,16,4,0
19,20,3,0
15,14,0,1
26,8,2,1
100,29,1,0
45,43,1,1
37,2,0,1
69,88,0,0
53,43,1,0
36,168,3,1
45,53,3,0
3,8,2,2
10,3,0,0
168,36,0,1
33,17,2,1
114,19,0,2
17,19,1,1
19,33,0,0
114,17,1,1
2,29,0,1
11,56,2,1
54,57,7,0
9,38,0,1
3,12,3,3
8,25,0,1
29,74,2,1
42,32,2,0
51,36,1,0
39,9,1,1
11,25,1,4
23,56,1,1
8,38,1,0
54,3,2,2
29,89,4,0
42,44,0,2
9,12,1,2
8,51,0,1
43,49,3,3
41,47,3,0
66,29,1,2
42,6,3,0
45,31,1,1
19,108,3,0
14,17,1,1
123,36,1,0
11,8,0,1
3,9,1,0
42,46,2,0
31,36,2,0
43,53,1,0
53,45,0,4
36,31,3,1
46,42,0,0
43,45,2,3
29,5,2,0
69,72,4,2
63,37,3,1
80,74,4,1
90,60,3,2
26,27,2,0
0,2,1,0
86,2,0,2
99,60,1,2
90,72,3,1
69,80,3,1
27,29,2,0
0,73,1,3
82,72,0,1
20,72,2,1
49,45,0,0
43,31,2,2
42,32,4,1
45,52,0,1
43,42,1,1
118,45,1,4
32,43,0,5
31,42,1,0
41,130,0,1
41,53,2,0
43,35,1,2
11,72,3,2
39,8,1,0
3,36,2,0
9,126,1,0
41,46,2,0
134,9,1,0
73,104,2,0
69,74,1,0
92,64,2,1
37,26,1,1
66,72,2,1
77,29,2,3
95,60,1,0
2,79,0,1
69,82,5,0
87,73,1,1
5,27,2,3
0,102,3,0
21,19,0,1
70,26,0,0
62,74,0,1
64,80,1,1
88,72,2,3
60,101,0,2
5,37,4,1
67,66,1,0
27,77,1,2
29,0,4,2
2,63,2,1
27,92,2,1
56,12,4,0
9,39,0,0
74,106,2,1
42,35,1,0
73,83,1,0
27,4,2,1
8,39,2,1
45,50,2,0
38,12,3,1
54,10,1,0
60,63,1,2
118,36,0,2
3,58,1,0
56,126,3,1
5,90,1,3
23,112,3,1
26,101,3,1
9,25,0,2
2,91,3,0
64,96,0,0
29,6,3,2
86,42,1,3
74,104,3,1
26,19,6,1
80,0,2,1
91,72,3,2
63,82,1,1
69,77,1,2
3,7,1,0
71,14,1,3
27,2,1,0
66,101,2,2
17,79,7,2
60,83,2,1
4,88,1,0
5,87,2,0
73,68,10,0
29,67,3,0
80,19,1,2
64,75,3,0
74,0,1,1
63,91,3,2
69,102,0,0
72,93,4,0
66,79,4,0
4,88,1,2
17,101,1,2
26,105,0,1
14,147,6,0
2,62,7,0
41,115,8,2
27,115,2,1
41,27,6,5
124,27,2,1
41,70,11,2
27,70,8,1
41,124,3,5
17,11,5,3
17,11,4,1
26,37,1,1
2,60,6,5
87,0,3,5
26,87,5,2
2,94,5,4
0,37,4,6
103,60,4,7
60,94,5,4
0,26,5,3
103,2,4,6
103,26,1,3
2,0,1,2
37,60,7,4
2,60,6,5
0,37,3,2
94,26,3,6
3,142,3,3
87,25,4,9
87,25,2,9
25,8,5,3
69,5,2,3
69,5,10,5
45,87,5,2
69,77,7,0
45,87,1,3
69,77,4,1
43,135,5,5
41,92,3,2
100,29,2,6
81,45,2,7
37,43,11,1
41,81,11,2
124,43,3,2
29,53,2,2
45,92,3,2
123,43,1,7
29,88,2,3
45,41,2,4
60,27,8,3
41,53,6,5
37,45,5,0
124,43,5,4
29,92,5,2
43,92,3,4
124,29,2,3
53,45,4,3
41,37,1,5
127,3,3,8
12,3,5,4
20,2,4,5
2,3,5,3
20,41,2,3
0,54,5,1
3,142,3,4
20,54,3,3
41,0,2,5
34,2,5,3
41,54,7,6
2,142,2,6
20,0,5,4
3,34,2,5
2,54,6,2
20,3,3,2
142,41,8,5
0,34,4,1
54,3,2,6
20,2,4,1
142,0,2,5
41,34,2,2
42,52,3,6
27,124,2,4
42,27,8,6
42,124,7,4
27,52,4,6
54,58,0,2
25,38,11,1
58,38,6,4
25,54,6,1
54,38,3,5
25,58,8,1
45,41,2,3
60,69,9,5
45,41,3,1
2,54,6,0
25,17,6,2
60,69,8,6
2,11,4,1
126,54,7,3
25,17,8,4
54,11,3,3
126,2,3,4
127,60,3,13
127,60,6,9
131,41,2,4
131,41,4,3
2,26,3,2
48,27,2,7
2,27,5,2
48,26,2,9
26,27,5,2
48,2,1,4
87,69,3,1
0,69,4,3
0,87,4,2
41,116,3,2
41,124,4,3
16,45,0,3
20,45,2,2
41,131,2,1
45,116,8,2
41,20,3,4
41,116,4,1
20,45,3,2
80,5,4,7
80,5,4,4
29,45,3,3
29,45,2,2
37,60,3,2
2,26,4,2
0,94,3,2
80,66,5,3
74,87,0,6
99,66,6,5
94,26,7,3
0,2,4,4
74,60,1,6
90,66,4,3
94,60,6,5
0,87,8,0
74,26,1,11
2,37,6,3
17,133,2,1
17,133,7,2
26,74,4,1
26,74,5,2
148,54,1,5
148,54,4,4
1,4,2,4
1,4,1,6
54,58,7,1
1,4,2,3
54,58,3,3
4,141,10,2
128,4,0,1
54,38,2,1
54,38,1,2
74,101,2,1
74,101,4,2
69,80,2,5
69,87,6,2
69,90,1,1
17,128,6,5
17,128,7,1
92,64,4,4
92,64,5,3
61,26,1,5
61,26,1,8
96,74,4,5
73,37,1,2
25,2,2,1
128,13,8,4
96,74,2,2
73,37,2,2
128,13,3,5
16,13,4,4
23,58,2,2
148,23,0,2
17,115,7,1
17,115,2,0
34,0,3,1
34,0,2,2
92,66,5,6
92,66,6,2
62,27,3,3
62,27,0,2
29,63,1,4
26,71,10,2
77,2,2,4
74,80,6,4
26,71,8,0
74,80,3,3
77,2,2,1
122,38,2,4
25,47,11,2
23,34,1,4
23,38,6,2
25,148,9,0
34,38,7,3
122,23,0,1
25,58,3,1
9,11,4,3
8,39,2,2
25,23,5,0
148,38,0,2
8,9,6,4
23,58,1,0
25,34,4,3
9,39,6,4
8,11,6,2
17,15,3,0
17,15,4,4
27,69,1,2
27,69,1,6
91,64,2,2
91,64,3,4
29,97,1,1
29,97,4,2
70,74,1,5
73,17,5,3
73,17,4,0
56,139,6,3
56,139,5,3
80,17,4,5
80,17,2,3
114,3,3,3
34,3,5,1
154,3,5,3
56,8,1,1
56,8,3,3
2,18,7,0
64,66,5,2
4,140,3,0
66,64,5,1
26,69,9,2
17,23,3,2
2,90,3,3
2,90,4,1
17,23,4,2
25,58,5,0
25,38,6,1
17,162,4,0
64,82,3,6
64,82,5,2
29,70,3,4
29,70,2,0
54,11,3,1
54,11,7,4
54,8,4,2
25,139,9,2
105,5,4,0
105,5,5,0
17,133,7,0
17,15,3,3
8,12,6,0
8,12,6,1
54,3,8,0
8,10,4,2
55,38,3,3
25,54,2,1
25,38,5,1
54,55,6,2
25,55,9,3
38,54,5,8
38,55,7,1
25,54,6,2
27,82,2,1
27,82,0,3
97,74,3,1
97,74,1,7
9,112,1,1
8,108,2,2
3,139,6,0
10,9,1,1
8,126,1,1
148,3,0,0
9,11,1,1
135,8,0,0
3,12,4,4
12,9,1,1
3,8,1,0
9,3,1,2
11,9,1,1
108,3,1,3
3,57,0,0
38,108,1,0
54,58,2,2
23,39,0,1
25,56,2,1
7,3,3,3
54,38,1,0
25,23,0,1
56,39,1,0
3,55,1,2
38,58,1,1
54,108,1,0
23,56,0,0
25,39,2,1
7,38,1,0
57,56,1,3
54,23,0,0
25,58,1,1
7,56,2,1
54,58,6,1
56,58,2,0
7,54,0,0
11,23,0,2
8,58,0,0
112,56,0,1
25,55,0,0
3,38,3,1
9,57,2,1
54,7,2,1
11,8,4,0
23,58,2,1
25,112,7,1
55,56,2,2
38,39,0,1
3,108,2,0
54,9,5,0
23,8,2,3
25,56,0,1
3,39,1,1
38,108,3,0
7,9,4,2
54,57,3,0
56,23,0,0
54,39,4,1
3,7,0,7
11,54,0,4
23,7,0,2
11,23,0,1
54,7,0,0
58,56,5,1
23,39,2,0
54,7,4,1
25,38,4,1
55,56,1,1
7,56,5,2
38,39,2,2
54,58,3,3
25,23,2,0
54,56,2,3
23,38,3,2
25,39,5,1
55,54,1,5
56,39,2,7
7,38,2,0
58,23,3,1
25,54,0,0
23,25,1,5
58,54,1,4
37,5,4,2
85,29,2,1
88,2,1,2
0,69,3,3
85,69,4,5
2,5,6,1
0,29,4,1
5,88,7,6
29,69,3,1
2,37,5,6
0,85,3,3
27,83,5,3
26,60,5,6
27,70,2,5
26,94,4,9
87,60,4,10
103,27,6,5
60,94,7,3
87,26,5,6
87,27,1,3
26,37,2,7
29,60,2,5
2,0,3,3
94,26,4,5
60,0,5,8
2,29,6,2
62,27,5,3
91,27,3,4
85,26,3,4
60,2,5,8
0,29,3,0
85,29,2,3
37,60,15,10
27,80,2,2
26,0,3,6
94,2,4,5
11,3,2,3
29,70,2,1
100,60,0,1
27,0,1,1
92,73,0,1
69,98,1,0
5,94,2,0
26,80,1,0
95,64,1,1
63,37,0,2
2,72,1,1
0,90,1,2
70,60,1,1
29,100,2,0
27,75,2,1
5,69,0,0
37,64,1,0
80,73,2,2
26,92,3,0
63,95,3,0
72,87,1,1
2,99,0,0
60,29,0,0
90,27,0,0
0,75,0,3
98,5,0,1
94,69,0,1
73,26,2,1
72,99,2,1
87,2,3,3
64,63,0,1
60,69,1,1
73,2,0,1
29,95,2,1
5,90,3,0
87,63,0,4
37,26,2,0
27,72,1,2
69,2,1,1
74,96,5,1
26,87,5,2
0,65,2,1
96,2,2,6
65,73,4,2
94,26,1,4
74,2,3,1
73,0,2,2
74,94,2,1
2,26,2,6
0,103,6,2
74,0,2,3
26,65,5,3
74,65,2,5
0,26,3,7
10,72,0,5
48,19,0,5
19,141,9,0
72,56,1,2
56,10,3,1
56,48,3,1
19,72,1,1
48,72,0,4
56,19,2,1
54,9,2,2
3,35,0,2
18,23,0,1
2,36,3,0
38,74,1,0
5,138,8,1
42,25,2,4
99,9,2,1
54,24,2,3
18,2,0,4
3,38,2,1
36,23,1,1
74,35,2,0
42,33,4,0
5,15,3,0
87,25,1,2
9,24,0,1
99,54,0,0
36,18,2,1
23,2,1,3
35,38,1,1
74,3,2,0
10,5,1,5
25,33,3,0
87,42,0,2
74,87,2,1
94,36,1,1
11,23,1,0
25,38,0,0
2,1,2,1
5,42,1,0
35,5,1,1
25,2,0,0
15,36,0,1
11,74,0,0
25,36,5,0
74,35,2,1
36,35,1,3
25,74,1,2
90,60,0,14
27,88,5,3
29,62,4,1
79,26,1,8
27,83,6,5
5,91,3,2
99,69,5,7
0,92,3,1
60,62,4,3
29,90,10,3
26,103,5,3
0,85,4,2
37,27,4,2
5,61,5,1
69,87,3,2
26,80,10,0
69,70,2,4
60,29,7,2
94,5,4,2
27,103,5,4
85,69,8,2
70,5,3,3
94,29,5,1
87,60,3,6
92,26,3,6
88,0,0,3
27,87,2,5
60,103,4,2
26,29,5,4
0,5,2,0
37,69,5,3
29,92,1,2
5,88,6,2
69,62,5,6
60,27,8,3
26,94,6,6
0,70,5,2
29,69,5,4
5,27,5,2
60,26,5,4
0,37,5,3
69,88,3,2
29,103,1,3
62,27,1,1
92,5,5,4
26,37,4,5
60,0,5,6
169,41,2,6
41,169,9,4
45,170,16,1
36,45,7,3
171,42,1,10
41,52,3,3
42,41,4,1
45,24,5,3
143,36,3,2
171,41,2,5
42,52,7,6
36,24,3,5
45,143,5,8
171,45,1,5
41,24,6,5
42,36,3,4
41,45,1,3
42,52,9,1
36,143,1,1
144,3,3,8
148,9,2,1
172,8,1,12
8,9,9,5
9,172,11,2
8,148,4,3
3,12,4,0
8,12,2,1
3,148,5,2
11,3,3,4
126,8,1,2
3,8,4,0
17,115,5,3
133,17,2,3
17,114,5,0
17,131,5,2
34,17,4,5
116,17,1,1
25,56,7,3
58,23,5,4
39,54,6,7
56,39,7,4
23,57,1,0
25,38,6,3
38,39,5,4
54,56,6,6
55,23,5,2
25,39,8,1
54,38,3,5
38,56,4,8
7,23,6,3
54,25,7,5
23,56,4,5
7,38,2,5
23,7,3,9
25,55,14,1
58,54,4,1
56,38,2,3
55,54,4,4
25,58,8,3
13,156,3,2
17,107,0,0
154,19,0,2
147,4,1,2
157,14,1,1
64,63,0,2
5,6,2,2
29,58,1,1
60,56,2,0
25,9,4,0
8,17,1,3
88,42,0,0
3,101,0,1
108,41,2,2
72,62,1,0
55,27,2,2
54,12,3,0
38,96,2,0
23,130,3,0
73,4,1,0
0,45,2,0
69,102,2,1
5,89,6,1
25,74,1,0
8,95,1,1
3,2,0,1
17,47,4,3
126,26,0,2
11,42,2,1
63,43,1,0
54,96,2,0
27,10,0,0
12,14,0,2
29,108,8,0
24,19,4,0
95,2,1,5
56,9,3,0
9,139,4,0
0,103,4,0
66,92,1,2
5,54,2,4
27,91,1,0
45,18,0,0
16,56,0,2
73,106,2,0
63,4,2,0
64,62,2,0
29,26,1,0
17,38,0,2
19,39,3,1
25,23,1,0
7,3,0,0
74,29,1,1
13,4,2,3
19,38,0,1
18,56,0,2
25,55,1,0
57,3,0,1
3,10,2,0
45,173,4,0
116,8,3,4
17,108,1,0
7,56,3,0
13,38,1,1
20,4,0,0
19,58,2,0
23,126,3,0
25,54,2,0
29,2,2,1
3,9,1,0
45,174,3,0
116,38,0,3
56,148,1,0
13,124,1,1
17,25,0,4
164,54,0,7
19,8,1,3
18,4,1,0
89,29,0,3
135,23,0,1
13,156,2,0
92,25,0,4
77,3,2,3
63,72,3,1
54,73,2,1
13,18,1,1
45,110,6,1
38,8,3,3
130,19,0,1
17,10,6,0
11,23,1,2
29,100,1,1
58,56,2,1
126,9,1,3
13,131,3,0
45,155,2,1
56,58,2,1
14,19,1,0
17,4,2,1
96,23,0,1
85,3,3,2
99,25,1,2
88,74,0,2
87,0,1,2
70,66,2,0
26,5,0,1
69,60,2,2
2,54,1,0
67,27,1,3
29,64,1,0
7,38,1,2
9,135,0,0
13,175,1,0
13,20,3,2
13,18,1,2
131,13,4,1
64,52,2,0
135,72,1,2
135,72,1,1
11,9,2,0
42,40,0,1
66,11,3,2
5,4,2,2
41,120,2,0
131,23,0,6
29,25,1,3
14,7,2,0
8,58,0,0
17,43,2,0
19,15,1,1
12,9,0,1
24,36,1,2
45,38,0,1
126,54,0,2
3,55,1,0
51,42,1,1
25,7,1,0
29,66,2,0
13,130,2,1
23,115,3,1
71,4,0,0
54,55,2,1
114,43,1,1
19,1,1,0
62,72,1,1
0,65,0,0
60,11,1,1
64,14,3,1
37,27,1,1
77,26,2,0
17,15,5,1
2,48,0,2
56,39,0,1
9,8,2,1
3,58,1,0
11,3,2,0
3,148,3,0
9,55,1,1
56,3,1,1
54,57,5,0
55,9,4,0
38,148,5,1
23,8,1,0
95,27,0,0
0,85,4,2
74,103,4,1
29,63,3,4
25,3,2,0
41,167,2,1
91,64,0,0
66,97,2,1
25,10,1,0
60,93,3,0
5,11,1,2
17,16,4,0
19,20,3,0
15,14,0,1
26,8,2,1
100,29,1,0
45,43,1,1
37,2,0,1
69,88,0,0
53,43,1,0
36,168,3,1
45,53,3,0
3,8,2,2
27,37,2,3
27,37,3,5
27,37,2,5
27,5,2,4
27,5,3,3
27,38,8,4
27,38,3,5
27,38,5,2
38,8,4,5
27,8,6,6
27,8,4,8
27,8,8,9
60,5,10,8
60,87,7,5
60,87,7,1
80,5,5,5
99,5,5,6
17,11,5,4
2,87,5,0
87,17,1,5
2,11,14,1
2,17,8,2
60,142,14,9
87,17,4,3
87,17,4,5
11,25,7,8
45,20,6,4
60,87,6,2
60,88,6,1
26,87,6,4
0,87,4,3
0,26,3,4
103,60,8,9
88,0,4,7
60,26,6,8
142,27,4,1
142,27,3,2
0,103,4,3
20,0,2,2
11,25,3,10
0,17,9,3
20,45,3,4
34,2,2,4
2,45,6,4
25,17,7,4
0,11,5,1
17,11,3,1
25,0,1,2
20,2,2,3
45,34,0,5
17,20,3,4
45,11,7,3
2,25,3,5
0,34,4,3
0,25,2,3
20,45,2,4
34,2,0,3
17,11,6,1
8,148,3,3
126,8,5,3
17,128,5,2
8,125,19,5
17,20,0,0
114,17,3,7
133,17,2,7
17,34,3,4
56,176,6,2
56,7,5,8
56,58,3,6
56,57,8,1
52,36,6,2
42,24,7,5
56,39,6,2
4,21,2,5
24,36,2,5
42,52,4,5
4,141,7,6
4,21,4,5
42,36,5,4
21,60,4,6
21,60,5,8
54,3,5,4
7,38,7,6
54,38,3,1
7,3,2,5
3,38,2,1
7,54,6,5
25,7,7,4
57,38,3,5
54,58,4,7
58,38,9,6
54,7,2,4
25,57,11,3
54,57,3,1
25,38,5,4
25,58,7,8
38,54,2,3
38,7,3,7
25,54,8,2
38,57,10,6
7,54,2,8
25,58,12,2
3,8,2,1
3,8,5,4
45,29,6,2
45,29,11,5
45,52,4,4
36,129,4,2
42,24,5,2
171,45,0,6
36,42,6,5
45,129,6,5
42,51,9,3
36,52,5,4
54,3,3,2
54,3,3,1
27,62,3,3
29,87,4,2
27,62,6,1
27,62,4,1
60,27,4,1
29,87,4,3
27,62,2,2
60,27,8,5
26,29,5,2
26,29,2,3
2,87,4,2
2,87,5,3
0,103,9,5
0,85,6,5
142,60,7,8
142,60,7,9
41,115,8,2
27,115,2,1
41,27,6,5
124,27,2,1
41,70,11,2
27,70,8,1
41,124,3,5
17,11,5,3
17,11,4,1
26,37,1,1
2,60,6,5
87,0,3,5
26,87,5,2
2,94,5,4
0,37,4,6
103,60,4,7
60,94,5,4
0,26,5,3
103,2,4,6
103,26,1,3
2,0,1,2
37,60,7,4
2,60,6,5
0,37,3,2
94,26,3,6
27,106,5,0
27,18,3,0
27,11,1,1
11,29,3,5
11,29,5,2
1,4,3,5
1,4,0,6
1,4,1,7
54,11,6,0
54,11,2,0
54,11,5,1
54,11,5,3
25,54,4,1
74,97,2,1
26,70,7,1
80,69,4,3
74,97,3,0
26,70,7,1
69,90,4,7
2,73,5,0
87,69,0,2
2,73,3,1
160,4,0,9
4,177,13,0
128,4,0,3
153,4,4,1
133,4,3,4
21,4,6,0
41,54,1,6
25,17,5,0
97,27,5,4
37,41,3,2
17,80,0,4
115,54,2,6
148,25,2,5
69,75,8,1
97,27,1,2
37,54,2,1
17,148,6,0
115,41,2,5
25,80,6,1
69,88,6,1
74,0,2,3
2,105,3,0
25,54,1,4
74,0,0,1
26,92,11,1
101,29,2,7
2,105,2,0
69,96,3,4
37,25,0,3
80,54,2,6
71,26,1,6
101,29,3,2
8,3,1,1
8,3,2,0
27,61,5,1
27,61,2,0
25,133,8,1
8,148,1,2
25,23,4,0
23,133,6,2
8,34,1,5
34,23,3,4
25,148,8,2
133,8,1,3
25,23,7,2
81,74,1,4
34,0,1,1
77,69,2,2
34,0,0,0
29,88,6,1
2,94,1,1
70,74,5,3
29,88,7,2
37,69,4,3
2,94,5,2
70,74,3,6
91,64,3,3
82,66,1,1
66,91,0,4
114,3,4,1
82,64,5,1
154,3,1,2
66,64,2,2
3,21,0,7
78,27,2,3
78,27,2,3
17,73,1,1
17,73,5,2
69,62,6,1
69,83,2,0
26,94,4,0
77,74,1,2
73,34,1,4
29,82,5,2
26,94,4,3
77,74,2,3
2,87,6,1
73,34,0,2
69,71,3,2
29,82,5,4
64,92,4,0
2,87,3,1
64,92,0,3
60,20,3,1
60,20,6,1
69,0,0,6
26,54,6,2
73,133,6,3
69,0,0,6
74,37,1,5
26,54,3,2
2,115,8,2
74,37,5,2
73,29,5,1
2,115,6,1
73,133,8,3
20,13,1,2
27,64,1,3
27,64,7,3
131,45,0,2
131,45,2,4
18,13,4,1
131,13,4,2
13,115,4,4
13,116,3,5
13,20,2,2
79,74,2,4
79,74,1,3
17,133,2,1
17,133,7,2
26,74,4,1
26,74,5,2
148,54,1,5
148,54,4,4
4,115,4,1
19,116,1,0
13,114,0,1
14,131,2,0
17,156,4,0
115,19,0,1
116,4,0,4
33,13,1,4
18,14,0,1
16,17,0,1
4,19,0,1
15,13,3,1
14,20,1,0
17,130,2,0
19,15,2,0
114,4,0,2
17,20,1,1
14,16,3,3
19,16,2,0
4,20,2,0
19,4,1,2
43,48,1,1
24,36,1,2
47,43,1,2
51,36,1,1
44,43,1,1
36,123,0,2
43,120,1,2
3,57,0,0
38,108,1,0
54,58,2,2
23,39,0,1
25,56,2,1
7,3,3,3
54,38,1,0
25,23,0,1
56,39,1,0
3,55,1,2
38,58,1,1
54,108,1,0
23,56,0,0
25,39,2,1
7,38,1,0
57,56,1,3
54,23,0,0
25,58,1,1
7,56,2,1
54,58,6,1
69,85,3,4
5,60,2,4
29,0,2,6
69,5,0,4
60,85,6,5
0,77,3,4
37,29,3,2
85,5,2,4
60,69,11,3
77,29,3,5
37,0,2,1
29,60,7,3
77,2,1,3
26,94,2,1
69,88,3,4
60,94,6,6
88,2,0,8
29,26,3,6
69,77,5,3
29,94,1,4
26,60,3,8
69,2,6,8
26,85,4,1
0,88,7,0
26,88,6,0
0,85,2,4
0,26,4,1
80,27,7,3
5,2,2,5
5,37,7,7
87,27,7,6
2,94,3,4
78,27,2,8
5,94,3,4
37,2,5,5
79,69,0,6
92,27,4,2
5,60,0,7
85,2,1,3
37,0,2,9
26,94,8,6
69,103,6,1
87,27,4,5
60,94,5,3
2,0,11,7
26,5,6,2
62,27,2,5
69,80,4,1
94,5,6,0
2,37,3,6
0,85,6,2
26,60,8,2
80,27,6,4
85,5,3,3
69,87,4,6
2,60,6,2
0,26,4,3
37,5,4,2
85,29,2,1
88,2,1,2
0,69,3,3
85,69,4,5
2,5,6,1
0,29,4,1
5,88,7,6
29,69,3,1
2,37,5,6
0,85,3,3
25,17,3,0
3,37,1,2
26,38,2,1
142,42,1,6
25,3,2,0
37,17,4,3
26,142,10,0
42,38,1,2
17,3,1,2
37,25,2,4
42,26,0,3
38,142,8,0
25,38,2,1
26,37,0,0
38,37,2,2
25,26,3,0
17,4,1,1
18,14,0,1
124,19,1,1
4,130,4,0
19,15,1,0
16,17,0,1
14,124,4,0
4,16,1,0
19,14,0,1
108,3,0,1
9,3,0,0
8,10,1,0
3,8,0,0
11,9,2,0
8,9,2,0
9,108,0,0
8,11,3,1
3,10,1,2
11,3,2,0
108,8,1,1
10,9,2,2
10,8,1,0
3,9,2,1
9,11,2,3
8,3,2,1
174,42,0,1
122,36,1,1
109,43,2,2
45,169,2,1
155,41,2,4
121,42,1,1
45,168,2,0
129,41,0,1
178,36,0,2
120,43,1,1
42,167,2,0
52,45,1,1
36,40,1,0
41,31,4,2
52,36,3,1
179,42,1,2
43,6,0,0
24,41,6,1
42,179,2,0
36,52,1,1
6,43,4,1
41,24,2,1
54,23,0,0
56,55,1,0
23,56,2,0
55,54,1,1
39,38,0,1
23,55,1,0
56,38,1,2
38,23,2,0
39,56,3,2
58,54,2,5
23,7,3,3
55,38,1,0
54,56,3,1
58,23,1,2
38,54,3,2
56,57,1,1
83,69,1,1
63,74,2,1
99,64,2,1
72,96,2,4
73,67,0,1
2,0,1,0
60,106,1,0
64,59,2,0
66,89,0,4
98,0,1,0
0,86,4,1
81,66,1,2
105,29,0,0
82,26,0,2
98,2,2,4
74,73,1,1
95,64,1,2
5,99,3,0
69,97,1,1
27,83,4,0
67,63,0,2
60,72,4,4
0,104,3,1
89,66,0,1
65,64,0,1
91,60,0,2
75,74,0,3
68,69,1,5
59,5,0,3
85,29,2,4
72,100,2,1
94,27,0,0
73,63,1,2
94,69,1,0
66,37,2,2
100,60,1,2
86,0,0,4
5,95,3,0
72,106,2,0
27,97,4,1
64,99,2,1
26,85,2,1
2,104,1,1
103,0,1,1
2,86,3,0
91,72,1,1
60,96,1,0
66,81,6,0
74,71,5,1
26,105,2,0
29,82,3,0
27,69,2,0
67,73,2,0
63,75,1,1
64,5,3,5
72,73,0,0
94,29,2,0
2,64,1,0
73,72,2,0
64,2,2,3
29,94,3,0
3,1,5,1
1,3,2,4
130,38,0,5
38,130,0,0
29,24,3,1
139,19,1,2
11,26,1,4
42,2,2,3
23,4,1,1
3,88,1,2
7,41,2,1
38,73,0,1
27,16,2,2
29,11,1,1
139,42,0,3
2,19,2,2
26,24,1,0
3,58,0,1
4,126,1,2
92,23,0,1
7,27,1,1
1,38,0,2
73,15,1,1
16,41,2,1
19,42,0,1
2,139,5,0
26,29,2,1
35,3,1,4
126,23,0,3
4,92,1,2
15,38,0,4
73,1,2,1
41,27,2,0
26,3,2,1
29,92,4,1
42,38,1,2
2,24,2,3
73,7,0,2
23,19,1,1
29,15,4,0
38,26,1,0
16,19,3,3
29,24,2,1
16,38,1,1
29,38,0,0
25,90,6,1
38,1,7,0
73,45,1,3
43,39,2,1
0,17,0,1
9,15,0,2
3,42,1,6
34,54,1,1
16,64,1,4
38,52,1,1
20,25,1,6
43,0,1,0
73,9,1,0
15,45,0,0
17,39,3,1
3,16,3,1
54,99,3,2
64,42,3,3
37,38,1,2
10,25,0,3
17,43,2,1
39,0,0,4
15,73,2,1
45,9,4,2
64,3,0,1
42,16,5,0
54,135,3,0
37,3,0,2
17,64,1,2
25,0,3,1
45,52,1,2
38,90,4,2
54,43,3,1
42,34,4,1
10,64,1,2
25,3,1,1
54,52,2,1
38,42,0,2
54,3,0,3
64,42,0,3
64,54,4,1
42,3,3,0
36,94,5,4
0,17,4,1
25,34,4,1
26,11,5,4
54,126,4,1
17,58,3,1
34,36,5,3
52,0,2,5
94,25,2,4
20,26,2,5
140,54,5,8
17,52,4,3
0,58,4,3
25,36,8,3
142,26,2,4
77,54,5,5
25,17,4,3
54,142,1,6
26,126,2,1
0,34,6,5
0,142,5,3
26,25,2,1
25,142,7,7
26,0,1,5
9,56,1,2
25,27,2,2
11,5,4,3
64,71,1,0
69,93,2,0
38,29,1,0
66,105,2,1
26,112,2,1
25,29,3,0
73,2,0,1
26,95,2,0
148,54,0,4
42,52,4,1
36,117,1,0
43,45,0,1
45,43,0,0
19,4,0,0
117,36,2,0
17,114,3,3
19,114,0,0
17,4,3,2
52,42,2,0
19,17,1,2
4,114,3,4
51,42,0,2
47,36,1,1
43,50,3,0
45,46,1,2
41,40,3,0
60,25,1,0
69,66,3,2
55,26,0,2
5,58,3,3
2,77,1,1
72,59,1,0
37,54,1,2
93,73,2,3
17,38,2,4
3,52,4,1
19,56,0,0
64,91,4,2
27,67,3,2
63,29,0,0
23,74,1,0
13,1,0,1
19,112,4,1
17,148,3,0
25,4,6,0
13,12,1,3
26,7,2,2
19,73,1,2
42,46,4,1
17,24,3,1
25,2,3,1
45,51,1,1
29,4,6,0
74,17,2,0
19,25,0,2
25,47,2,0
135,4,0,3
19,35,3,1
85,17,1,0
130,42,1,0
63,23,0,2
0,74,1,1
37,5,1,1
19,60,2,1
66,91,2,1
27,7,0,2
69,90,0,2
55,54,0,0
10,25,0,5
77,17,2,2
54,101,2,0
37,42,2,2
51,26,1,0
0,19,2,1
27,5,0,1
4,8,1,0
69,95,0,0
25,7,2,1
77,23,0,0
63,17,2,3
42,179,2,1
35,42,2,1
155,45,0,0
42,129,4,2
46,45,1,1
83,64,1,2
69,91,3,0
51,42,1,3
83,69,0,1
45,40,3,1
72,64,0,2
7,8,4,0
8,19,0,1
45,42,3,4
3,19,4,0
42,24,0,0
11,19,2,0
155,42,0,1
17,1,4,2
14,31,1,2
0,89,2,0
101,41,0,2
88,19,0,2
23,43,1,1
51,25,0,5
92,64,2,1
99,38,1,1
63,52,2,2
69,67,0,1
75,72,3,1
95,74,1,2
5,7,1,0
4,55,3,4
36,35,1,1
70,54,0,0
27,66,1,0
29,77,2,0
45,49,1,1
26,37,1,0
60,73,2,2
2,6,5,1
3,42,0,0
8,58,2,1
11,3,2,2
5,69,0,0
14,85,0,0
46,36,1,1
87,66,2,2
45,129,4,0
13,83,0,4
4,51,1,1
0,90,1,0
97,14,0,0
74,108,2,1
17,106,1,0
29,91,4,0
3,104,3,0
19,43,0,1
66,64,1,0
122,45,2,0
42,67,2,2
13,105,0,2
26,57,2,0
7,41,3,2
14,122,1,1
60,108,1,0
99,72,1,1
27,56,3,0
38,98,1,0
9,74,1,1
73,35,2,1
3,55,3,1
91,0,1,1
2,88,0,0
23,36,2,2
64,63,0,2
5,6,2,2
29,58,1,1
25,9,4,0
60,56,2,0
8,17,1,3
88,42,0,0
3,101,0,1
108,41,2,2
72,62,1,0
55,27,2,2
54,12,3,0
38,96,2,0
23,130,3,0
73,4,1,0
0,45,2,0
69,102,2,1
5,89,6,1
25,74,1,0
8,95,1,1
3,2,0,1
17,47,4,3
126,26,0,2
11,42,2,1
63,43,1,0
54,96,2,0
27,10,0,0
12,14,0,2
29,108,8,0
24,19,4,0
95,2,1,5
29,27,6,4
69,60,7,7
54,58,4,3
54,58,3,5
5,77,3,3
69,20,4,5
34,69,4,2
92,69,4,2
66,27,1,4
64,77,3,9
58,54,5,1
64,66,6,8
27,77,6,4
60,142,4,7
58,54,2,1
66,77,2,6
64,27,3,9
60,90,8,6
37,26,1,5
2,17,6,1
17,26,4,2
2,37,5,3
37,17,3,2
2,26,2,3
60,77,7,3
25,58,7,1
25,58,7,3
17,60,7,2
142,54,6,4
17,60,5,9
94,54,6,2
54,58,4,2
25,20,4,1
142,4,9,2
20,0,3,8
60,3,6,5
37,25,2,5
20,45,3,2
0,34,2,2
45,60,7,9
0,37,6,3
20,3,3,1
34,25,4,4
45,3,2,5
25,0,6,6
20,60,3,5
25,45,5,3
3,37,4,5
60,0,10,11
45,3,2,3
25,37,7,5
20,60,8,7
34,0,4,3
4,114,7,5
4,21,4,1
4,21,3,1
124,36,5,4
42,5,7,1
5,36,2,6
42,124,6,6
5,124,6,5
42,36,4,2
38,2,1,7
25,60,6,4
2,60,6,3
25,38,6,1
38,60,3,5
25,2,7,4
54,3,4,2
25,126,6,1
25,3,10,1
54,126,3,1
126,3,4,5
25,54,10,1
25,38,10,1
54,3,2,1
25,3,8,2
54,38,6,0
3,38,5,4
54,25,1,3
77,5,3,1
29,27,7,5
29,27,5,3
25,60,7,3
126,27,5,1
25,27,11,1
126,60,5,7
27,60,3,4
126,25,3,6
29,26,1,3
29,26,5,6
87,29,2,5
87,29,4,5
54,58,3,4
54,58,7,1
41,13,5,2
41,119,11,3
13,20,1,5
124,45,4,5
45,20,4,5
41,116,2,4
124,13,7,4
45,13,9,6
25,11,11,1
3,5,1,3
41,20,4,4
92,0,1,1
25,5,9,4
3,11,1,2
41,124,6,5
92,0,5,5
11,5,3,5
3,25,3,8
54,38,3,1
39,23,5,3
56,25,1,11
58,23,5,3
54,56,2,2
25,38,9,3
55,23,4,0
38,56,2,1
25,54,5,5
38,23,1,2
39,56,7,2
25,55,10,3
58,54,3,2
38,56,2,4
39,23,3,4
55,54,7,7
25,58,9,3
77,5,4,5
27,37,2,3
27,37,3,5
27,37,2,5
27,5,2,4
27,5,3,3
27,38,8,4
27,38,3,5
27,38,5,2
38,8,4,5
27,8,6,6
27,8,4,8
27,8,8,9
25,8,4,1
8,29,1,1
8,29,2,3
69,128,6,1
27,11,1,2
27,69,1,2
69,11,2,4
27,128,2,2
128,13,3,2
128,13,5,5
19,180,9,1
17,13,3,0
19,164,7,1
157,13,4,1
19,115,3,5
17,157,3,2
17,15,5,4
115,19,4,1
17,115,6,4
34,17,5,2
1,4,0,3
1,4,0,4
1,4,0,7
4,141,6,1
4,142,2,0
1,4,0,2
128,4,1,5
25,63,6,1
25,63,5,1
87,69,1,2
69,90,0,3
80,69,5,3
100,60,6,5
100,60,4,3
2,103,1,1
2,103,5,0
26,63,5,2
26,63,8,2
18,13,3,3
13,20,5,3
115,13,4,1
131,13,3,6
133,19,7,5
25,148,5,0
160,4,1,8
4,149,17,0
154,4,0,4
148,0,0,4
58,74,2,1
25,17,7,2
54,34,2,2
153,4,3,7
148,74,7,4
58,0,0,7
25,54,11,1
34,17,3,1
0,74,4,3
25,34,7,2
54,17,2,1
18,27,1,3
4,133,6,1
17,74,4,7
54,148,2,1
66,92,3,3
18,27,6,6
25,58,3,0
0,34,4,2
66,92,3,3
21,4,2,1
25,0,3,3
2,26,1,1
69,96,2,2
2,26,1,3
97,29,1,4
69,96,1,5
97,29,1,1
26,88,14,2
56,7,4,0
56,7,4,1
69,92,4,1
17,21,3,0
69,85,3,5
25,21,5,1
133,17,1,2
23,39,1,1
25,17,2,1
23,58,5,2
56,57,9,1
133,25,3,2
23,148,3,3
56,55,6,0
20,13,2,3
20,13,2,2
56,23,1,3
23,58,4,6
56,55,3,1
27,102,2,1
27,102,0,2
128,13,3,4
73,94,3,2
34,0,6,3
74,26,1,6
63,77,3,3
29,87,2,3
2,96,4,1
8,3,6,0
74,26,3,7
34,0,2,2
63,77,3,3
73,94,1,3
29,87,6,4
2,96,2,4
66,64,4,3
8,3,5,3
25,7,4,1
23,73,4,2
7,73,1,1
25,23,4,0
82,64,3,4
66,91,4,6
25,73,7,0
7,23,1,5
91,64,1,5
66,82,3,5
25,23,4,1
69,75,8,1
69,91,3,2
96,26,5,5
73,63,3,2
29,64,3,0
69,83,5,2
96,26,0,3
2,60,10,0
73,63,2,2
29,64,7,5
2,60,11,0
63,88,3,2
26,77,6,0
74,103,1,4
2,92,8,3
74,103,0,3
2,92,6,1
74,71,3,2
64,27,3,3
74,71,1,1
64,27,3,2
7,54,1,2
25,58,3,1
23,38,1,1
25,38,2,0
69,106,2,2
7,23,1,2
54,58,6,1
25,23,2,1
69,106,6,2
54,38,3,1
7,38,4,4
23,58,5,1
54,25,0,2
58,38,4,3
54,23,4,3
7,25,0,2
70,29,4,1
70,29,3,2
75,27,4,7
97,74,1,4
97,74,1,1
54,58,3,1
25,7,7,2
25,58,5,0
54,7,2,1
25,54,2,3
124,41,1,6
124,41,1,2
21,4,4,2
69,70,3,3
69,70,5,4
73,71,4,3
73,71,1,4
27,106,5,0
27,18,3,0
27,11,1,1
11,29,3,5
11,29,5,2
4,114,2,1
17,19,12,0
153,4,0,5
15,17,2,1
19,147,1,4
34,4,8,1
15,19,3,0
17,147,4,0
115,4,5,2
21,17,2,3
115,17,1,6
17,34,2,2
4,133,7,2
20,4,3,0
21,4,4,3
3,9,1,2
8,139,3,0
3,135,2,0
8,125,1,0
9,135,0,0
11,8,1,0
9,139,6,1
3,12,1,0
10,8,1,0
9,3,2,1
11,9,1,0
85,2,1,2
5,0,3,4
5,2,1,5
85,0,2,4
85,5,3,1
2,0,7,4
78,27,2,4
2,26,3,4
29,60,4,12
27,83,2,1
2,60,2,6
29,26,2,5
80,27,2,2
26,60,3,9
29,2,1,4
77,69,5,3
37,69,5,6
85,69,3,7
70,26,0,6
0,5,2,1
5,26,0,2
0,70,5,0
5,70,6,4
0,26,3,2
62,29,2,3
27,80,3,4
94,69,1,3
77,0,4,5
60,2,3,5
26,37,5,3
27,87,4,6
29,92,4,1
60,94,6,5
0,37,5,6
69,2,2,6
26,77,5,2
29,104,7,5
88,27,0,5
2,94,1,2
69,60,5,10
26,0,2,4
62,27,4,3
37,69,5,6
29,88,2,1
26,60,1,4
0,2,8,3
69,85,3,4
5,60,2,4
29,0,2,6
69,5,0,4
60,85,6,5
0,77,3,4
37,29,3,2
85,5,2,4
60,69,11,3
77,29,3,5
37,0,2,1
29,60,7,3
77,2,1,3
26,94,2,1
69,88,3,4
60,94,6,6
88,2,0,8
29,26,3,6
69,77,5,3
29,94,1,4
26,60,3,8
69,2,6,8
0,77,7,1
63,70,1,6
26,73,3,3
77,2,0,5
73,80,3,3
2,0,4,4
63,94,0,0
80,26,1,8
94,2,1,2
70,0,0,6
37,73,2,1
96,26,0,4
2,37,3,4
0,26,4,3
2,26,4,8
37,0,3,1
