Team1Ranking1,Team1Ranking2,Team1Ranking3,Team1Ranking4,Team2Ranking1,Team2Ranking2,Team2Ranking3,Team2Ranking4
166.07,108.09,108.68,73.70,143.89,180.10,114.27,27.02
208.27,291.04,99.48,50.64,486.28,243.84,168.44,119.85
369.10,172.65,110.03,34.09,290.29,246.02,92.40,79.64
646.92,345.91,155.33,125.53,537.05,305.74,193.92,88.80
520.12,428.38,118.09,131.54,366.60,193.77,98.16,59.79
404.07,404.80,248.99,183.59,438.64,282.13,90.61,96.64
560.36,394.05,126.58,44.40,723.72,157.44,90.07,80.21
397.75,336.39,100.79,110.25,251.21,237.11,59.46,70.00
410.90,240.29,99.73,133.11,417.12,203.56,91.57,38.50
775.06,416.00,127.28,240.15,470.55,253.39,173.99,91.51
558.95,541.18,168.06,162.38,578.59,404.29,101.43,114.42
478.44,215.99,111.03,74.44,162.13,223.79,91.79,65.96
629.98,322.82,158.94,186.58,276.92,154.50,97.89,41.86
545.56,197.39,68.28,98.68,476.42,296.75,174.15,103.52
292.09,327.78,199.73,166.38,164.51,206.50,81.97,67.78
499.90,448.47,112.55,121.69,368.23,268.67,84.09,116.99
166.07,108.09,108.68,73.70,208.27,291.04,99.48,50.64
646.92,345.91,155.33,125.53,369.10,172.65,110.03,34.09
486.28,243.84,168.44,119.85,143.89,180.10,114.27,27.02
290.29,246.02,92.40,79.64,537.05,305.74,193.92,88.80
723.72,157.44,90.07,80.21,366.60,193.77,98.16,59.79
520.12,428.38,118.09,131.54,560.36,394.05,126.58,44.40
404.07,404.80,248.99,183.59,397.75,336.39,100.79,110.25
558.95,541.18,168.06,162.38,410.90,240.29,99.73,133.11
251.21,237.11,59.46,70.00,438.64,282.13,90.61,96.64
417.12,203.56,91.57,38.50,578.59,404.29,101.43,114.42
629.98,322.82,158.94,186.58,545.56,197.39,68.28,98.68
162.13,223.79,91.79,65.96,470.55,253.39,173.99,91.51
775.06,416.00,127.28,240.15,478.44,215.99,111.03,74.44
476.42,296.75,174.15,103.52,276.92,154.50,97.89,41.86
164.51,206.50,81.97,67.78,368.23,268.67,84.09,116.99
499.90,448.47,112.55,121.69,292.09,327.78,199.73,166.38
143.89,180.10,114.27,27.02,208.27,291.04,99.48,50.64
486.28,243.84,168.44,119.85,166.07,108.09,108.68,73.70
290.29,246.02,92.40,79.64,646.92,345.91,155.33,125.53
537.05,305.74,193.92,88.80,369.10,172.65,110.03,34.09
366.60,193.77,98.16,59.79,560.36,394.05,126.58,44.40
723.72,157.44,90.07,80.21,520.12,428.38,118.09,131.54
438.64,282.13,90.61,96.64,397.75,336.39,100.79,110.25
251.21,237.11,59.46,70.00,404.07,404.80,248.99,183.59
162.13,223.79,91.79,65.96,775.06,416.00,127.28,240.15
470.55,253.39,173.99,91.51,478.44,215.99,111.03,74.44
578.59,404.29,101.43,114.42,410.90,240.29,99.73,133.11
417.12,203.56,91.57,38.50,558.95,541.18,168.06,162.38
164.51,206.50,81.97,67.78,499.90,448.47,112.55,121.69
368.23,268.67,84.09,116.99,292.09,327.78,199.73,166.38
476.42,296.75,174.15,103.52,629.98,322.82,158.94,186.58
276.92,154.50,97.89,41.86,545.56,197.39,68.28,98.68
