Team1,Team2
61,98
29,5
26,10
60,4
71,8
42,56
44,65
58,7
18,53
74,2
0,62
55,12
52,17
25,76
43,1
51,23
61,29
60,26
5,98
10,4
65,8
71,44
42,58
0,18
7,56
53,62
52,25
12,2
74,55
76,17
1,23
51,43
98,29
5,61
10,60
4,26
8,44
65,71
56,58
7,42
12,74
2,55
62,18
53,0
1,51
23,43
76,52
17,25
